EESchema Schematic File Version 4
LIBS:SMMR-cache
EELAYER 26 0
EELAYER END
$Descr A4 11693 8268
encoding utf-8
Sheet 5 5
Title "Sistema de Monitoreo de Material Rodante"
Date "2019-06-13"
Rev "1.3"
Comp "Sebastián Guarino"
Comment1 "Licencia MIT, ver archivo LICENSE"
Comment2 ""
Comment3 ""
Comment4 ""
$EndDescr
$Comp
L Connector:Micro_SD_Card J?
U 1 1 5D044260
P 5050 6550
AR Path="/5D044260" Ref="J?"  Part="1" 
AR Path="/5D042DB3/5D044260" Ref="J301"  Part="1" 
F 0 "J301" H 5000 7267 50  0000 C CNN
F 1 "Micro_SD_Card" H 5000 7176 50  0000 C CNN
F 2 "Connector_Card:microSD_HC_Hirose_DM3D-SF" H 6200 6850 50  0001 C CNN
F 3 "http://katalog.we-online.de/em/datasheet/693072010801.pdf" H 5050 6550 50  0001 C CNN
F 4 "Hirose" H 5050 6550 50  0001 C CNN "Manf"
F 5 "DM3D-SF" H 5050 6550 50  0001 C CNN "Manf#"
F 6 "uSD Card Connector" H 5050 6550 50  0001 C CNN "Desc"
F 7 "Digikey" H 5050 6550 50  0001 C CNN "Provider"
F 8 "HR1941TR-ND" H 5050 6550 50  0001 C CNN "Provider#"
	1    5050 6550
	1    0    0    -1  
$EndComp
$Comp
L power:GND #PWR?
U 1 1 5D044267
P 3300 7250
AR Path="/5D044267" Ref="#PWR?"  Part="1" 
AR Path="/5D042DB3/5D044267" Ref="#PWR0306"  Part="1" 
F 0 "#PWR0306" H 3300 7000 50  0001 C CNN
F 1 "GND" H 3305 7077 50  0000 C CNN
F 2 "" H 3300 7250 50  0001 C CNN
F 3 "" H 3300 7250 50  0001 C CNN
	1    3300 7250
	1    0    0    -1  
$EndComp
Wire Wire Line
	3300 6750 3300 7250
$Comp
L power:+3.3V #PWR?
U 1 1 5D04426E
P 3300 5850
AR Path="/5D04426E" Ref="#PWR?"  Part="1" 
AR Path="/5D042DB3/5D04426E" Ref="#PWR0305"  Part="1" 
F 0 "#PWR0305" H 3300 5700 50  0001 C CNN
F 1 "+3.3V" H 3315 6023 50  0000 C CNN
F 2 "" H 3300 5850 50  0001 C CNN
F 3 "" H 3300 5850 50  0001 C CNN
	1    3300 5850
	1    0    0    -1  
$EndComp
Wire Wire Line
	3300 6550 3300 5850
$Comp
L Device:C C?
U 1 1 5D044275
P 6250 6700
AR Path="/5D044275" Ref="C?"  Part="1" 
AR Path="/5D042DB3/5D044275" Ref="C303"  Part="1" 
F 0 "C303" H 6365 6746 50  0000 L CNN
F 1 "0.1uF" H 6365 6655 50  0000 L CNN
F 2 "Capacitor_SMD:C_0805_2012Metric_Pad1.15x1.40mm_HandSolder" H 6288 6550 50  0001 C CNN
F 3 "~" H 6250 6700 50  0001 C CNN
	1    6250 6700
	1    0    0    -1  
$EndComp
$Comp
L power:GND #PWR?
U 1 1 5D04427C
P 6250 6950
AR Path="/5D04427C" Ref="#PWR?"  Part="1" 
AR Path="/5D042DB3/5D04427C" Ref="#PWR0311"  Part="1" 
F 0 "#PWR0311" H 6250 6700 50  0001 C CNN
F 1 "GND" H 6255 6777 50  0000 C CNN
F 2 "" H 6250 6950 50  0001 C CNN
F 3 "" H 6250 6950 50  0001 C CNN
	1    6250 6950
	1    0    0    -1  
$EndComp
$Comp
L power:+3.3V #PWR?
U 1 1 5D044282
P 6250 6300
AR Path="/5D044282" Ref="#PWR?"  Part="1" 
AR Path="/5D042DB3/5D044282" Ref="#PWR0310"  Part="1" 
F 0 "#PWR0310" H 6250 6150 50  0001 C CNN
F 1 "+3.3V" H 6265 6473 50  0000 C CNN
F 2 "" H 6250 6300 50  0001 C CNN
F 3 "" H 6250 6300 50  0001 C CNN
	1    6250 6300
	1    0    0    -1  
$EndComp
Wire Wire Line
	6250 6300 6250 6550
Wire Wire Line
	4150 6750 3300 6750
Wire Wire Line
	4150 6550 3300 6550
Wire Wire Line
	4150 6450 3750 6450
Wire Wire Line
	4150 6350 3750 6350
Wire Wire Line
	4150 6650 3750 6650
Wire Wire Line
	4150 6850 3750 6850
Text Label 3800 6850 0    50   ~ 0
MISO
Text Label 3800 6650 0    50   ~ 0
SCK
Text Label 3800 6450 0    50   ~ 0
MOSI
Text Label 3800 6350 0    50   ~ 0
CS
Wire Notes Line
	2950 5450 2950 7600
Wire Notes Line
	2950 7600 6600 7600
Wire Notes Line
	6600 7600 6600 5450
Wire Notes Line
	6600 5450 2950 5450
Text Notes 3050 5550 0    50   ~ 0
SD Reader
$Comp
L power:GND #PWR?
U 1 1 5D044298
P 6000 7300
AR Path="/5D044298" Ref="#PWR?"  Part="1" 
AR Path="/5D042DB3/5D044298" Ref="#PWR0309"  Part="1" 
F 0 "#PWR0309" H 6000 7050 50  0001 C CNN
F 1 "GND" H 6005 7127 50  0000 C CNN
F 2 "" H 6000 7300 50  0001 C CNN
F 3 "" H 6000 7300 50  0001 C CNN
	1    6000 7300
	1    0    0    -1  
$EndComp
Wire Wire Line
	6000 7150 5850 7150
Wire Wire Line
	6000 7150 6000 7300
Wire Wire Line
	6250 6950 6250 6850
Text Label 5150 3450 0    50   ~ 0
MOSI
Text Label 5150 3050 0    50   ~ 0
SCK
Text Label 5150 2350 0    50   ~ 0
CS
$Comp
L Device:R R?
U 1 1 5D046CC5
P 1700 1650
AR Path="/5D046CC5" Ref="R?"  Part="1" 
AR Path="/5D042DB3/5D046CC5" Ref="R301"  Part="1" 
F 0 "R301" H 1770 1696 50  0000 L CNN
F 1 "10k" H 1770 1605 50  0000 L CNN
F 2 "Resistor_SMD:R_0805_2012Metric_Pad1.15x1.40mm_HandSolder" V 1630 1650 50  0001 C CNN
F 3 "~" H 1700 1650 50  0001 C CNN
F 4 "Yageo" H 0   0   50  0001 C CNN "Manf"
F 5 "Digikey" H 0   0   50  0001 C CNN "Provider"
	1    1700 1650
	1    0    0    -1  
$EndComp
$Comp
L power:+3.3V #PWR?
U 1 1 5D046CCC
P 1700 1350
AR Path="/5D046CCC" Ref="#PWR?"  Part="1" 
AR Path="/5D042DB3/5D046CCC" Ref="#PWR0303"  Part="1" 
F 0 "#PWR0303" H 1700 1200 50  0001 C CNN
F 1 "+3.3V" H 1715 1523 50  0000 C CNN
F 2 "" H 1700 1350 50  0001 C CNN
F 3 "" H 1700 1350 50  0001 C CNN
	1    1700 1350
	1    0    0    -1  
$EndComp
$Comp
L power:GND #PWR?
U 1 1 5D046CD2
P 1700 2300
AR Path="/5D046CD2" Ref="#PWR?"  Part="1" 
AR Path="/5D042DB3/5D046CD2" Ref="#PWR0304"  Part="1" 
F 0 "#PWR0304" H 1700 2050 50  0001 C CNN
F 1 "GND" H 1705 2127 50  0000 C CNN
F 2 "" H 1700 2300 50  0001 C CNN
F 3 "" H 1700 2300 50  0001 C CNN
	1    1700 2300
	1    0    0    -1  
$EndComp
Wire Wire Line
	1700 1350 1700 1500
$Comp
L Device:C C?
U 1 1 5D046CD9
P 1700 2050
AR Path="/5D046CD9" Ref="C?"  Part="1" 
AR Path="/5D042DB3/5D046CD9" Ref="C302"  Part="1" 
F 0 "C302" H 1815 2096 50  0000 L CNN
F 1 "0.1uF" H 1815 2005 50  0000 L CNN
F 2 "Capacitor_SMD:C_0805_2012Metric_Pad1.15x1.40mm_HandSolder" H 1738 1900 50  0001 C CNN
F 3 "~" H 1700 2050 50  0001 C CNN
	1    1700 2050
	1    0    0    -1  
$EndComp
Wire Wire Line
	1700 1800 1700 1850
Connection ~ 1700 1850
Wire Wire Line
	1700 1850 1700 1900
$Comp
L power:GND #PWR?
U 1 1 5D046CE5
P 3700 4600
AR Path="/5D046CE5" Ref="#PWR?"  Part="1" 
AR Path="/5D042DB3/5D046CE5" Ref="#PWR0308"  Part="1" 
F 0 "#PWR0308" H 3700 4350 50  0001 C CNN
F 1 "GND" H 3705 4427 50  0000 C CNN
F 2 "" H 3700 4600 50  0001 C CNN
F 3 "" H 3700 4600 50  0001 C CNN
	1    3700 4600
	1    0    0    -1  
$EndComp
$Comp
L power:+3.3V #PWR?
U 1 1 5D046CEB
P 3700 1400
AR Path="/5D046CEB" Ref="#PWR?"  Part="1" 
AR Path="/5D042DB3/5D046CEB" Ref="#PWR0307"  Part="1" 
F 0 "#PWR0307" H 3700 1250 50  0001 C CNN
F 1 "+3.3V" H 3715 1573 50  0000 C CNN
F 2 "" H 3700 1400 50  0001 C CNN
F 3 "" H 3700 1400 50  0001 C CNN
	1    3700 1400
	1    0    0    -1  
$EndComp
Wire Wire Line
	3700 1400 3700 1650
Wire Notes Line
	1350 1000 2250 1000
Wire Notes Line
	2250 1000 2250 2700
Wire Notes Line
	2250 2700 1350 2700
Wire Notes Line
	1350 2700 1350 1000
Text Notes 1400 1100 0    50   ~ 0
Reset
Text Label 4400 3250 0    50   ~ 0
SDA
Text Label 4400 3350 0    50   ~ 0
SCL
Text Label 4350 2850 0    50   ~ 0
UART2_RX
Text Label 4350 2950 0    50   ~ 0
UART2_TX
Text Label 5150 3150 0    50   ~ 0
MISO
Wire Wire Line
	4300 3150 5400 3150
Wire Wire Line
	4300 3050 5400 3050
Wire Wire Line
	4300 3450 5400 3450
Wire Wire Line
	4300 2350 5400 2350
Text Label 4350 2250 0    50   ~ 0
NWAKE
Wire Wire Line
	3700 4450 3700 4600
Wire Wire Line
	1700 2200 1700 2300
$Comp
L power:GND #PWR?
U 1 1 5D04A471
P 7150 2800
AR Path="/5D04A471" Ref="#PWR?"  Part="1" 
AR Path="/5D042DB3/5D04A471" Ref="#PWR0317"  Part="1" 
F 0 "#PWR0317" H 7150 2550 50  0001 C CNN
F 1 "GND" H 7155 2627 50  0000 C CNN
F 2 "" H 7150 2800 50  0001 C CNN
F 3 "" H 7150 2800 50  0001 C CNN
	1    7150 2800
	-1   0    0    -1  
$EndComp
$Comp
L power:+3.3V #PWR?
U 1 1 5D04A477
P 7150 2250
AR Path="/5D04A477" Ref="#PWR?"  Part="1" 
AR Path="/5D042DB3/5D04A477" Ref="#PWR0316"  Part="1" 
F 0 "#PWR0316" H 7150 2100 50  0001 C CNN
F 1 "+3.3V" H 7165 2423 50  0000 C CNN
F 2 "" H 7150 2250 50  0001 C CNN
F 3 "" H 7150 2250 50  0001 C CNN
	1    7150 2250
	-1   0    0    -1  
$EndComp
Wire Wire Line
	7150 2250 7150 2350
Wire Wire Line
	7150 2350 7250 2350
Wire Wire Line
	7150 2800 7150 2650
Wire Wire Line
	7150 2650 7250 2650
Text Label 7150 2550 2    50   ~ 0
UART2_RX
Text Label 7150 2450 2    50   ~ 0
UART2_TX
$Comp
L Connector_Generic:Conn_01x04 J?
U 1 1 5D04A485
P 7450 2450
AR Path="/5D04A485" Ref="J?"  Part="1" 
AR Path="/5D042DB3/5D04A485" Ref="J302"  Part="1" 
F 0 "J302" H 7600 2550 50  0000 C CNN
F 1 "Conn_01x04" H 7750 2400 50  0001 C CNN
F 2 "Connector_PinHeader_2.54mm:PinHeader_1x04_P2.54mm_Vertical" H 7450 2450 50  0001 C CNN
F 3 "~" H 7450 2450 50  0001 C CNN
	1    7450 2450
	1    0    0    -1  
$EndComp
Text Notes 7900 1950 2    50   ~ 0
GPS Connector
Wire Notes Line
	8050 3100 6500 3100
Wire Notes Line
	6500 3100 6500 1750
Wire Notes Line
	6500 1750 8050 1750
Wire Notes Line
	8050 1750 8050 3100
Text HLabel 4800 4050 2    50   Input ~ 0
DIN0
Text HLabel 4800 3850 2    50   Input ~ 0
DIN2
Text HLabel 4800 3950 2    50   Input ~ 0
DIN3
Text HLabel 4800 4150 2    50   Input ~ 0
DIN1
Text HLabel 4800 1850 2    50   Input ~ 0
AIN0
Text HLabel 4800 2050 2    50   Input ~ 0
AIN1
Text HLabel 4800 2750 2    50   Input ~ 0
AIN2
Text HLabel 4800 2550 2    50   Input ~ 0
AIN3
Wire Wire Line
	4300 2750 4800 2750
Wire Wire Line
	4300 2550 4800 2550
Wire Wire Line
	4300 3850 4800 3850
Wire Wire Line
	4300 3950 4800 3950
NoConn ~ 4150 6250
NoConn ~ 4150 6950
NoConn ~ 3100 3550
NoConn ~ 3100 3450
NoConn ~ 3100 3350
NoConn ~ 3100 3250
NoConn ~ 3100 3150
NoConn ~ 3100 3050
NoConn ~ 4300 3650
NoConn ~ 4300 3750
Wire Wire Line
	1700 1850 3100 1850
$Comp
L Device:R R?
U 1 1 5D07B3D3
P 8800 2750
AR Path="/5D031A85/5D07B3D3" Ref="R?"  Part="1" 
AR Path="/5D042DB3/5D07B3D3" Ref="R303"  Part="1" 
F 0 "R303" H 8870 2796 50  0000 L CNN
F 1 "4.7k" H 8870 2705 50  0000 L CNN
F 2 "Resistor_SMD:R_0805_2012Metric_Pad1.15x1.40mm_HandSolder" V 8730 2750 50  0001 C CNN
F 3 "$KIPRJMOD/components/Resistors/PYu-RC_Group_51_RoHS_L_10.pdf" H 8800 2750 50  0001 C CNN
F 4 "Yageo" H 0   0   50  0001 C CNN "Manf"
F 5 "Digikey" H 0   0   50  0001 C CNN "Provider"
	1    8800 2750
	-1   0    0    -1  
$EndComp
$Comp
L Device:R R?
U 1 1 5D07B3DA
P 8450 2750
AR Path="/5D031A85/5D07B3DA" Ref="R?"  Part="1" 
AR Path="/5D042DB3/5D07B3DA" Ref="R302"  Part="1" 
F 0 "R302" H 8520 2796 50  0000 L CNN
F 1 "4.7k" H 8520 2705 50  0000 L CNN
F 2 "Resistor_SMD:R_0805_2012Metric_Pad1.15x1.40mm_HandSolder" V 8380 2750 50  0001 C CNN
F 3 "$KIPRJMOD/components/Resistors/PYu-RC_Group_51_RoHS_L_10.pdf" H 8450 2750 50  0001 C CNN
F 4 "Yageo" H 0   0   50  0001 C CNN "Manf"
F 5 "Digikey" H 0   0   50  0001 C CNN "Provider"
	1    8450 2750
	-1   0    0    -1  
$EndComp
$Comp
L power:+3.3V #PWR?
U 1 1 5D07B3E1
P 8450 2400
AR Path="/5D031A85/5D07B3E1" Ref="#PWR?"  Part="1" 
AR Path="/5D042DB3/5D07B3E1" Ref="#PWR0312"  Part="1" 
F 0 "#PWR0312" H 8450 2250 50  0001 C CNN
F 1 "+3.3V" H 8465 2573 50  0000 C CNN
F 2 "" H 8450 2400 50  0001 C CNN
F 3 "" H 8450 2400 50  0001 C CNN
	1    8450 2400
	-1   0    0    -1  
$EndComp
$Comp
L power:+3.3V #PWR?
U 1 1 5D07B3E7
P 8800 2400
AR Path="/5D031A85/5D07B3E7" Ref="#PWR?"  Part="1" 
AR Path="/5D042DB3/5D07B3E7" Ref="#PWR0313"  Part="1" 
F 0 "#PWR0313" H 8800 2250 50  0001 C CNN
F 1 "+3.3V" H 8815 2573 50  0000 C CNN
F 2 "" H 8800 2400 50  0001 C CNN
F 3 "" H 8800 2400 50  0001 C CNN
	1    8800 2400
	-1   0    0    -1  
$EndComp
Wire Wire Line
	8450 2400 8450 2600
Wire Wire Line
	8800 2600 8800 2400
Wire Wire Line
	4300 3250 8450 3250
Wire Wire Line
	8800 2900 8800 3350
Wire Wire Line
	8450 2900 8450 3250
NoConn ~ 4300 2450
NoConn ~ 4300 2650
$Comp
L power:GND #PWR?
U 1 1 5D0B5CA9
P 9800 2900
AR Path="/5D0B5CA9" Ref="#PWR?"  Part="1" 
AR Path="/5D042DB3/5D0B5CA9" Ref="#PWR0314"  Part="1" 
F 0 "#PWR0314" H 9800 2650 50  0001 C CNN
F 1 "GND" H 9805 2727 50  0000 C CNN
F 2 "" H 9800 2900 50  0001 C CNN
F 3 "" H 9800 2900 50  0001 C CNN
	1    9800 2900
	1    0    0    -1  
$EndComp
$Comp
L power:+3.3V #PWR?
U 1 1 5D0B5CAF
P 10150 2950
AR Path="/5D0B5CAF" Ref="#PWR?"  Part="1" 
AR Path="/5D042DB3/5D0B5CAF" Ref="#PWR0315"  Part="1" 
F 0 "#PWR0315" H 10150 2800 50  0001 C CNN
F 1 "+3.3V" H 10165 3123 50  0000 C CNN
F 2 "" H 10150 2950 50  0001 C CNN
F 3 "" H 10150 2950 50  0001 C CNN
	1    10150 2950
	-1   0    0    -1  
$EndComp
Wire Wire Line
	10150 2950 10150 3050
Wire Wire Line
	10150 3050 10250 3050
Text Label 9900 3350 2    50   ~ 0
SCL
Text Label 9900 3250 2    50   ~ 0
SDA
$Comp
L Connector_Generic:Conn_01x05 J?
U 1 1 5D0B5CBD
P 10450 3250
AR Path="/5D0B5CBD" Ref="J?"  Part="1" 
AR Path="/5D042DB3/5D0B5CBD" Ref="J303"  Part="1" 
F 0 "J303" H 10600 3450 50  0000 C CNN
F 1 "Conn_01x05" H 10750 3200 50  0001 C CNN
F 2 "Connector_PinHeader_2.54mm:PinHeader_1x05_P2.54mm_Vertical" H 10450 3250 50  0001 C CNN
F 3 "~" H 10450 3250 50  0001 C CNN
	1    10450 3250
	1    0    0    -1  
$EndComp
Text Notes 9250 2600 0    50   ~ 0
I2C Connector
Wire Notes Line
	9200 3850 10750 3850
Wire Notes Line
	10750 3850 10750 2500
Wire Notes Line
	10750 2500 9200 2500
Wire Notes Line
	9200 2500 9200 3850
Text Label 10000 3450 2    50   ~ 0
NWAKE
Wire Wire Line
	9800 2900 9800 2850
Wire Wire Line
	9800 2850 10000 2850
Wire Wire Line
	10000 2850 10000 3150
Wire Wire Line
	10000 3150 10250 3150
Wire Wire Line
	8450 3250 10250 3250
Connection ~ 8450 3250
Wire Wire Line
	8800 3350 10250 3350
Wire Wire Line
	4300 3350 8800 3350
Connection ~ 8800 3350
Wire Wire Line
	4800 4150 4300 4150
Wire Wire Line
	4300 4050 4800 4050
Wire Wire Line
	4300 1850 4800 1850
Wire Wire Line
	4300 2050 4800 2050
$Comp
L Device:CP C301
U 1 1 5D2851C7
P 800 1250
F 0 "C301" H 918 1296 50  0000 L CNN
F 1 "10uF" H 918 1205 50  0000 L CNN
F 2 "Capacitor_SMD:C_1206_3216Metric_Pad1.42x1.75mm_HandSolder" H 838 1100 50  0001 C CNN
F 3 "$KIPRJMOD/components/Capacitors/KEM_T2005_T491.pdf" H 800 1250 50  0001 C CNN
F 4 "Digikey" H 800 1250 50  0001 C CNN "Provider"
F 5 "CAP TANT 10UF 10% 6.3V 1206" H 0   0   50  0001 C CNN "Desc"
F 6 "KEMET" H 0   0   50  0001 C CNN "Manf"
F 7 "T491A106K006AT" H 0   0   50  0001 C CNN "Manf#"
F 8 "399-10116-1-ND" H 0   0   50  0001 C CNN "Provider#"
	1    800  1250
	1    0    0    -1  
$EndComp
$Comp
L power:GND #PWR0105
U 1 1 5D2852DC
P 800 1500
F 0 "#PWR0105" H 800 1250 50  0001 C CNN
F 1 "GND" H 805 1327 50  0000 C CNN
F 2 "" H 800 1500 50  0001 C CNN
F 3 "" H 800 1500 50  0001 C CNN
	1    800  1500
	1    0    0    -1  
$EndComp
$Comp
L power:+3.3V #PWR0106
U 1 1 5D28535B
P 800 1000
F 0 "#PWR0106" H 800 850 50  0001 C CNN
F 1 "+3.3V" H 815 1173 50  0000 C CNN
F 2 "" H 800 1000 50  0001 C CNN
F 3 "" H 800 1000 50  0001 C CNN
	1    800  1000
	1    0    0    -1  
$EndComp
Wire Wire Line
	800  1100 800  1000
Wire Wire Line
	800  1400 800  1500
NoConn ~ 4300 1950
NoConn ~ 4300 2150
NoConn ~ 4300 3550
$Comp
L RF_Module:ESP32-WROOM-32 U?
U 1 1 5D046CBB
P 3700 3050
AR Path="/5D046CBB" Ref="U?"  Part="1" 
AR Path="/5D042DB3/5D046CBB" Ref="U301"  Part="1" 
F 0 "U301" H 3250 4550 50  0000 C CNN
F 1 "ESP32-WROOM-32" H 3250 4450 50  0000 C CNN
F 2 "RF_Module:ESP32-WROOM-32" H 3700 1550 50  0001 C CNN
F 3 "$KIPRJMOD/components/ESP32/esp32-wroom-32d_esp32-wroom-32u_datasheet_en.pdf" H 3400 3100 50  0001 C CNN
F 4 "Espressif Systems" H 3700 3050 50  0001 C CNN "Manf"
F 5 "ESP32-WROOM-32D" H 3700 3050 50  0001 C CNN "Manf#"
F 6 "ESP32 Wifi Module" H 3700 3050 50  0001 C CNN "Desc"
F 7 "Digikey" H 3700 3050 50  0001 C CNN "Provider"
F 8 "1904-1023-1-ND" H 3700 3050 50  0001 C CNN "Provider#"
	1    3700 3050
	1    0    0    -1  
$EndComp
NoConn ~ 3100 2150
NoConn ~ 3100 2050
Wire Wire Line
	6100 2850 6100 2550
Wire Wire Line
	4300 2850 6100 2850
Wire Wire Line
	6100 2550 7250 2550
Wire Wire Line
	6000 2950 6000 2450
Wire Wire Line
	4300 2950 6000 2950
Wire Wire Line
	6000 2450 7250 2450
Wire Wire Line
	5750 2250 5750 3450
Wire Wire Line
	4300 2250 5750 2250
Wire Wire Line
	5750 3450 10250 3450
$EndSCHEMATC
