EESchema Schematic File Version 4
EELAYER 30 0
EELAYER END
$Descr A4 11693 8268
encoding utf-8
Sheet 4 5
Title "Sistema de Monitoreo de Material Rodante"
Date "2019-06-13"
Rev "1.3"
Comp "Sebastián Guarino"
Comment1 "Licencia MIT, ver archivo LICENSE"
Comment2 "Basado en CIAA Versión FSL"
Comment3 ""
Comment4 ""
$EndDescr
$Comp
L SMMR-rescue:C-Device C?
U 1 1 52C09F11
P 4600 1600
AR Path="/5CCA832B/52C09F11" Ref="C?"  Part="1" 
AR Path="/5D042DB3/5D046CFB/52C09F11" Ref="C?"  Part="1" 
AR Path="/5D05F1DF/52C09F11" Ref="C501"  Part="1" 
AR Path="/52C09F11" Ref="C501"  Part="1" 
F 0 "C501" H 4600 1700 40  0000 L CNN
F 1 "1nF" H 4606 1515 40  0000 L CNN
F 2 "Capacitor_SMD:C_0805_2012Metric_Pad1.15x1.40mm_HandSolder" H 4638 1450 30  0001 C CNN
F 3 "$KIPRJMOD/components/Capacitors/KEM_C1002_X7R_SMD.pdf" H 4600 1600 60  0001 C CNN
F 4 "KEMET" H 4600 1600 50  0001 C CNN "Manf"
F 5 "C0805C102K5RACTU" H 4600 1600 50  0001 C CNN "Manf#"
F 6 "Digikey" H 4600 1600 50  0001 C CNN "Provider"
F 7 "399-1147-1-ND" H 4600 1600 50  0001 C CNN "Provider#"
F 8 "C46653" H 4600 1600 50  0001 C CNN "LCSC"
	1    4600 1600
	1    0    0    -1  
$EndComp
$Comp
L SMMR-rescue:D_TVS_ALT-Device ZA?
U 1 1 52C0BFC0
P 5000 1600
AR Path="/5CCA832B/52C0BFC0" Ref="ZA?"  Part="1" 
AR Path="/5D042DB3/5D046CFB/52C0BFC0" Ref="ZA?"  Part="1" 
AR Path="/5D05F1DF/52C0BFC0" Ref="ZA501"  Part="1" 
F 0 "ZA501" V 5050 1300 40  0000 C CNN
F 1 "P6SMB20CAT3G" V 5000 1300 40  0000 C CNN
F 2 "Diode_SMD:D_SMA_Handsoldering" H 5000 1600 60  0001 C CNN
F 3 "$KIPRJMOD/components/SMBJ20A/P6_SZP6_SMB11CAT3G_Series.pdf" H 5000 1600 60  0001 C CNN
F 4 "Littlefuse" H 0   0   50  0001 C CNN "Manf"
F 5 "SZP6SMB20CAT3G" H 0   0   50  0001 C CNN "Manf#"
F 6 "Peak Power Zener Suppressor" H 5000 1600 50  0001 C CNN "Desc"
F 7 "Digikey" H 0   0   50  0001 C CNN "Provider"
F 8 "F11620CT-ND" H 0   0   50  0001 C CNN "Provider#"
	1    5000 1600
	0    -1   -1   0   
$EndComp
$Comp
L MMZ1608B601C:MMZ1608B601C FB?
U 1 1 52C0C09E
P 5350 1000
AR Path="/5CCA832B/52C0C09E" Ref="FB?"  Part="1" 
AR Path="/5D042DB3/5D046CFB/52C0C09E" Ref="FB?"  Part="1" 
AR Path="/5D05F1DF/52C0C09E" Ref="FB501"  Part="1" 
F 0 "FB501" H 5350 1150 60  0000 C CNN
F 1 "MMZ1608B601C" H 5400 900 60  0000 C CNN
F 2 "Fuse:Fuse_0603_1608Metric_Pad1.05x0.95mm_HandSolder" H 5350 1000 60  0001 C CNN
F 3 "$KIPRJMOD/components/MMZ1608B601C/beads_commercial_signal_mmz1608_en.pdf" H 5350 1000 60  0001 C CNN
F 4 "TDK" H 5350 1000 50  0001 C CNN "Manf"
F 5 "MMZ1608B601C" H 5350 1000 50  0001 C CNN "Manf#"
F 6 "FERRITE CHIP 600 OHM 500MA 0603" H 0   0   50  0001 C CNN "Desc"
F 7 "Digikey" H 5350 1000 50  0001 C CNN "Provider"
F 8 "445-2166-1-ND" H 5350 1000 50  0001 C CNN "Provider#"
	1    5350 1000
	1    0    0    -1  
$EndComp
$Comp
L SMMR-rescue:R-Device R?
U 1 1 52C410AD
P 9700 1500
AR Path="/5CCA832B/52C410AD" Ref="R?"  Part="1" 
AR Path="/5D042DB3/5D046CFB/52C410AD" Ref="R?"  Part="1" 
AR Path="/5D05F1DF/52C410AD" Ref="R521"  Part="1" 
F 0 "R521" V 9780 1500 40  0000 C CNN
F 1 "100" V 9707 1501 40  0000 C CNN
F 2 "Resistor_SMD:R_0805_2012Metric_Pad1.20x1.40mm_HandSolder" V 9630 1500 30  0001 C CNN
F 3 "$KIPRJMOD/components/Resistors/PYu-RC_Group_51_RoHS_L_10.pdf" H 9700 1500 30  0001 C CNN
F 4 "Yageo" H 0   0   50  0001 C CNN "Manf"
F 5 "RC0805JR-07100RL" H 0   0   50  0001 C CNN "Manf#"
F 6 "RES SMD 100 OHM 5% 1/8W 0805" H 0   0   50  0001 C CNN "Desc"
F 7 "Digikey" H 0   0   50  0001 C CNN "Provider"
F 8 "311-100ARCT-ND" H 0   0   50  0001 C CNN "Provider#"
F 9 "5%" V 9600 1500 60  0001 C CNN "Tol"
F 10 "C17408" H 9700 1500 50  0001 C CNN "LCSC"
	1    9700 1500
	0    -1   -1   0   
$EndComp
$Comp
L SMMR-rescue:CP-Device C?
U 1 1 52C4213E
P 9150 2275
AR Path="/5CCA832B/52C4213E" Ref="C?"  Part="1" 
AR Path="/5D042DB3/5D046CFB/52C4213E" Ref="C?"  Part="1" 
AR Path="/5D05F1DF/52C4213E" Ref="C509"  Part="1" 
F 0 "C509" H 9200 2375 50  0000 L CNN
F 1 "10uF" H 9200 2175 50  0000 L CNN
F 2 "Capacitor_SMD:C_1206_3216Metric_Pad1.42x1.75mm_HandSolder" H 9150 2275 60  0001 C CNN
F 3 "$KIPRJMOD/components/Capacitors/KEM_T2005_T491.pdf" H 9150 2275 60  0001 C CNN
F 4 "KEMET" H 9150 2275 50  0001 C CNN "Manf"
F 5 "T491A106K010AH" H 9150 2275 50  0001 C CNN "Manf#"
F 6 "CAP TANT 10UF 10% 6.3V 1206" H 9150 2275 50  0001 C CNN "Desc"
F 7 "Digikey" H 9150 2275 50  0001 C CNN "Provider"
F 8 "399-10117-1-ND" H 9150 2275 50  0001 C CNN "Provider#"
	1    9150 2275
	0    -1   -1   0   
$EndComp
$Comp
L SMMR-rescue:C-Device C?
U 1 1 52C4214D
P 9150 2525
AR Path="/5CCA832B/52C4214D" Ref="C?"  Part="1" 
AR Path="/5D042DB3/5D046CFB/52C4214D" Ref="C?"  Part="1" 
AR Path="/5D05F1DF/52C4214D" Ref="C510"  Part="1" 
AR Path="/52C4214D" Ref="C510"  Part="1" 
F 0 "C510" H 9150 2625 40  0000 L CNN
F 1 "100nF" H 9156 2440 40  0000 L CNN
F 2 "Capacitor_SMD:C_0805_2012Metric_Pad1.15x1.40mm_HandSolder" H 9188 2375 30  0001 C CNN
F 3 "$KIPRJMOD/components/Capacitors/KEM_C1002_X7R_SMD.pdf" H 9150 2525 60  0001 C CNN
F 4 "KEMET" H 9150 2525 50  0001 C CNN "Manf"
F 5 "C0805C104K5RACTU" H 9150 2525 50  0001 C CNN "Manf#"
F 6 "Digikey" H 9150 2525 50  0001 C CNN "Provider"
F 7 "399-1170-1-ND" H 9150 2525 50  0001 C CNN "Provider#"
F 8 "C49678" H 9150 2525 50  0001 C CNN "LCSC"
	1    9150 2525
	0    -1   -1   0   
$EndComp
$Comp
L SMMR-rescue:GND-power #PWR?
U 1 1 52C42244
P 9550 2575
AR Path="/5CCA832B/52C42244" Ref="#PWR?"  Part="1" 
AR Path="/5D042DB3/5D046CFB/52C42244" Ref="#PWR?"  Part="1" 
AR Path="/5D05F1DF/52C42244" Ref="#PWR0512"  Part="1" 
F 0 "#PWR0512" H 9550 2575 40  0001 C CNN
F 1 "GND" H 9555 2409 40  0000 C CNN
F 2 "" H 9550 2575 60  0000 C CNN
F 3 "" H 9550 2575 60  0000 C CNN
	1    9550 2575
	1    0    0    -1  
$EndComp
Text HLabel 10100 1500 2    60   Output ~ 0
AIN0
$Comp
L MCP6022:MCP6022 U?
U 1 1 52C423D7
P 8950 3000
AR Path="/5CCA832B/52C423D7" Ref="U?"  Part="2" 
AR Path="/5D042DB3/5D046CFB/52C423D7" Ref="U?"  Part="2" 
AR Path="/5D05F1DF/52C423D7" Ref="U501"  Part="1" 
F 0 "U501" H 9150 3250 60  0000 C CNN
F 1 "MCP6022" H 9150 3150 60  0000 C CNN
F 2 "Package_SO:SOIC-8_3.9x4.9mm_P1.27mm" H 8950 3000 60  0001 C CNN
F 3 "$KIPRJMOD/components/MCP6024/MCP6024.pdf" H 8950 3000 60  0001 C CNN
F 4 "Microchip Technology" H 0   0   50  0001 C CNN "Manf"
F 5 "MCP6022T-I/SN" H 0   0   50  0001 C CNN "Manf#"
F 6 "IC OPAMP GP 10MHZ RRO 8SOIC" H 0   0   50  0001 C CNN "Desc"
F 7 "Digikey" H 0   0   50  0001 C CNN "Provider"
F 8 "MCP6022T-I/SNCT-ND" H 0   0   50  0001 C CNN "Provider#"
F 9 "C57639" H 8950 3000 50  0001 C CNN "LCSC"
	1    8950 3000
	1    0    0    -1  
$EndComp
$Comp
L SMMR-rescue:R-Device R?
U 1 1 52C423F1
P 9700 3000
AR Path="/5CCA832B/52C423F1" Ref="R?"  Part="1" 
AR Path="/5D042DB3/5D046CFB/52C423F1" Ref="R?"  Part="1" 
AR Path="/5D05F1DF/52C423F1" Ref="R522"  Part="1" 
F 0 "R522" V 9780 3000 40  0000 C CNN
F 1 "100" V 9707 3001 40  0000 C CNN
F 2 "Resistor_SMD:R_0805_2012Metric_Pad1.20x1.40mm_HandSolder" V 9630 3000 30  0001 C CNN
F 3 "$KIPRJMOD/components/Resistors/PYu-RC_Group_51_RoHS_L_10.pdf" H 9700 3000 30  0001 C CNN
F 4 "5%" V 9600 3000 60  0001 C CNN "Tol"
F 5 "RES SMD 100 OHM 5% 1/8W 0805" H 0   0   50  0001 C CNN "Desc"
F 6 "Yageo" H 0   0   50  0001 C CNN "Manf"
F 7 "RC0805JR-07100RL" H 0   0   50  0001 C CNN "Manf#"
F 8 "Digikey" H 0   0   50  0001 C CNN "Provider"
F 9 "311-100ARCT-ND" H 0   0   50  0001 C CNN "Provider#"
F 10 "C17408" H 9700 3000 50  0001 C CNN "LCSC"
	1    9700 3000
	0    -1   -1   0   
$EndComp
$Comp
L SMMR-rescue:C-Device C?
U 1 1 52C42424
P 9950 3200
AR Path="/5CCA832B/52C42424" Ref="C?"  Part="1" 
AR Path="/5D042DB3/5D046CFB/52C42424" Ref="C?"  Part="1" 
AR Path="/5D05F1DF/52C42424" Ref="C512"  Part="1" 
AR Path="/52C42424" Ref="C512"  Part="1" 
F 0 "C512" H 9950 3300 40  0000 L CNN
F 1 "100nF" H 9956 3115 40  0000 L CNN
F 2 "Capacitor_SMD:C_0805_2012Metric_Pad1.15x1.40mm_HandSolder" H 9988 3050 30  0001 C CNN
F 3 "$KIPRJMOD/components/Capacitors/KEM_C1002_X7R_SMD.pdf" H 9950 3200 60  0001 C CNN
F 4 "KEMET" H 9950 3200 50  0001 C CNN "Manf"
F 5 "C0805C104K5RACTU" H 9950 3200 50  0001 C CNN "Manf#"
F 6 "Digikey" H 9950 3200 50  0001 C CNN "Provider"
F 7 "399-1170-1-ND" H 9950 3200 50  0001 C CNN "Provider#"
F 8 "C49678" H 9950 3200 50  0001 C CNN "LCSC"
	1    9950 3200
	1    0    0    -1  
$EndComp
Text HLabel 10200 3000 2    60   Output ~ 0
AIN1
Wire Wire Line
	5000 1300 5000 1000
Connection ~ 4600 1900
Wire Wire Line
	4300 1900 4600 1900
Wire Wire Line
	8450 1600 8450 1800
Wire Wire Line
	8950 2075 8950 2275
Wire Wire Line
	9550 2275 9550 2525
Wire Wire Line
	8450 3100 8450 3300
$Comp
L SMMR-rescue:C-Device C?
U 1 1 52D4C8E0
P 5800 1200
AR Path="/5CCA832B/52D4C8E0" Ref="C?"  Part="1" 
AR Path="/5D042DB3/5D046CFB/52D4C8E0" Ref="C?"  Part="1" 
AR Path="/5D05F1DF/52D4C8E0" Ref="C505"  Part="1" 
AR Path="/52D4C8E0" Ref="C505"  Part="1" 
F 0 "C505" H 5800 1300 40  0000 L CNN
F 1 "470pF" H 5806 1115 40  0000 L CNN
F 2 "Capacitor_SMD:C_0805_2012Metric_Pad1.15x1.40mm_HandSolder" H 5838 1050 30  0001 C CNN
F 3 "$KIPRJMOD/components/Capacitors/KEM_C1002_X7R_SMD.pdf" H 5800 1200 60  0001 C CNN
F 4 "KEMET" H 5800 1200 50  0001 C CNN "Manf"
F 5 "C0805C471K5RACTU" H 5800 1200 50  0001 C CNN "Manf#"
F 6 "Digikey" H 5800 1200 50  0001 C CNN "Provider"
F 7 "399-1142-1-ND" H 5800 1200 50  0001 C CNN "Provider#"
F 8 "C1743" H 5800 1200 50  0001 C CNN "LCSC"
	1    5800 1200
	1    0    0    -1  
$EndComp
Wire Wire Line
	5700 1000 5800 1000
$Comp
L SMMR-rescue:R-Device R?
U 1 1 52D4C95C
P 5800 1650
AR Path="/5CCA832B/52D4C95C" Ref="R?"  Part="1" 
AR Path="/5D042DB3/5D046CFB/52D4C95C" Ref="R?"  Part="1" 
AR Path="/5D05F1DF/52D4C95C" Ref="R501"  Part="1" 
F 0 "R501" V 5880 1650 40  0000 C CNN
F 1 "4.7" V 5807 1651 40  0000 C CNN
F 2 "Resistor_SMD:R_0805_2012Metric_Pad1.20x1.40mm_HandSolder" V 5730 1650 30  0001 C CNN
F 3 "$KIPRJMOD/components/Resistors/PYu-RC_Group_51_RoHS_L_10.pdf" H 5800 1650 30  0001 C CNN
F 4 "Yageo" H 0   0   50  0001 C CNN "Manf"
F 5 "RC0805JR-0747RL" H 0   0   50  0001 C CNN "Manf#"
F 6 "RES SMD 47 OHM 5% 1/8W 0805" H 0   0   50  0001 C CNN "Desc"
F 7 "Digikey" H 0   0   50  0001 C CNN "Provider"
F 8 "311-47ARCT-ND" H 0   0   50  0001 C CNN "Provider#"
F 9 "C17675" H 5800 1650 50  0001 C CNN "LCSC"
	1    5800 1650
	-1   0    0    1   
$EndComp
$Comp
L SMMR-rescue:R-Device R?
U 1 1 52D4C99A
P 6300 1650
AR Path="/5CCA832B/52D4C99A" Ref="R?"  Part="1" 
AR Path="/5D042DB3/5D046CFB/52D4C99A" Ref="R?"  Part="1" 
AR Path="/5D05F1DF/52D4C99A" Ref="R505"  Part="1" 
F 0 "R505" V 6380 1650 40  0000 C CNN
F 1 "237" V 6307 1651 40  0000 C CNN
F 2 "Resistor_SMD:R_0805_2012Metric_Pad1.20x1.40mm_HandSolder" V 6230 1650 30  0001 C CNN
F 3 "$KIPRJMOD/components/Resistors 0.1%/AOA0000C307.pdf" H 6300 1650 30  0001 C CNN
F 4 "0.1%" V 6450 1650 60  0000 C CNN "Tol"
F 5 "25 ppm/°C" V 6550 1650 60  0000 C CNN "TC"
F 6 "Digikey" H 0   0   50  0001 C CNN "Provider"
F 7 "RES SMD 237 OHM 0.1% 1/8W 0805" H 0   0   50  0001 C CNN "Desc"
F 8 "Panasonic Electric Components" H 0   0   50  0001 C CNN "Manf"
F 9 "ERA-6AEB2370V" H 0   0   50  0001 C CNN "Manf#"
F 10 "P237DACT-ND" H 0   0   50  0001 C CNN "Provider#"
	1    6300 1650
	-1   0    0    1   
$EndComp
$Comp
L SMMR-rescue:R-Device R?
U 1 1 52D4C9C5
P 6650 800
AR Path="/5CCA832B/52D4C9C5" Ref="R?"  Part="1" 
AR Path="/5D042DB3/5D046CFB/52D4C9C5" Ref="R?"  Part="1" 
AR Path="/5D05F1DF/52D4C9C5" Ref="R509"  Part="1" 
F 0 "R509" V 6730 800 40  0000 C CNN
F 1 "15k" V 6657 801 40  0000 C CNN
F 2 "Resistor_SMD:R_0805_2012Metric_Pad1.20x1.40mm_HandSolder" V 6580 800 30  0001 C CNN
F 3 "$KIPRJMOD/components/Resistors 0.1%/AOA0000C307.pdf" H 6650 800 30  0001 C CNN
F 4 "0.1%" V 6550 800 60  0000 C CNN "Tol"
F 5 "25 ppm/°C" V 6450 800 60  0000 C CNN "TC"
F 6 "Digikey" H 0   0   50  0001 C CNN "Provider"
F 7 "Panasonic Electric Components" H 6650 800 50  0001 C CNN "Manf"
F 8 "ERA-6AEB153V" H 6650 800 50  0001 C CNN "Manf#"
F 9 "P15KDACT-ND" H 6650 800 50  0001 C CNN "Provider#"
F 10 "RES SMD 15K OHM 0.1% 1/8W 0805" H 6650 800 50  0001 C CNN "Desc"
	1    6650 800 
	0    1    1    0   
$EndComp
$Comp
L SMMR-rescue:R-Device R?
U 1 1 52D4C9D4
P 7250 1100
AR Path="/5CCA832B/52D4C9D4" Ref="R?"  Part="1" 
AR Path="/5D042DB3/5D046CFB/52D4C9D4" Ref="R?"  Part="1" 
AR Path="/5D05F1DF/52D4C9D4" Ref="R513"  Part="1" 
F 0 "R513" V 7330 1100 40  0000 C CNN
F 1 "15k" V 7257 1101 40  0000 C CNN
F 2 "Resistor_SMD:R_0805_2012Metric_Pad1.20x1.40mm_HandSolder" V 7180 1100 30  0001 C CNN
F 3 "$KIPRJMOD/components/Resistors 0.1%/AOA0000C307.pdf" H 7250 1100 30  0001 C CNN
F 4 "0.1%" V 7400 1100 60  0000 C CNN "Tol"
F 5 "25 ppm/°C" V 7500 1100 60  0000 C CNN "TC"
F 6 "Digikey" H 0   0   50  0001 C CNN "Provider"
F 7 "Panasonic Electric Components" H 7250 1100 50  0001 C CNN "Manf"
F 8 "ERA-6AEB153V" H 7250 1100 50  0001 C CNN "Manf#"
F 9 "P15KDACT-ND" H 7250 1100 50  0001 C CNN "Provider#"
F 10 "RES SMD 15K OHM 0.1% 1/8W 0805" H 7250 1100 50  0001 C CNN "Desc"
	1    7250 1100
	-1   0    0    1   
$EndComp
Connection ~ 5800 1000
$Comp
L SMMR-rescue:R-Device R?
U 1 1 52D4CAA4
P 7250 1650
AR Path="/5CCA832B/52D4CAA4" Ref="R?"  Part="1" 
AR Path="/5D042DB3/5D046CFB/52D4CAA4" Ref="R?"  Part="1" 
AR Path="/5D05F1DF/52D4CAA4" Ref="R514"  Part="1" 
F 0 "R514" V 7350 1650 40  0000 C CNN
F 1 "15k" V 7257 1651 40  0000 C CNN
F 2 "Resistor_SMD:R_0805_2012Metric_Pad1.20x1.40mm_HandSolder" V 7180 1650 30  0001 C CNN
F 3 "$KIPRJMOD/components/Resistors 0.1%/AOA0000C307.pdf" H 7250 1650 30  0001 C CNN
F 4 "0.1%" V 7400 1650 60  0000 C CNN "Tol"
F 5 "25 ppm/°C" V 7500 1650 60  0000 C CNN "TC"
F 6 "Digikey" H 0   0   50  0001 C CNN "Provider"
F 7 "Panasonic Electric Components" H 7250 1650 50  0001 C CNN "Manf"
F 8 "ERA-6AEB153V" H 7250 1650 50  0001 C CNN "Manf#"
F 9 "P15KDACT-ND" H 7250 1650 50  0001 C CNN "Provider#"
F 10 "RES SMD 15K OHM 0.1% 1/8W 0805" H 7250 1650 50  0001 C CNN "Desc"
	1    7250 1650
	-1   0    0    1   
$EndComp
Wire Wire Line
	7250 1400 7600 1400
Connection ~ 7250 1400
Text Notes 700  1000 0    60   ~ 0
Por cada entrada analógica:\nModo tensión 0-10V: jumper abierto y jumper dual en 1-2.\nModo lazo de corriente 0-20mA: jumper cerrado y jumper dual en 2-3.
$Comp
L BAV199:BAV199 D?
U 1 1 52D74323
P 8350 950
AR Path="/5CCA832B/52D74323" Ref="D?"  Part="1" 
AR Path="/5D042DB3/5D046CFB/52D74323" Ref="D?"  Part="1" 
AR Path="/5D05F1DF/52D74323" Ref="D501"  Part="1" 
F 0 "D501" V 8450 800 40  0000 C CNN
F 1 "BAV199" V 8400 800 40  0000 C CNN
F 2 "Package_TO_SOT_SMD:SOT-23" H 8350 950 60  0001 C CNN
F 3 "$KIPRJMOD/components/BAV199/BAV199LT1-D.pdf" H 8350 950 60  0001 C CNN
F 4 "ON Semiconductor" H 0   0   50  0001 C CNN "Manf"
F 5 "BAV199LT1G" H 0   0   50  0001 C CNN "Manf#"
F 6 "DIODE ARRAY 70V 215MA SOT23" H 0   0   50  0001 C CNN "Desc"
F 7 "Digikey" H 8350 950 50  0001 C CNN "Provider"
F 8 "BAV199LT1GOSCT-ND" H 8350 950 50  0001 C CNN "Provider#"
	1    8350 950 
	0    -1   -1   0   
$EndComp
$Comp
L SMMR-rescue:Jumper-Device JP?
U 1 1 52D74E74
P 6300 1100
AR Path="/5CCA832B/52D74E74" Ref="JP?"  Part="1" 
AR Path="/5D042DB3/5D046CFB/52D74E74" Ref="JP?"  Part="1" 
AR Path="/5D05F1DF/52D74E74" Ref="JP501"  Part="1" 
F 0 "JP501" H 6300 1250 60  0000 C CNN
F 1 "JUMPER" H 6300 1020 40  0000 C CNN
F 2 "Connector_PinHeader_2.54mm:PinHeader_1x02_P2.54mm_Vertical" H 6300 1100 60  0001 C CNN
F 3 "~" H 6300 1100 60  0000 C CNN
	1    6300 1100
	0    -1   -1   0   
$EndComp
Wire Wire Line
	7600 1400 7600 1650
Wire Wire Line
	7600 1650 7850 1650
Wire Wire Line
	7850 800  7850 1150
Wire Wire Line
	5800 800  6300 800 
Wire Wire Line
	5800 1000 5800 800 
Connection ~ 6300 800 
Connection ~ 7250 800 
$Comp
L SMMR-rescue:C-Device C?
U 1 1 52D75247
P 4600 3100
AR Path="/5CCA832B/52D75247" Ref="C?"  Part="1" 
AR Path="/5D042DB3/5D046CFB/52D75247" Ref="C?"  Part="1" 
AR Path="/5D05F1DF/52D75247" Ref="C502"  Part="1" 
AR Path="/52D75247" Ref="C502"  Part="1" 
F 0 "C502" H 4600 3200 40  0000 L CNN
F 1 "1nF" H 4606 3015 40  0000 L CNN
F 2 "Capacitor_SMD:C_0805_2012Metric_Pad1.15x1.40mm_HandSolder" H 4638 2950 30  0001 C CNN
F 3 "$KIPRJMOD/components/Capacitors/KEM_C1002_X7R_SMD.pdf" H 4600 3100 60  0001 C CNN
F 4 "KEMET" H 4600 3100 50  0001 C CNN "Manf"
F 5 "C0805C102K5RACTU" H 4600 3100 50  0001 C CNN "Manf#"
F 6 "Digikey" H 4600 3100 50  0001 C CNN "Provider"
F 7 "399-1147-1-ND" H 4600 3100 50  0001 C CNN "Provider#"
F 8 "C46653" H 4600 3100 50  0001 C CNN "LCSC"
	1    4600 3100
	1    0    0    -1  
$EndComp
$Comp
L SMMR-rescue:D_TVS_ALT-Device ZA?
U 1 1 52D7524D
P 5000 3150
AR Path="/5CCA832B/52D7524D" Ref="ZA?"  Part="1" 
AR Path="/5D042DB3/5D046CFB/52D7524D" Ref="ZA?"  Part="1" 
AR Path="/5D05F1DF/52D7524D" Ref="ZA502"  Part="1" 
F 0 "ZA502" V 5050 2850 40  0000 C CNN
F 1 "P6SMB20CAT3G" V 5000 2850 40  0000 C CNN
F 2 "Diode_SMD:D_SMA_Handsoldering" H 5000 3150 60  0001 C CNN
F 3 "$KIPRJMOD/components/SMBJ20A/P6_SZP6_SMB11CAT3G_Series.pdf" H 5000 3150 60  0001 C CNN
F 4 "Littlefuse" H 0   0   50  0001 C CNN "Manf"
F 5 "SZP6SMB20CAT3G" H 0   0   50  0001 C CNN "Manf#"
F 6 "Peak Power Zener Suppressor" H 0   0   50  0001 C CNN "Desc"
F 7 "Digikey" H 0   0   50  0001 C CNN "Provider"
F 8 "F11620CT-ND" H 0   0   50  0001 C CNN "Provider#"
	1    5000 3150
	0    -1   -1   0   
$EndComp
$Comp
L MMZ1608B601C:MMZ1608B601C FB?
U 1 1 52D75253
P 5350 2500
AR Path="/5CCA832B/52D75253" Ref="FB?"  Part="1" 
AR Path="/5D042DB3/5D046CFB/52D75253" Ref="FB?"  Part="1" 
AR Path="/5D05F1DF/52D75253" Ref="FB502"  Part="1" 
F 0 "FB502" H 5350 2650 60  0000 C CNN
F 1 "MMZ1608B601C" H 5400 2400 60  0000 C CNN
F 2 "Fuse:Fuse_0603_1608Metric_Pad1.05x0.95mm_HandSolder" H 5350 2500 60  0001 C CNN
F 3 "$KIPRJMOD/components/MMZ1608B601C/beads_commercial_signal_mmz1608_en.pdf" H 5350 2500 60  0001 C CNN
F 4 "TDK" H 0   0   50  0001 C CNN "Manf"
F 5 "MMZ1608B601C" H 0   0   50  0001 C CNN "Manf#"
F 6 "FERRITE CHIP 600 OHM 500MA 0603" H 0   0   50  0001 C CNN "Desc"
F 7 "Digikey" H 5350 2500 50  0001 C CNN "Provider"
F 8 "445-2166-1-ND" H 5350 2500 50  0001 C CNN "Provider#"
	1    5350 2500
	1    0    0    -1  
$EndComp
Wire Wire Line
	5000 2900 5000 2500
Connection ~ 4600 3400
Wire Wire Line
	4300 3400 4600 3400
$Comp
L SMMR-rescue:C-Device C?
U 1 1 52D75271
P 5800 2700
AR Path="/5CCA832B/52D75271" Ref="C?"  Part="1" 
AR Path="/5D042DB3/5D046CFB/52D75271" Ref="C?"  Part="1" 
AR Path="/5D05F1DF/52D75271" Ref="C506"  Part="1" 
AR Path="/52D75271" Ref="C506"  Part="1" 
F 0 "C506" H 5800 2800 40  0000 L CNN
F 1 "470pF" H 5806 2615 40  0000 L CNN
F 2 "Capacitor_SMD:C_0805_2012Metric_Pad1.15x1.40mm_HandSolder" H 5838 2550 30  0001 C CNN
F 3 "$KIPRJMOD/components/Capacitors/KEM_C1002_X7R_SMD.pdf" H 5800 2700 60  0001 C CNN
F 4 "KEMET" H 5800 2700 50  0001 C CNN "Manf"
F 5 "C0805C471K5RACTU" H 5800 2700 50  0001 C CNN "Manf#"
F 6 "Digikey" H 5800 2700 50  0001 C CNN "Provider"
F 7 "399-1142-1-ND" H 5800 2700 50  0001 C CNN "Provider#"
F 8 "C1743" H 5800 2700 50  0001 C CNN "LCSC"
	1    5800 2700
	1    0    0    -1  
$EndComp
Wire Wire Line
	5700 2500 5800 2500
$Comp
L SMMR-rescue:R-Device R?
U 1 1 52D7527A
P 5800 3150
AR Path="/5CCA832B/52D7527A" Ref="R?"  Part="1" 
AR Path="/5D042DB3/5D046CFB/52D7527A" Ref="R?"  Part="1" 
AR Path="/5D05F1DF/52D7527A" Ref="R502"  Part="1" 
F 0 "R502" V 5880 3150 40  0000 C CNN
F 1 "4.7" V 5807 3151 40  0000 C CNN
F 2 "Resistor_SMD:R_0805_2012Metric_Pad1.20x1.40mm_HandSolder" V 5730 3150 30  0001 C CNN
F 3 "$KIPRJMOD/components/Resistors/PYu-RC_Group_51_RoHS_L_10.pdf" H 5800 3150 30  0001 C CNN
F 4 "" V 5950 3150 60  0001 C CNN "Tol"
F 5 "" V 6050 3150 60  0001 C CNN "TC"
F 6 "RES SMD 47 OHM 5% 1/8W 0805" H 0   0   50  0001 C CNN "Desc"
F 7 "Yageo" H 0   0   50  0001 C CNN "Manf"
F 8 "RC0805JR-0747RL" H 0   0   50  0001 C CNN "Manf#"
F 9 "Digikey" H 0   0   50  0001 C CNN "Provider"
F 10 "311-47ARCT-ND" H 0   0   50  0001 C CNN "Provider#"
F 11 "C17675" H 5800 3150 50  0001 C CNN "LCSC"
	1    5800 3150
	-1   0    0    1   
$EndComp
$Comp
L SMMR-rescue:R-Device R?
U 1 1 52D75282
P 6300 3150
AR Path="/5CCA832B/52D75282" Ref="R?"  Part="1" 
AR Path="/5D042DB3/5D046CFB/52D75282" Ref="R?"  Part="1" 
AR Path="/5D05F1DF/52D75282" Ref="R506"  Part="1" 
F 0 "R506" V 6380 3150 40  0000 C CNN
F 1 "237" V 6307 3151 40  0000 C CNN
F 2 "Resistor_SMD:R_0805_2012Metric_Pad1.20x1.40mm_HandSolder" V 6230 3150 30  0001 C CNN
F 3 "$KIPRJMOD/components/Resistors 0.1%/AOA0000C307.pdf" H 6300 3150 30  0001 C CNN
F 4 "0.1%" V 6450 3150 60  0000 C CNN "Tol"
F 5 "25 ppm/°C" V 6550 3150 60  0000 C CNN "TC"
F 6 "Digikey" H 0   0   50  0001 C CNN "Provider"
F 7 "RES SMD 237 OHM 0.1% 1/8W 0805" H 0   0   50  0001 C CNN "Desc"
F 8 "Panasonic Electric Components" H 0   0   50  0001 C CNN "Manf"
F 9 "ERA-6AEB2370V" H 0   0   50  0001 C CNN "Manf#"
F 10 "P237DACT-ND" H 0   0   50  0001 C CNN "Provider#"
	1    6300 3150
	-1   0    0    1   
$EndComp
$Comp
L SMMR-rescue:R-Device R?
U 1 1 52D7528A
P 6650 2300
AR Path="/5CCA832B/52D7528A" Ref="R?"  Part="1" 
AR Path="/5D042DB3/5D046CFB/52D7528A" Ref="R?"  Part="1" 
AR Path="/5D05F1DF/52D7528A" Ref="R510"  Part="1" 
F 0 "R510" V 6730 2300 40  0000 C CNN
F 1 "15k" V 6657 2301 40  0000 C CNN
F 2 "Resistor_SMD:R_0805_2012Metric_Pad1.20x1.40mm_HandSolder" V 6580 2300 30  0001 C CNN
F 3 "$KIPRJMOD/components/Resistors 0.1%/AOA0000C307.pdf" H 6650 2300 30  0001 C CNN
F 4 "0.1%" V 6550 2300 60  0000 C CNN "Tol"
F 5 "25 ppm/°C" V 6450 2300 60  0000 C CNN "TC"
F 6 "Digikey" H 0   0   50  0001 C CNN "Provider"
F 7 "Panasonic Electric Components" H 6650 2300 50  0001 C CNN "Manf"
F 8 "ERA-6AEB153V" H 6650 2300 50  0001 C CNN "Manf#"
F 9 "P15KDACT-ND" H 6650 2300 50  0001 C CNN "Provider#"
F 10 "RES SMD 15K OHM 0.1% 1/8W 0805" H 6650 2300 50  0001 C CNN "Desc"
	1    6650 2300
	0    1    1    0   
$EndComp
$Comp
L SMMR-rescue:R-Device R?
U 1 1 52D75292
P 7250 2600
AR Path="/5CCA832B/52D75292" Ref="R?"  Part="1" 
AR Path="/5D042DB3/5D046CFB/52D75292" Ref="R?"  Part="1" 
AR Path="/5D05F1DF/52D75292" Ref="R515"  Part="1" 
F 0 "R515" V 7330 2600 40  0000 C CNN
F 1 "15k" V 7257 2601 40  0000 C CNN
F 2 "Resistor_SMD:R_0805_2012Metric_Pad1.20x1.40mm_HandSolder" V 7180 2600 30  0001 C CNN
F 3 "$KIPRJMOD/components/Resistors 0.1%/AOA0000C307.pdf" H 7250 2600 30  0001 C CNN
F 4 "0.1%" V 7400 2600 60  0000 C CNN "Tol"
F 5 "25 ppm/°C" V 7500 2600 60  0000 C CNN "TC"
F 6 "Digikey" H 0   0   50  0001 C CNN "Provider"
F 7 "Panasonic Electric Components" H 7250 2600 50  0001 C CNN "Manf"
F 8 "ERA-6AEB153V" H 7250 2600 50  0001 C CNN "Manf#"
F 9 "P15KDACT-ND" H 7250 2600 50  0001 C CNN "Provider#"
F 10 "RES SMD 15K OHM 0.1% 1/8W 0805" H 7250 2600 50  0001 C CNN "Desc"
	1    7250 2600
	-1   0    0    1   
$EndComp
$Comp
L SMMR-rescue:R-Device R?
U 1 1 52D7529B
P 7250 3150
AR Path="/5CCA832B/52D7529B" Ref="R?"  Part="1" 
AR Path="/5D042DB3/5D046CFB/52D7529B" Ref="R?"  Part="1" 
AR Path="/5D05F1DF/52D7529B" Ref="R516"  Part="1" 
F 0 "R516" V 7350 3150 40  0000 C CNN
F 1 "15k" V 7257 3151 40  0000 C CNN
F 2 "Resistor_SMD:R_0805_2012Metric_Pad1.20x1.40mm_HandSolder" V 7180 3150 30  0001 C CNN
F 3 "$KIPRJMOD/components/Resistors 0.1%/AOA0000C307.pdf" H 7250 3150 30  0001 C CNN
F 4 "0.1%" V 7400 3150 60  0000 C CNN "Tol"
F 5 "25 ppm/°C" V 7500 3150 60  0000 C CNN "TC"
F 6 "Digikey" H 0   0   50  0001 C CNN "Provider"
F 7 "Panasonic Electric Components" H 7250 3150 50  0001 C CNN "Manf"
F 8 "ERA-6AEB153V" H 7250 3150 50  0001 C CNN "Manf#"
F 9 "P15KDACT-ND" H 7250 3150 50  0001 C CNN "Provider#"
F 10 "RES SMD 15K OHM 0.1% 1/8W 0805" H 7250 3150 50  0001 C CNN "Desc"
	1    7250 3150
	-1   0    0    1   
$EndComp
Wire Wire Line
	7250 2900 7600 2900
$Comp
L BAV199:BAV199 D?
U 1 1 52D752A6
P 8350 2450
AR Path="/5CCA832B/52D752A6" Ref="D?"  Part="1" 
AR Path="/5D042DB3/5D046CFB/52D752A6" Ref="D?"  Part="1" 
AR Path="/5D05F1DF/52D752A6" Ref="D502"  Part="1" 
F 0 "D502" V 8450 2300 40  0000 C CNN
F 1 "BAV199" V 8400 2300 40  0000 C CNN
F 2 "Package_TO_SOT_SMD:SOT-23" H 8350 2450 60  0001 C CNN
F 3 "$KIPRJMOD/components/BAV199/BAV199LT1-D.pdf" H 8350 2450 60  0001 C CNN
F 4 "ON Semiconductor" V 8350 2450 50  0001 C CNN "Manf"
F 5 "BAV199LT1G" V 8350 2450 50  0001 C CNN "Manf#"
F 6 "DIODE ARRAY 70V 215MA SOT23" V 8350 2450 50  0001 C CNN "Desc"
F 7 "Digikey" H 8350 2450 50  0001 C CNN "Provider"
F 8 "BAV199LT1GOSCT-ND" H 8350 2450 50  0001 C CNN "Provider#"
	1    8350 2450
	0    -1   -1   0   
$EndComp
Wire Wire Line
	8350 2300 8350 2250
$Comp
L SMMR-rescue:Jumper-Device JP?
U 1 1 52D752B6
P 6300 2600
AR Path="/5CCA832B/52D752B6" Ref="JP?"  Part="1" 
AR Path="/5D042DB3/5D046CFB/52D752B6" Ref="JP?"  Part="1" 
AR Path="/5D05F1DF/52D752B6" Ref="JP502"  Part="1" 
F 0 "JP502" H 6300 2750 60  0000 C CNN
F 1 "JUMPER" H 6300 2520 40  0000 C CNN
F 2 "Connector_PinHeader_2.54mm:PinHeader_1x02_P2.54mm_Vertical" H 6300 2600 60  0001 C CNN
F 3 "~" H 6300 2600 60  0000 C CNN
	1    6300 2600
	0    -1   -1   0   
$EndComp
Wire Wire Line
	7600 2900 7600 3150
Wire Wire Line
	7600 3150 7850 3150
Wire Wire Line
	7850 2300 7850 2650
Wire Wire Line
	5800 2300 6300 2300
Wire Wire Line
	5800 2500 5800 2300
Connection ~ 6300 2300
Connection ~ 7250 2300
Connection ~ 8950 2275
$Comp
L SMMR-rescue:+3.3V-power #PWR?
U 1 1 52E2336B
P 8350 750
AR Path="/52E2336B" Ref="#PWR?"  Part="1" 
AR Path="/5CCA832B/52E2336B" Ref="#PWR?"  Part="1" 
AR Path="/5D042DB3/5D046CFB/52E2336B" Ref="#PWR?"  Part="1" 
AR Path="/5D05F1DF/52E2336B" Ref="#PWR0506"  Part="1" 
F 0 "#PWR0506" H 8350 870 20  0001 C CNN
F 1 "+3.3V" H 8350 900 30  0000 C CNN
F 2 "" H 8350 750 60  0000 C CNN
F 3 "" H 8350 750 60  0000 C CNN
	1    8350 750 
	1    0    0    -1  
$EndComp
$Comp
L SMMR-rescue:+3.3V-power #PWR?
U 1 1 52E23382
P 8950 2075
AR Path="/52E23382" Ref="#PWR?"  Part="1" 
AR Path="/5CCA832B/52E23382" Ref="#PWR?"  Part="1" 
AR Path="/5D042DB3/5D046CFB/52E23382" Ref="#PWR?"  Part="1" 
AR Path="/5D05F1DF/52E23382" Ref="#PWR0510"  Part="1" 
F 0 "#PWR0510" H 8950 2195 20  0001 C CNN
F 1 "+3.3V" H 8850 2175 30  0000 C CNN
F 2 "" H 8950 2075 60  0000 C CNN
F 3 "" H 8950 2075 60  0000 C CNN
	1    8950 2075
	1    0    0    -1  
$EndComp
$Comp
L SMMR-rescue:+3.3V-power #PWR?
U 1 1 52E23398
P 8350 2250
AR Path="/52E23398" Ref="#PWR?"  Part="1" 
AR Path="/5CCA832B/52E23398" Ref="#PWR?"  Part="1" 
AR Path="/5D042DB3/5D046CFB/52E23398" Ref="#PWR?"  Part="1" 
AR Path="/5D05F1DF/52E23398" Ref="#PWR0507"  Part="1" 
F 0 "#PWR0507" H 8350 2370 20  0001 C CNN
F 1 "+3.3V" H 8350 2400 30  0000 C CNN
F 2 "" H 8350 2250 60  0000 C CNN
F 3 "" H 8350 2250 60  0000 C CNN
	1    8350 2250
	1    0    0    -1  
$EndComp
$Comp
L MCP6022:MCP6022 U?
U 2 1 52C33C5E
P 8950 1500
AR Path="/5CCA832B/52C33C5E" Ref="U?"  Part="1" 
AR Path="/5D042DB3/5D046CFB/52C33C5E" Ref="U?"  Part="1" 
AR Path="/5D05F1DF/52C33C5E" Ref="U501"  Part="2" 
F 0 "U501" H 9250 1700 60  0000 C CNN
F 1 "MCP6022" H 9250 1600 60  0000 C CNN
F 2 "Package_SO:SOIC-8_3.9x4.9mm_P1.27mm" H 8950 1500 60  0001 C CNN
F 3 "$KIPRJMOD/components/MCP6024/MCP6024.pdf" H 8950 1500 60  0001 C CNN
F 4 "Microchip Technology" H 8950 1500 50  0001 C CNN "Manf"
F 5 "MCP6022T-I/SN" H 8950 1500 50  0001 C CNN "Manf#"
F 6 "IC OPAMP GP 10MHZ RRO 8SOIC" H 8950 1500 50  0001 C CNN "Desc"
F 7 "Digikey" H 8950 1500 50  0001 C CNN "Provider"
F 8 "MCP6022T-I/SNCT-ND" H 8950 1500 50  0001 C CNN "Provider#"
F 9 "SOIC 8" H 8950 1500 50  0001 C CNN "Footprint standard"
F 10 "C57639" H 8950 1500 50  0001 C CNN "LCSC"
	2    8950 1500
	1    0    0    -1  
$EndComp
$Comp
L SMMR-rescue:GND-power #PWR?
U 1 1 52DFB25F
P 4300 2000
AR Path="/5CCA832B/52DFB25F" Ref="#PWR?"  Part="1" 
AR Path="/5D042DB3/5D046CFB/52DFB25F" Ref="#PWR?"  Part="1" 
AR Path="/5D05F1DF/52DFB25F" Ref="#PWR0502"  Part="1" 
F 0 "#PWR0502" H 4300 2000 40  0001 C CNN
F 1 "GND" H 4305 1834 40  0000 C CNN
F 2 "" H 4300 2000 60  0000 C CNN
F 3 "" H 4300 2000 60  0000 C CNN
	1    4300 2000
	1    0    0    -1  
$EndComp
$Comp
L SMMR-rescue:GND-power #PWR?
U 1 1 52DFB276
P 8950 3550
AR Path="/5CCA832B/52DFB276" Ref="#PWR?"  Part="1" 
AR Path="/5D042DB3/5D046CFB/52DFB276" Ref="#PWR?"  Part="1" 
AR Path="/5D05F1DF/52DFB276" Ref="#PWR0511"  Part="1" 
F 0 "#PWR0511" H 8950 3550 40  0001 C CNN
F 1 "GND" H 8955 3384 40  0000 C CNN
F 2 "" H 8950 3550 60  0000 C CNN
F 3 "" H 8950 3550 60  0000 C CNN
	1    8950 3550
	1    0    0    -1  
$EndComp
$Comp
L SMMR-rescue:GND-power #PWR?
U 1 1 52DFB8C4
P 4300 3500
AR Path="/5CCA832B/52DFB8C4" Ref="#PWR?"  Part="1" 
AR Path="/5D042DB3/5D046CFB/52DFB8C4" Ref="#PWR?"  Part="1" 
AR Path="/5D05F1DF/52DFB8C4" Ref="#PWR0503"  Part="1" 
F 0 "#PWR0503" H 4300 3500 40  0001 C CNN
F 1 "GND" H 4305 3334 40  0000 C CNN
F 2 "" H 4300 3500 60  0000 C CNN
F 3 "" H 4300 3500 60  0000 C CNN
	1    4300 3500
	1    0    0    -1  
$EndComp
$Comp
L SMMR-rescue:GND-power #PWR?
U 1 1 52DFB8CA
P 9950 3400
AR Path="/5CCA832B/52DFB8CA" Ref="#PWR?"  Part="1" 
AR Path="/5D042DB3/5D046CFB/52DFB8CA" Ref="#PWR?"  Part="1" 
AR Path="/5D05F1DF/52DFB8CA" Ref="#PWR0514"  Part="1" 
F 0 "#PWR0514" H 9950 3400 40  0001 C CNN
F 1 "GND" H 9955 3234 40  0000 C CNN
F 2 "" H 9950 3400 60  0000 C CNN
F 3 "" H 9950 3400 60  0000 C CNN
	1    9950 3400
	1    0    0    -1  
$EndComp
$Comp
L SMMR-rescue:C-Device C?
U 1 1 52C422AE
P 9950 1700
AR Path="/5CCA832B/52C422AE" Ref="C?"  Part="1" 
AR Path="/5D042DB3/5D046CFB/52C422AE" Ref="C?"  Part="1" 
AR Path="/5D05F1DF/52C422AE" Ref="C511"  Part="1" 
AR Path="/52C422AE" Ref="C511"  Part="1" 
F 0 "C511" H 9950 1800 40  0000 L CNN
F 1 "100nF" H 9956 1615 40  0000 L CNN
F 2 "Capacitor_SMD:C_0805_2012Metric_Pad1.15x1.40mm_HandSolder" H 9988 1550 30  0001 C CNN
F 3 "$KIPRJMOD/components/Capacitors/KEM_C1002_X7R_SMD.pdf" H 9950 1700 60  0001 C CNN
F 4 "KEMET" H 9950 1700 50  0001 C CNN "Manf"
F 5 "C0805C104K5RACTU" H 9950 1700 50  0001 C CNN "Manf#"
F 6 "Digikey" H 9950 1700 50  0001 C CNN "Provider"
F 7 "399-1170-1-ND" H 9950 1700 50  0001 C CNN "Provider#"
F 8 "C49678" H 9950 1700 50  0001 C CNN "LCSC"
	1    9950 1700
	1    0    0    -1  
$EndComp
$Comp
L SMMR-rescue:GND-power #PWR?
U 1 1 52DFB8E8
P 9950 1900
AR Path="/5CCA832B/52DFB8E8" Ref="#PWR?"  Part="1" 
AR Path="/5D042DB3/5D046CFB/52DFB8E8" Ref="#PWR?"  Part="1" 
AR Path="/5D05F1DF/52DFB8E8" Ref="#PWR0513"  Part="1" 
F 0 "#PWR0513" H 9950 1900 40  0001 C CNN
F 1 "GND" H 9955 1734 40  0000 C CNN
F 2 "" H 9950 1900 60  0000 C CNN
F 3 "" H 9950 1900 60  0000 C CNN
	1    9950 1900
	1    0    0    -1  
$EndComp
Connection ~ 9550 2525
$Comp
L SMMR-rescue:GND-power #PWR?
U 1 1 52F6F94E
P 1525 2725
AR Path="/5CCA832B/52F6F94E" Ref="#PWR?"  Part="1" 
AR Path="/5D042DB3/5D046CFB/52F6F94E" Ref="#PWR?"  Part="1" 
AR Path="/5D05F1DF/52F6F94E" Ref="#PWR0501"  Part="1" 
F 0 "#PWR0501" H 1525 2725 40  0001 C CNN
F 1 "GND" H 1530 2559 40  0000 C CNN
F 2 "" H 1525 2725 60  0000 C CNN
F 3 "" H 1525 2725 60  0000 C CNN
	1    1525 2725
	1    0    0    -1  
$EndComp
Wire Wire Line
	1525 2725 1525 2275
Wire Wire Line
	1525 2275 1375 2275
Wire Wire Line
	4300 3500 4300 3400
Wire Wire Line
	4300 2000 4300 1900
Wire Wire Line
	7250 800  7850 800 
Wire Wire Line
	4600 2900 5000 2900
Wire Wire Line
	7250 2300 7850 2300
Wire Wire Line
	8950 2275 8950 2525
Wire Wire Line
	9550 2525 9550 2575
Wire Wire Line
	5800 1800 5800 1900
Connection ~ 5800 1900
Wire Wire Line
	6300 1500 6300 1400
Wire Wire Line
	5800 1900 6300 1900
Wire Wire Line
	6300 1800 6300 1900
Connection ~ 6300 1900
Wire Wire Line
	6800 800  7250 800 
Wire Wire Line
	6300 800  6500 800 
Wire Wire Line
	7250 800  7250 950 
Wire Wire Line
	7250 1250 7250 1400
Wire Wire Line
	7250 1500 7250 1400
Wire Wire Line
	6300 1900 7250 1900
Wire Wire Line
	7250 1800 7250 1900
Wire Wire Line
	9550 1500 9500 1500
Wire Wire Line
	6300 2900 6300 3000
Wire Wire Line
	5800 3300 5800 3400
Connection ~ 5800 3400
Wire Wire Line
	5800 3400 6300 3400
Wire Wire Line
	6300 3300 6300 3400
Connection ~ 6300 3400
Wire Wire Line
	6300 3400 7250 3400
Wire Wire Line
	6300 2300 6500 2300
Wire Wire Line
	6800 2300 7250 2300
Wire Wire Line
	7250 2300 7250 2450
Wire Wire Line
	7250 2750 7250 2900
Wire Wire Line
	7250 3000 7250 2900
Connection ~ 7250 2900
Wire Wire Line
	9550 3000 9500 3000
Wire Wire Line
	7250 3300 7250 3400
Wire Wire Line
	4600 2900 4600 2950
Wire Wire Line
	4600 3250 4600 3400
Wire Wire Line
	3800 1300 4600 1300
Wire Wire Line
	4600 1750 4600 1900
Wire Wire Line
	4600 1450 4600 1300
Connection ~ 4600 1300
Wire Wire Line
	4600 1300 5000 1300
Wire Wire Line
	9850 1500 9950 1500
Wire Wire Line
	9850 3000 9950 3000
Wire Wire Line
	9950 3400 9950 3350
Wire Wire Line
	9950 3050 9950 3000
Connection ~ 9950 3000
Wire Wire Line
	9950 3000 10200 3000
Wire Wire Line
	9950 1550 9950 1500
Connection ~ 9950 1500
Wire Wire Line
	9950 1500 10100 1500
Wire Wire Line
	9550 2525 9300 2525
Wire Wire Line
	9000 2525 8950 2525
Wire Wire Line
	9000 2275 8950 2275
Wire Wire Line
	5800 1050 5800 1000
Wire Wire Line
	5800 1350 5800 1500
Wire Wire Line
	5800 2550 5800 2500
Connection ~ 5800 2500
Wire Wire Line
	5800 2850 5800 3000
Wire Wire Line
	4600 1900 5000 1900
Connection ~ 5000 1300
Connection ~ 5000 1900
Wire Wire Line
	5000 1900 5800 1900
$Comp
L SMMR-rescue:Screw_Terminal_01x03-Connector J501
U 1 1 5D0C0B56
P 1175 2175
AR Path="/5D0C0B56" Ref="J501"  Part="1" 
AR Path="/5D05F1DF/5D0C0B56" Ref="J501"  Part="1" 
F 0 "J501" H 1350 2150 50  0000 C CNN
F 1 "Screw_Terminal_01x03" H 1095 2401 50  0001 C CNN
F 2 "TerminalBlock_Phoenix:TerminalBlock_Phoenix_MKDS-1,5-3_1x03_P5.00mm_Horizontal" H 1175 2175 50  0001 C CNN
F 3 "$KIPRJMOD/components/Terminal_block/NTE-euro-style.pdf" H 1175 2175 50  0001 C CNN
F 4 "TERM BLOCK 5.00MM VERT 3POS PCB" H 1175 2175 50  0001 C CNN "Desc"
F 5 "NTE Electronics, Inc" H 1175 2175 50  0001 C CNN "Manf"
F 6 "25-E400-04" H 1175 2175 50  0001 C CNN "Manf#"
F 7 "Digikey" H 1175 2175 50  0001 C CNN "Provider"
F 8 "2368-25-E400-04-ND" H 1175 2175 50  0001 C CNN "Provider#"
	1    1175 2175
	-1   0    0    1   
$EndComp
$Comp
L SMMR-rescue:Jumper_NC_Dual-Device JP505
U 1 1 5D18AE36
P 7850 1400
F 0 "JP505" V 8000 1500 50  0000 L CNN
F 1 "Jumper_NC_Dual" H 7805 1502 50  0001 L CNN
F 2 "Connector_PinHeader_2.54mm:PinHeader_1x03_P2.54mm_Vertical" H 7850 1400 50  0001 C CNN
F 3 "~" H 7850 1400 50  0001 C CNN
	1    7850 1400
	0    -1   -1   0   
$EndComp
$Comp
L SMMR-rescue:Jumper_NC_Dual-Device JP506
U 1 1 5D18B195
P 7850 2900
F 0 "JP506" V 8000 3000 50  0000 L CNN
F 1 "Jumper_NC_Dual" H 7805 3002 50  0001 L CNN
F 2 "Connector_PinHeader_2.54mm:PinHeader_1x03_P2.54mm_Vertical" H 7850 2900 50  0001 C CNN
F 3 "~" H 7850 2900 50  0001 C CNN
	1    7850 2900
	0    -1   -1   0   
$EndComp
Wire Wire Line
	9300 2275 9550 2275
Wire Wire Line
	8350 800  8350 750 
Wire Wire Line
	7950 1400 8200 1400
$Comp
L SMMR-rescue:GND-power #PWR?
U 1 1 5D23613B
P 8350 1150
AR Path="/5CCA832B/5D23613B" Ref="#PWR?"  Part="1" 
AR Path="/5D042DB3/5D046CFB/5D23613B" Ref="#PWR?"  Part="1" 
AR Path="/5D05F1DF/5D23613B" Ref="#PWR0101"  Part="1" 
F 0 "#PWR0101" H 8350 1150 40  0001 C CNN
F 1 "GND" H 8355 984 40  0000 C CNN
F 2 "" H 8350 1150 60  0000 C CNN
F 3 "" H 8350 1150 60  0000 C CNN
	1    8350 1150
	1    0    0    -1  
$EndComp
Wire Wire Line
	8350 1100 8350 1150
Wire Wire Line
	8250 950  8200 950 
Wire Wire Line
	8200 950  8200 1400
Connection ~ 8200 1400
Wire Wire Line
	8200 1400 8450 1400
Wire Wire Line
	7950 2900 8200 2900
$Comp
L SMMR-rescue:GND-power #PWR?
U 1 1 5D28B6E9
P 8350 2650
AR Path="/5CCA832B/5D28B6E9" Ref="#PWR?"  Part="1" 
AR Path="/5D042DB3/5D046CFB/5D28B6E9" Ref="#PWR?"  Part="1" 
AR Path="/5D05F1DF/5D28B6E9" Ref="#PWR0102"  Part="1" 
F 0 "#PWR0102" H 8350 2650 40  0001 C CNN
F 1 "GND" H 8355 2484 40  0000 C CNN
F 2 "" H 8350 2650 60  0000 C CNN
F 3 "" H 8350 2650 60  0000 C CNN
	1    8350 2650
	1    0    0    -1  
$EndComp
Wire Wire Line
	8350 2650 8350 2600
Wire Wire Line
	8250 2450 8200 2450
Wire Wire Line
	8200 2450 8200 2900
Connection ~ 8200 2900
Wire Wire Line
	8200 2900 8450 2900
Wire Wire Line
	9500 3000 9500 3300
Wire Wire Line
	8450 3300 9500 3300
Connection ~ 9500 3000
Wire Wire Line
	9500 3000 9450 3000
Wire Wire Line
	9500 1500 9500 1800
Wire Wire Line
	8450 1800 9500 1800
Connection ~ 9500 1500
Wire Wire Line
	9500 1500 9450 1500
Wire Wire Line
	9950 1850 9950 1900
Wire Wire Line
	5000 1300 5000 1450
Wire Wire Line
	5000 1750 5000 1900
Connection ~ 5000 2900
Wire Wire Line
	5000 2900 5000 3000
Wire Wire Line
	4600 3400 5000 3400
Wire Wire Line
	5000 3300 5000 3400
Connection ~ 5000 3400
Wire Wire Line
	5000 3400 5800 3400
Wire Wire Line
	1375 2175 1675 2175
Wire Wire Line
	1375 2075 1675 2075
Wire Wire Line
	8950 2600 8950 2525
Connection ~ 8950 2525
Wire Wire Line
	8950 3400 8950 3550
Wire Wire Line
	4600 2900 3800 2900
Connection ~ 4600 2900
Text Label 1550 2075 0    50   ~ 0
A1
Text Label 1550 2175 0    50   ~ 0
A2
Text Label 3825 1300 0    50   ~ 0
A1
Text Label 3850 2900 0    50   ~ 0
A2
$EndSCHEMATC
