EESchema Schematic File Version 4
EELAYER 30 0
EELAYER END
$Descr A4 11693 8268
encoding utf-8
Sheet 3 5
Title "Sistema de Monitoreo de Material Rodante"
Date "2019-06-13"
Rev "1.3"
Comp "Sebastián Guarino"
Comment1 "Licencia MIT, ver archivo LICENSE"
Comment2 ""
Comment3 ""
Comment4 ""
$EndDescr
$Comp
L SMMR-rescue:R-Device R?
U 1 1 52C9FA85
P 3150 2250
AR Path="/5CE72594/52C9FA85" Ref="R?"  Part="1" 
AR Path="/5D042DB3/5D046D23/52C9FA85" Ref="R?"  Part="1" 
AR Path="/5D055DBB/52C9FA85" Ref="R301"  Part="1" 
F 0 "R301" V 3230 2250 40  0000 C CNN
F 1 "3.3k" V 3157 2251 40  0000 C CNN
F 2 "Resistor_SMD:R_0805_2012Metric_Pad1.20x1.40mm_HandSolder" V 3080 2250 30  0001 C CNN
F 3 "$KIPRJMOD/components/Resistors/PYu-RC_Group_51_RoHS_L_10.pdf" H 3150 2250 30  0001 C CNN
F 4 "Yageo" H 200 950 50  0001 C CNN "Manf"
F 5 "Digikey" H 200 950 50  0001 C CNN "Provider"
F 6 "RES SMD 3.3K OHM 5% 1/8W 0805" H 200 950 50  0001 C CNN "Desc"
F 7 "RC0805JR-073K3L" H 200 950 50  0001 C CNN "Manf#"
F 8 "311-3.3KARCT-ND" H 200 950 50  0001 C CNN "Provider#"
F 9 "C26010" H 3150 2250 50  0001 C CNN "LCSC"
	1    3150 2250
	0    -1   -1   0   
$EndComp
$Comp
L SMMR-rescue:GND-power #PWR?
U 1 1 52C9FABA
P 4500 2650
AR Path="/5CE72594/52C9FABA" Ref="#PWR?"  Part="1" 
AR Path="/5D042DB3/5D046D23/52C9FABA" Ref="#PWR?"  Part="1" 
AR Path="/5D055DBB/52C9FABA" Ref="#PWR0301"  Part="1" 
F 0 "#PWR0301" H 4500 2650 30  0001 C CNN
F 1 "GND" H 4500 2580 30  0001 C CNN
F 2 "" H 4500 2650 60  0000 C CNN
F 3 "" H 4500 2650 60  0000 C CNN
	1    4500 2650
	1    0    0    -1  
$EndComp
Wire Wire Line
	4500 2650 4500 2600
Text Label 1950 1550 2    60   ~ 0
COM1
Text HLabel 5200 2400 2    60   Output ~ 0
DIN0
$Comp
L SMMR-rescue:+3.3V-power #PWR?
U 1 1 52C9FB0E
P 4900 2000
AR Path="/5CE72594/52C9FB0E" Ref="#PWR?"  Part="1" 
AR Path="/5D042DB3/5D046D23/52C9FB0E" Ref="#PWR?"  Part="1" 
AR Path="/5D055DBB/52C9FB0E" Ref="#PWR0303"  Part="1" 
F 0 "#PWR0303" H 4900 1960 30  0001 C CNN
F 1 "+3.3V" H 4900 2110 30  0000 C CNN
F 2 "" H 4900 2000 60  0000 C CNN
F 3 "" H 4900 2000 60  0000 C CNN
	1    4900 2000
	1    0    0    -1  
$EndComp
Wire Wire Line
	3400 2250 3600 2250
Text Label 2650 2250 0    60   ~ 0
IN1
Text Label 2650 3700 0    60   ~ 0
IN2
Text Label 1600 1650 2    60   ~ 0
IN1
Text Label 1950 1750 2    60   ~ 0
COM2
Text Label 1600 2300 2    60   ~ 0
GND
Text Label 1950 2400 2    60   ~ 0
IN4
Text Label 6550 3250 0    60   ~ 0
IN3
$Comp
L SMMR-rescue:R-Device R?
U 1 1 53F1373B
P 3400 2500
AR Path="/5CE72594/53F1373B" Ref="R?"  Part="1" 
AR Path="/5D042DB3/5D046D23/53F1373B" Ref="R?"  Part="1" 
AR Path="/5D055DBB/53F1373B" Ref="R303"  Part="1" 
F 0 "R303" V 3480 2500 40  0000 C CNN
F 1 "4.7k" V 3407 2501 40  0000 C CNN
F 2 "Resistor_SMD:R_0805_2012Metric_Pad1.20x1.40mm_HandSolder" V 3330 2500 30  0001 C CNN
F 3 "$KIPRJMOD/components/Resistors/PYu-RC_Group_51_RoHS_L_10.pdf" H 3400 2500 30  0001 C CNN
F 4 "Yageo" H 200 950 50  0001 C CNN "Manf"
F 5 "RC0805JR-074K7L" H 200 950 50  0001 C CNN "Manf#"
F 6 "RES SMD 4.7K OHM 5% 1/8W 0805" H 200 950 50  0001 C CNN "Desc"
F 7 "Digikey" H 200 950 50  0001 C CNN "Provider"
F 8 "311-4.7KARCT-ND" H 200 950 50  0001 C CNN "Provider#"
F 9 "C17673" H 3400 2500 50  0001 C CNN "LCSC"
	1    3400 2500
	-1   0    0    1   
$EndComp
Text Label 2650 2750 0    60   ~ 0
COM1
Wire Wire Line
	3600 2250 3600 2400
Wire Wire Line
	3600 2750 3600 2600
$Comp
L SMMR-rescue:R-Device R?
U 1 1 53F13DDB
P 3150 3700
AR Path="/5CE72594/53F13DDB" Ref="R?"  Part="1" 
AR Path="/5D042DB3/5D046D23/53F13DDB" Ref="R?"  Part="1" 
AR Path="/5D055DBB/53F13DDB" Ref="R302"  Part="1" 
F 0 "R302" V 3230 3700 40  0000 C CNN
F 1 "3.3k" V 3157 3701 40  0000 C CNN
F 2 "Resistor_SMD:R_0805_2012Metric_Pad1.20x1.40mm_HandSolder" V 3080 3700 30  0001 C CNN
F 3 "$KIPRJMOD/components/Resistors/PYu-RC_Group_51_RoHS_L_10.pdf" H 3150 3700 30  0001 C CNN
F 4 "Yageo" H 200 1050 50  0001 C CNN "Manf"
F 5 "Digikey" H 200 1050 50  0001 C CNN "Provider"
F 6 "RES SMD 3.3K OHM 5% 1/8W 0805" H 200 1050 50  0001 C CNN "Desc"
F 7 "RC0805JR-073K3L" H 200 1050 50  0001 C CNN "Manf#"
F 8 "311-3.3KARCT-ND" H 200 1050 50  0001 C CNN "Provider#"
F 9 "C26010" H 3150 3700 50  0001 C CNN "LCSC"
	1    3150 3700
	0    -1   -1   0   
$EndComp
$Comp
L SMMR-rescue:R-Device R?
U 1 1 53F13DE1
P 4900 3650
AR Path="/5CE72594/53F13DE1" Ref="R?"  Part="1" 
AR Path="/5D042DB3/5D046D23/53F13DE1" Ref="R?"  Part="1" 
AR Path="/5D055DBB/53F13DE1" Ref="R306"  Part="1" 
F 0 "R306" V 4980 3650 40  0000 C CNN
F 1 "100k" V 4907 3651 40  0000 C CNN
F 2 "Resistor_SMD:R_0805_2012Metric_Pad1.20x1.40mm_HandSolder" V 4830 3650 30  0001 C CNN
F 3 "$KIPRJMOD/components/Resistors/PYu-RC_Group_51_RoHS_L_10.pdf" H 4900 3650 30  0001 C CNN
F 4 "Yageo" H 200 1050 50  0001 C CNN "Manf"
F 5 "RC0805JR-07100KL" H 200 1050 50  0001 C CNN "Manf#"
F 6 "RES SMD 100K OHM 5% 1/8W 0805" H 200 1050 50  0001 C CNN "Desc"
F 7 "Digikey" H 200 1050 50  0001 C CNN "Provider"
F 8 "311-100KARCT-ND" H 200 1050 50  0001 C CNN "Provider#"
F 9 "C25271" H 4900 3650 50  0001 C CNN "LCSC"
	1    4900 3650
	-1   0    0    1   
$EndComp
$Comp
L SMMR-rescue:GND-power #PWR?
U 1 1 53F13DE7
P 4500 4100
AR Path="/5CE72594/53F13DE7" Ref="#PWR?"  Part="1" 
AR Path="/5D042DB3/5D046D23/53F13DE7" Ref="#PWR?"  Part="1" 
AR Path="/5D055DBB/53F13DE7" Ref="#PWR0302"  Part="1" 
F 0 "#PWR0302" H 4500 4100 30  0001 C CNN
F 1 "GND" H 4500 4030 30  0001 C CNN
F 2 "" H 4500 4100 60  0000 C CNN
F 3 "" H 4500 4100 60  0000 C CNN
	1    4500 4100
	1    0    0    -1  
$EndComp
Wire Wire Line
	4500 4100 4500 4050
Text HLabel 5200 3850 2    60   Output ~ 0
DIN1
$Comp
L SMMR-rescue:+3.3V-power #PWR?
U 1 1 53F13DF0
P 4900 3450
AR Path="/5CE72594/53F13DF0" Ref="#PWR?"  Part="1" 
AR Path="/5D042DB3/5D046D23/53F13DF0" Ref="#PWR?"  Part="1" 
AR Path="/5D055DBB/53F13DF0" Ref="#PWR0305"  Part="1" 
F 0 "#PWR0305" H 4900 3410 30  0001 C CNN
F 1 "+3.3V" H 4900 3560 30  0000 C CNN
F 2 "" H 4900 3450 60  0000 C CNN
F 3 "" H 4900 3450 60  0000 C CNN
	1    4900 3450
	1    0    0    -1  
$EndComp
Wire Wire Line
	3400 3700 3600 3700
$Comp
L SMMR-rescue:R-Device R?
U 1 1 53F13DFF
P 3400 3950
AR Path="/5CE72594/53F13DFF" Ref="R?"  Part="1" 
AR Path="/5D042DB3/5D046D23/53F13DFF" Ref="R?"  Part="1" 
AR Path="/5D055DBB/53F13DFF" Ref="R304"  Part="1" 
F 0 "R304" V 3480 3950 40  0000 C CNN
F 1 "4.7k" V 3407 3951 40  0000 C CNN
F 2 "Resistor_SMD:R_0805_2012Metric_Pad1.20x1.40mm_HandSolder" V 3330 3950 30  0001 C CNN
F 3 "$KIPRJMOD/components/Resistors/PYu-RC_Group_51_RoHS_L_10.pdf" H 3400 3950 30  0001 C CNN
F 4 "Yageo" H 200 1050 50  0001 C CNN "Manf"
F 5 "RC0805JR-074K7L" H 200 1050 50  0001 C CNN "Manf#"
F 6 "RES SMD 4.7K OHM 5% 1/8W 0805" H 200 1050 50  0001 C CNN "Desc"
F 7 "Digikey" H 200 1050 50  0001 C CNN "Provider"
F 8 "311-4.7KARCT-ND" H 200 1050 50  0001 C CNN "Provider#"
F 9 "C17673" H 3400 3950 50  0001 C CNN "LCSC"
	1    3400 3950
	-1   0    0    1   
$EndComp
Wire Wire Line
	3600 3700 3600 3850
Wire Wire Line
	3600 4200 3600 4050
$Comp
L SMMR-rescue:R-Device R?
U 1 1 53F13FCD
P 8800 3050
AR Path="/5CE72594/53F13FCD" Ref="R?"  Part="1" 
AR Path="/5D042DB3/5D046D23/53F13FCD" Ref="R?"  Part="1" 
AR Path="/5D055DBB/53F13FCD" Ref="R309"  Part="1" 
F 0 "R309" V 8880 3050 40  0000 C CNN
F 1 "100k" V 8807 3051 40  0000 C CNN
F 2 "Resistor_SMD:R_0805_2012Metric_Pad1.20x1.40mm_HandSolder" V 8730 3050 30  0001 C CNN
F 3 "$KIPRJMOD/components/Resistors/PYu-RC_Group_51_RoHS_L_10.pdf" H 8800 3050 30  0001 C CNN
F 4 "Yageo" H 0   0   50  0001 C CNN "Manf"
F 5 "RC0805JR-07100KL" H 0   0   50  0001 C CNN "Manf#"
F 6 "RES SMD 100K OHM 5% 1/8W 0805" H 0   0   50  0001 C CNN "Desc"
F 7 "Digikey" H 0   0   50  0001 C CNN "Provider"
F 8 "311-100KARCT-ND" H 0   0   50  0001 C CNN "Provider#"
F 9 "C25271" H 8800 3050 50  0001 C CNN "LCSC"
	1    8800 3050
	-1   0    0    1   
$EndComp
$Comp
L SMMR-rescue:GND-power #PWR?
U 1 1 53F13FD3
P 8800 3700
AR Path="/5CE72594/53F13FD3" Ref="#PWR?"  Part="1" 
AR Path="/5D042DB3/5D046D23/53F13FD3" Ref="#PWR?"  Part="1" 
AR Path="/5D055DBB/53F13FD3" Ref="#PWR0308"  Part="1" 
F 0 "#PWR0308" H 8800 3700 30  0001 C CNN
F 1 "GND" H 8800 3630 30  0001 C CNN
F 2 "" H 8800 3700 60  0000 C CNN
F 3 "" H 8800 3700 60  0000 C CNN
	1    8800 3700
	1    0    0    -1  
$EndComp
Wire Wire Line
	8800 3700 8800 3650
$Comp
L SMMR-rescue:R-Device R?
U 1 1 53F1400C
P 8800 4550
AR Path="/5CE72594/53F1400C" Ref="R?"  Part="1" 
AR Path="/5D042DB3/5D046D23/53F1400C" Ref="R?"  Part="1" 
AR Path="/5D055DBB/53F1400C" Ref="R310"  Part="1" 
F 0 "R310" V 8880 4550 40  0000 C CNN
F 1 "100k" V 8807 4551 40  0000 C CNN
F 2 "Resistor_SMD:R_0805_2012Metric_Pad1.20x1.40mm_HandSolder" V 8730 4550 30  0001 C CNN
F 3 "$KIPRJMOD/components/Resistors/PYu-RC_Group_51_RoHS_L_10.pdf" H 8800 4550 30  0001 C CNN
F 4 "Yageo" H 0   0   50  0001 C CNN "Manf"
F 5 "RC0805JR-07100KL" H 0   0   50  0001 C CNN "Manf#"
F 6 "RES SMD 100K OHM 5% 1/8W 0805" H 0   0   50  0001 C CNN "Desc"
F 7 "Digikey" H 0   0   50  0001 C CNN "Provider"
F 8 "311-100KARCT-ND" H 0   0   50  0001 C CNN "Provider#"
F 9 "C25271" H 8800 4550 50  0001 C CNN "LCSC"
	1    8800 4550
	-1   0    0    1   
$EndComp
Text Label 2650 4200 0    60   ~ 0
COM2
Text Label 6550 3650 0    60   ~ 0
GND
$Comp
L SMMR-rescue:+3.3V-power #PWR?
U 1 1 53F1433A
P 8800 2850
AR Path="/5CE72594/53F1433A" Ref="#PWR?"  Part="1" 
AR Path="/5D042DB3/5D046D23/53F1433A" Ref="#PWR?"  Part="1" 
AR Path="/5D055DBB/53F1433A" Ref="#PWR0307"  Part="1" 
F 0 "#PWR0307" H 8800 2810 30  0001 C CNN
F 1 "+3.3V" H 8800 2960 30  0000 C CNN
F 2 "" H 8800 2850 60  0000 C CNN
F 3 "" H 8800 2850 60  0000 C CNN
	1    8800 2850
	1    0    0    -1  
$EndComp
$Comp
L SMMR-rescue:+3.3V-power #PWR?
U 1 1 53F14340
P 8800 4300
AR Path="/5CE72594/53F14340" Ref="#PWR?"  Part="1" 
AR Path="/5D042DB3/5D046D23/53F14340" Ref="#PWR?"  Part="1" 
AR Path="/5D055DBB/53F14340" Ref="#PWR0309"  Part="1" 
F 0 "#PWR0309" H 8800 4260 30  0001 C CNN
F 1 "+3.3V" H 8800 4410 30  0000 C CNN
F 2 "" H 8800 4300 60  0000 C CNN
F 3 "" H 8800 4300 60  0000 C CNN
	1    8800 4300
	1    0    0    -1  
$EndComp
Text HLabel 9100 3250 2    60   Output ~ 0
DIN2
Text HLabel 9100 4800 2    60   Output ~ 0
DIN3
Wire Wire Line
	2650 2750 3400 2750
Wire Wire Line
	2650 4200 3400 4200
$Comp
L SMMR-rescue:R-Device R?
U 1 1 52C9FAAD
P 4900 2200
AR Path="/5CE72594/52C9FAAD" Ref="R?"  Part="1" 
AR Path="/5D042DB3/5D046D23/52C9FAAD" Ref="R?"  Part="1" 
AR Path="/5D055DBB/52C9FAAD" Ref="R305"  Part="1" 
F 0 "R305" V 4980 2200 40  0000 C CNN
F 1 "100k" V 4907 2201 40  0000 C CNN
F 2 "Resistor_SMD:R_0805_2012Metric_Pad1.20x1.40mm_HandSolder" V 4830 2200 30  0001 C CNN
F 3 "$KIPRJMOD/components/Resistors/PYu-RC_Group_51_RoHS_L_10.pdf" H 4900 2200 30  0001 C CNN
F 4 "Yageo" H 200 950 50  0001 C CNN "Manf"
F 5 "RC0805JR-07100KL" H 200 950 50  0001 C CNN "Manf#"
F 6 "RES SMD 100K OHM 5% 1/8W 0805" H 200 950 50  0001 C CNN "Desc"
F 7 "Digikey" H 200 950 50  0001 C CNN "Provider"
F 8 "311-100KARCT-ND" H 200 950 50  0001 C CNN "Provider#"
F 9 "C25271" H 4900 2200 50  0001 C CNN "LCSC"
	1    4900 2200
	-1   0    0    1   
$EndComp
Wire Wire Line
	3400 2250 3400 2350
Wire Wire Line
	3400 2250 3300 2250
Connection ~ 3400 2250
Wire Wire Line
	3400 2650 3400 2750
Connection ~ 3400 2750
Wire Wire Line
	3400 2750 3600 2750
Wire Wire Line
	2650 2250 3000 2250
Wire Wire Line
	3400 4100 3400 4200
Connection ~ 3400 4200
Wire Wire Line
	3400 4200 3600 4200
Wire Wire Line
	3400 3700 3400 3800
Wire Wire Line
	3400 3700 3300 3700
Connection ~ 3400 3700
Wire Wire Line
	2650 3700 3000 3700
Wire Wire Line
	4900 2050 4900 2000
Wire Wire Line
	4900 3800 4900 3850
Connection ~ 4900 3850
Wire Wire Line
	4900 3850 5200 3850
Wire Wire Line
	4900 2350 4900 2400
Connection ~ 4900 2400
Wire Wire Line
	4900 2400 5200 2400
Wire Wire Line
	4900 3500 4900 3450
Wire Wire Line
	9100 3250 8800 3250
Wire Wire Line
	9100 4800 8800 4800
Wire Wire Line
	8800 2850 8800 2900
Wire Wire Line
	8800 3200 8800 3250
Connection ~ 8800 3250
Wire Wire Line
	8800 4700 8800 4800
Connection ~ 8800 4800
Wire Wire Line
	8800 4300 8800 4400
Text Notes 1100 800  0    50   ~ 0
IN0, IN1: 0-10V
Wire Wire Line
	1250 1650 1600 1650
Wire Wire Line
	1250 1750 1950 1750
Wire Wire Line
	1250 2300 1600 2300
Wire Wire Line
	1250 2400 1950 2400
Wire Wire Line
	1250 1550 1950 1550
Wire Wire Line
	4400 2400 4900 2400
Wire Wire Line
	4400 2600 4500 2600
Wire Wire Line
	3600 2600 3800 2600
Wire Wire Line
	3600 2400 3800 2400
Wire Wire Line
	4400 3850 4900 3850
Wire Wire Line
	4400 4050 4500 4050
Wire Wire Line
	3600 4050 3800 4050
Wire Wire Line
	3600 3850 3800 3850
$Comp
L SMMR-rescue:TLP290-Isolator U301
U 1 1 5D2D4F7B
P 4100 2500
AR Path="/5D2D4F7B" Ref="U301"  Part="1" 
AR Path="/5D055DBB/5D2D4F7B" Ref="U301"  Part="1" 
F 0 "U301" H 4100 2825 50  0000 C CNN
F 1 "TLP290" H 4100 2734 50  0000 C CNN
F 2 "Package_SO:SOIC-4_4.55x2.6mm_P1.27mm" H 3250 2300 50  0001 L CIN
F 3 "https://toshiba.semicon-storage.com/info/docget.jsp?did=12882&prodName=TLP290" H 4125 2500 50  0001 L CNN
F 4 "OPTOISOLATOR 3.75KV TRANS 4-SO" H 4100 2500 50  0001 C CNN "Desc"
F 5 "Toshiba" H 4100 2500 50  0001 C CNN "Manf"
F 6 "TLP290(E)" H 4100 2500 50  0001 C CNN "Manf#"
F 7 "Digikey" H 4100 2500 50  0001 C CNN "Provider"
F 8 "TLP290E-ND" H 4100 2500 50  0001 C CNN "Provider#"
	1    4100 2500
	1    0    0    -1  
$EndComp
$Comp
L SMMR-rescue:TLP290-Isolator U302
U 1 1 5D2D68C8
P 4100 3950
AR Path="/5D2D68C8" Ref="U302"  Part="1" 
AR Path="/5D055DBB/5D2D68C8" Ref="U302"  Part="1" 
F 0 "U302" H 4100 4275 50  0000 C CNN
F 1 "TLP290" H 4100 4184 50  0000 C CNN
F 2 "Package_SO:SOIC-4_4.55x2.6mm_P1.27mm" H 3250 3750 50  0001 L CIN
F 3 "https://toshiba.semicon-storage.com/info/docget.jsp?did=12882&prodName=TLP290" H 4125 3950 50  0001 L CNN
F 4 "OPTOISOLATOR 3.75KV TRANS 4-SO" H 4100 3950 50  0001 C CNN "Desc"
F 5 "Toshiba" H 4100 3950 50  0001 C CNN "Manf"
F 6 "TLP290(E)" H 4100 3950 50  0001 C CNN "Manf#"
F 7 "Digikey" H 4100 3950 50  0001 C CNN "Provider"
F 8 "TLP290E-ND" H 4100 3950 50  0001 C CNN "Provider#"
	1    4100 3950
	1    0    0    -1  
$EndComp
Wire Wire Line
	6550 3650 8800 3650
Text Label 1950 2200 2    60   ~ 0
IN3
Wire Wire Line
	1250 2200 1950 2200
$Comp
L SMMR-rescue:C-Device C304
U 1 1 5D2FEE9B
P 8800 5000
AR Path="/5D2FEE9B" Ref="C304"  Part="1" 
AR Path="/5D055DBB/5D2FEE9B" Ref="C304"  Part="1" 
F 0 "C304" V 8548 5000 50  0000 C CNN
F 1 "1.5nF" V 8639 5000 50  0000 C CNN
F 2 "Capacitor_SMD:C_0805_2012Metric_Pad1.15x1.40mm_HandSolder" H 8838 4850 50  0001 C CNN
F 3 "$KIPRJMOD/components/Capacitors/KEM_C1002_X7R_SMD.pdf" H 8800 5000 50  0001 C CNN
F 4 "KEMET" H 8800 5000 50  0001 C CNN "Manf"
F 5 "C0805C152K5RACTU" H 8800 5000 50  0001 C CNN "Manf#"
F 6 "Digikey" H 8800 5000 50  0001 C CNN "Provider"
F 7 "399-1150-1-ND" H 8800 5000 50  0001 C CNN "Provider#"
F 8 "C1717" H 8800 5000 50  0001 C CNN "LCSC"
	1    8800 5000
	1    0    0    -1  
$EndComp
Wire Wire Line
	8800 4850 8800 4800
$Comp
L SMMR-rescue:C-Device C303
U 1 1 5D3047FC
P 8800 3450
AR Path="/5D3047FC" Ref="C303"  Part="1" 
AR Path="/5D055DBB/5D3047FC" Ref="C303"  Part="1" 
F 0 "C303" V 8548 3450 50  0000 C CNN
F 1 "1.5nF" V 8639 3450 50  0000 C CNN
F 2 "Capacitor_SMD:C_0805_2012Metric_Pad1.15x1.40mm_HandSolder" H 8838 3300 50  0001 C CNN
F 3 "$KIPRJMOD/components/Capacitors/KEM_C1002_X7R_SMD.pdf" H 8800 3450 50  0001 C CNN
F 4 "KEMET" H 8800 3450 50  0001 C CNN "Manf"
F 5 "C0805C152K5RACTU" H 8800 3450 50  0001 C CNN "Manf#"
F 6 "Digikey" H 8800 3450 50  0001 C CNN "Provider"
F 7 "399-1150-1-ND" H 8800 3450 50  0001 C CNN "Provider#"
F 8 "C1717" H 8800 3450 50  0001 C CNN "LCSC"
	1    8800 3450
	1    0    0    -1  
$EndComp
Wire Wire Line
	8800 3300 8800 3250
Wire Wire Line
	8800 3600 8800 3650
Connection ~ 8800 3650
$Comp
L SMMR-rescue:R-Device R?
U 1 1 5D30AF87
P 7750 3250
AR Path="/5CE72594/5D30AF87" Ref="R?"  Part="1" 
AR Path="/5D042DB3/5D046D23/5D30AF87" Ref="R?"  Part="1" 
AR Path="/5D055DBB/5D30AF87" Ref="R307"  Part="1" 
F 0 "R307" V 7830 3250 40  0000 C CNN
F 1 "100" V 7757 3251 40  0000 C CNN
F 2 "Resistor_SMD:R_0805_2012Metric_Pad1.20x1.40mm_HandSolder" V 7680 3250 30  0001 C CNN
F 3 "$KIPRJMOD/components/Resistors/PYu-RC_Group_51_RoHS_L_10.pdf" H 7750 3250 30  0001 C CNN
F 4 "Yageo" H -1050 200 50  0001 C CNN "Manf"
F 5 "RC0805JR-07100RL" H -1050 200 50  0001 C CNN "Manf#"
F 6 "RES SMD 100 OHM 5% 1/8W 0805" H -1050 200 50  0001 C CNN "Desc"
F 7 "Digikey" H -1050 200 50  0001 C CNN "Provider"
F 8 "311-100ARCT-ND" H -1050 200 50  0001 C CNN "Provider#"
F 9 "C17408" H 7750 3250 50  0001 C CNN "LCSC"
	1    7750 3250
	0    1    1    0   
$EndComp
Wire Wire Line
	7900 3250 8800 3250
Wire Wire Line
	6550 3250 7600 3250
$Comp
L SMMR-rescue:GND-power #PWR?
U 1 1 5D3B7A82
P 8800 5250
AR Path="/5CE72594/5D3B7A82" Ref="#PWR?"  Part="1" 
AR Path="/5D042DB3/5D046D23/5D3B7A82" Ref="#PWR?"  Part="1" 
AR Path="/5D055DBB/5D3B7A82" Ref="#PWR0310"  Part="1" 
F 0 "#PWR0310" H 8800 5250 30  0001 C CNN
F 1 "GND" H 8800 5180 30  0001 C CNN
F 2 "" H 8800 5250 60  0000 C CNN
F 3 "" H 8800 5250 60  0000 C CNN
	1    8800 5250
	1    0    0    -1  
$EndComp
Wire Wire Line
	8800 5200 8800 5150
$Comp
L SMMR-rescue:C-Device C302
U 1 1 5D3B8EDB
P 4900 4050
AR Path="/5D3B8EDB" Ref="C302"  Part="1" 
AR Path="/5D055DBB/5D3B8EDB" Ref="C302"  Part="1" 
F 0 "C302" V 4648 4050 50  0000 C CNN
F 1 "1.5nF" V 4739 4050 50  0000 C CNN
F 2 "Capacitor_SMD:C_0805_2012Metric_Pad1.15x1.40mm_HandSolder" H 4938 3900 50  0001 C CNN
F 3 "$KIPRJMOD/components/Capacitors/KEM_C1002_X7R_SMD.pdf" H 4900 4050 50  0001 C CNN
F 4 "KEMET" H 4900 4050 50  0001 C CNN "Manf"
F 5 "C0805C152K5RACTU" H 4900 4050 50  0001 C CNN "Manf#"
F 6 "Digikey" H 4900 4050 50  0001 C CNN "Provider"
F 7 "399-1150-1-ND" H 4900 4050 50  0001 C CNN "Provider#"
F 8 "C1717" H 4900 4050 50  0001 C CNN "LCSC"
	1    4900 4050
	1    0    0    -1  
$EndComp
$Comp
L SMMR-rescue:GND-power #PWR?
U 1 1 5D3B8EE1
P 4900 4250
AR Path="/5CE72594/5D3B8EE1" Ref="#PWR?"  Part="1" 
AR Path="/5D042DB3/5D046D23/5D3B8EE1" Ref="#PWR?"  Part="1" 
AR Path="/5D055DBB/5D3B8EE1" Ref="#PWR0306"  Part="1" 
F 0 "#PWR0306" H 4900 4250 30  0001 C CNN
F 1 "GND" H 4900 4180 30  0001 C CNN
F 2 "" H 4900 4250 60  0000 C CNN
F 3 "" H 4900 4250 60  0000 C CNN
	1    4900 4250
	1    0    0    -1  
$EndComp
Wire Wire Line
	4900 4250 4900 4200
$Comp
L SMMR-rescue:C-Device C301
U 1 1 5D3BA1D1
P 4900 2600
AR Path="/5D3BA1D1" Ref="C301"  Part="1" 
AR Path="/5D055DBB/5D3BA1D1" Ref="C301"  Part="1" 
F 0 "C301" V 4648 2600 50  0000 C CNN
F 1 "1.5nF" V 4739 2600 50  0000 C CNN
F 2 "Capacitor_SMD:C_0805_2012Metric_Pad1.15x1.40mm_HandSolder" H 4938 2450 50  0001 C CNN
F 3 "$KIPRJMOD/components/Capacitors/KEM_C1002_X7R_SMD.pdf" H 4900 2600 50  0001 C CNN
F 4 "KEMET" H 4900 2600 50  0001 C CNN "Manf"
F 5 "C0805C152K5RACTU" H 4900 2600 50  0001 C CNN "Manf#"
F 6 "Digikey" H 4900 2600 50  0001 C CNN "Provider"
F 7 "399-1150-1-ND" H 4900 2600 50  0001 C CNN "Provider#"
F 8 "C1717" H 4900 2600 50  0001 C CNN "LCSC"
	1    4900 2600
	1    0    0    -1  
$EndComp
$Comp
L SMMR-rescue:GND-power #PWR?
U 1 1 5D3BA1D7
P 4900 2800
AR Path="/5CE72594/5D3BA1D7" Ref="#PWR?"  Part="1" 
AR Path="/5D042DB3/5D046D23/5D3BA1D7" Ref="#PWR?"  Part="1" 
AR Path="/5D055DBB/5D3BA1D7" Ref="#PWR0304"  Part="1" 
F 0 "#PWR0304" H 4900 2800 30  0001 C CNN
F 1 "GND" H 4900 2730 30  0001 C CNN
F 2 "" H 4900 2800 60  0000 C CNN
F 3 "" H 4900 2800 60  0000 C CNN
	1    4900 2800
	1    0    0    -1  
$EndComp
Wire Wire Line
	4900 2800 4900 2750
Wire Wire Line
	4900 2450 4900 2400
Wire Wire Line
	4900 3900 4900 3850
Text Label 6550 4800 0    60   ~ 0
IN4
Text Label 6550 5200 0    60   ~ 0
GND
Wire Wire Line
	6550 5200 8800 5200
$Comp
L SMMR-rescue:R-Device R?
U 1 1 5D3C143A
P 7750 4800
AR Path="/5CE72594/5D3C143A" Ref="R?"  Part="1" 
AR Path="/5D042DB3/5D046D23/5D3C143A" Ref="R?"  Part="1" 
AR Path="/5D055DBB/5D3C143A" Ref="R308"  Part="1" 
F 0 "R308" V 7830 4800 40  0000 C CNN
F 1 "100" V 7757 4801 40  0000 C CNN
F 2 "Resistor_SMD:R_0805_2012Metric_Pad1.20x1.40mm_HandSolder" V 7680 4800 30  0001 C CNN
F 3 "$KIPRJMOD/components/Resistors/PYu-RC_Group_51_RoHS_L_10.pdf" H 7750 4800 30  0001 C CNN
F 4 "Yageo" H -1050 1750 50  0001 C CNN "Manf"
F 5 "RC0805JR-07100RL" H -1050 1750 50  0001 C CNN "Manf#"
F 6 "RES SMD 100 OHM 5% 1/8W 0805" H -1050 1750 50  0001 C CNN "Desc"
F 7 "Digikey" H -1050 1750 50  0001 C CNN "Provider"
F 8 "311-100ARCT-ND" H -1050 1750 50  0001 C CNN "Provider#"
F 9 "C17408" H 7750 4800 50  0001 C CNN "LCSC"
	1    7750 4800
	0    1    1    0   
$EndComp
Wire Wire Line
	7900 4800 8800 4800
Wire Wire Line
	6550 4800 7600 4800
Wire Wire Line
	8800 5250 8800 5200
Connection ~ 8800 5200
Wire Notes Line
	6150 2500 9700 2500
Wire Notes Line
	9700 2500 9700 5650
Wire Notes Line
	9700 5650 6150 5650
Wire Notes Line
	6150 5650 6150 2500
Wire Notes Line
	5700 4500 2400 4500
Wire Notes Line
	2400 4500 2400 1650
Wire Notes Line
	2400 1650 5700 1650
Wire Notes Line
	5700 1650 5700 4500
Text Notes 1100 1000 0    50   ~ 0
IN2 IN3: Contacto seco
Wire Wire Line
	1250 1850 1600 1850
Text Label 1400 1850 0    50   ~ 0
IN2
$Comp
L SMMR-rescue:Screw_Terminal_01x03-Connector J302
U 1 1 5D0AC867
P 1050 2300
AR Path="/5D0AC867" Ref="J302"  Part="1" 
AR Path="/5D055DBB/5D0AC867" Ref="J302"  Part="1" 
F 0 "J302" H 1250 2300 50  0000 C CNN
F 1 "Screw_Terminal_01x03" H 1100 1900 50  0001 C CNN
F 2 "TerminalBlock_Phoenix:TerminalBlock_Phoenix_MKDS-1,5-3_1x03_P5.00mm_Horizontal" H 1050 2300 50  0001 C CNN
F 3 "$KIPRJMOD/components/Terminal_block/NTE-euro-style.pdf" H 1050 2300 50  0001 C CNN
F 4 "TERM BLOCK 5.00MM VERT 3POS PCB" H 0   350 50  0001 C CNN "Desc"
F 5 "NTE Electronics, Inc" H 0   350 50  0001 C CNN "Manf"
F 6 "25-E400-03" H 0   350 50  0001 C CNN "Manf#"
F 7 "Digikey" H 0   250 50  0001 C CNN "Provider"
F 8 "2368-25-E400-03-ND" H 0   250 50  0001 C CNN "Provider#"
	1    1050 2300
	-1   0    0    1   
$EndComp
$Comp
L Connector:Screw_Terminal_01x04 J301
U 1 1 61932D44
P 1050 1750
AR Path="/5D055DBB/61932D44" Ref="J301"  Part="1" 
AR Path="/5D042DB3/61932D44" Ref="J301"  Part="1" 
F 0 "J301" H 1250 1700 50  0000 C CNN
F 1 "Screw_Terminal_01x04" H 968 1416 50  0001 C CNN
F 2 "TerminalBlock_Phoenix:TerminalBlock_Phoenix_MKDS-1,5-4_1x04_P5.00mm_Horizontal" H 1050 1750 50  0001 C CNN
F 3 "$KIPRJMOD/components/Terminal_block/NTE-euro-style.pdf" H 1050 1750 50  0001 C CNN
F 4 "NTE Electronics, Inc" H 1050 1750 50  0001 C CNN "Manf"
F 5 "25-E400-04" H 1050 1750 50  0001 C CNN "Manf#"
F 6 "Digikey" H 1050 1750 50  0001 C CNN "Provider"
F 7 "2368-25-E400-04-ND" H 1050 1750 50  0001 C CNN "Provider#"
	1    1050 1750
	-1   0    0    1   
$EndComp
$EndSCHEMATC
