EESchema Schematic File Version 4
EELAYER 30 0
EELAYER END
$Descr A4 11693 8268
encoding utf-8
Sheet 5 5
Title "Sistema de Monitoreo de Material Rodante"
Date "2019-06-13"
Rev "1.3"
Comp "Sebastián Guarino"
Comment1 "Licencia MIT, ver archivo LICENSE"
Comment2 ""
Comment3 ""
Comment4 ""
$EndDescr
$Comp
L SMMR-rescue:Micro_SD_Card-Connector J?
U 1 1 5D044260
P 5050 6550
AR Path="/5D044260" Ref="J?"  Part="1" 
AR Path="/5D042DB3/5D044260" Ref="J601"  Part="1" 
F 0 "J601" H 5000 7267 50  0000 C CNN
F 1 "Micro_SD_Card" H 5000 7176 50  0000 C CNN
F 2 "Connector_Card:microSD_HC_Hirose_DM3D-SF" H 6200 6850 50  0001 C CNN
F 3 "http://katalog.we-online.de/em/datasheet/693072010801.pdf" H 5050 6550 50  0001 C CNN
F 4 "Hirose" H 5050 6550 50  0001 C CNN "Manf"
F 5 "DM3D-SF" H 5050 6550 50  0001 C CNN "Manf#"
F 6 "uSD Card Connector" H 5050 6550 50  0001 C CNN "Desc"
F 7 "Digikey" H 5050 6550 50  0001 C CNN "Provider"
F 8 "HR1941TR-ND" H 5050 6550 50  0001 C CNN "Provider#"
	1    5050 6550
	1    0    0    -1  
$EndComp
$Comp
L SMMR-rescue:GND-power #PWR?
U 1 1 5D044267
P 2700 7250
AR Path="/5D044267" Ref="#PWR?"  Part="1" 
AR Path="/5D042DB3/5D044267" Ref="#PWR0611"  Part="1" 
F 0 "#PWR0611" H 2700 7000 50  0001 C CNN
F 1 "GND" H 2705 7077 50  0000 C CNN
F 2 "" H 2700 7250 50  0001 C CNN
F 3 "" H 2700 7250 50  0001 C CNN
	1    2700 7250
	1    0    0    -1  
$EndComp
Wire Wire Line
	2700 6750 2700 7250
$Comp
L SMMR-rescue:+3.3V-power #PWR?
U 1 1 5D04426E
P 2700 5800
AR Path="/5D04426E" Ref="#PWR?"  Part="1" 
AR Path="/5D042DB3/5D04426E" Ref="#PWR0608"  Part="1" 
F 0 "#PWR0608" H 2700 5650 50  0001 C CNN
F 1 "+3.3V" H 2715 5973 50  0000 C CNN
F 2 "" H 2700 5800 50  0001 C CNN
F 3 "" H 2700 5800 50  0001 C CNN
	1    2700 5800
	1    0    0    -1  
$EndComp
$Comp
L SMMR-rescue:C-Device C?
U 1 1 5D044275
P 6250 6150
AR Path="/5D044275" Ref="C?"  Part="1" 
AR Path="/5D042DB3/5D044275" Ref="C603"  Part="1" 
F 0 "C603" H 6365 6196 50  0000 L CNN
F 1 "100nF" H 6365 6105 50  0000 L CNN
F 2 "Capacitor_SMD:C_0805_2012Metric_Pad1.15x1.40mm_HandSolder" H 6288 6000 50  0001 C CNN
F 3 "$KIPRJMOD/components/Capacitors/KEM_C1002_X7R_SMD.pdf" H 6250 6150 50  0001 C CNN
F 4 "KEMET" H 6250 6150 50  0001 C CNN "Manf"
F 5 "C0805C104K5RACTU" H 6250 6150 50  0001 C CNN "Manf#"
F 6 "Digikey" H 6250 6150 50  0001 C CNN "Provider"
F 7 "399-1170-1-ND" H 6250 6150 50  0001 C CNN "Provider#"
F 8 "C49678" H 6250 6150 50  0001 C CNN "LCSC"
	1    6250 6150
	1    0    0    -1  
$EndComp
$Comp
L SMMR-rescue:GND-power #PWR?
U 1 1 5D04427C
P 6250 6400
AR Path="/5D04427C" Ref="#PWR?"  Part="1" 
AR Path="/5D042DB3/5D04427C" Ref="#PWR0617"  Part="1" 
F 0 "#PWR0617" H 6250 6150 50  0001 C CNN
F 1 "GND" H 6255 6227 50  0000 C CNN
F 2 "" H 6250 6400 50  0001 C CNN
F 3 "" H 6250 6400 50  0001 C CNN
	1    6250 6400
	1    0    0    -1  
$EndComp
$Comp
L SMMR-rescue:+3.3V-power #PWR?
U 1 1 5D044282
P 6250 5900
AR Path="/5D044282" Ref="#PWR?"  Part="1" 
AR Path="/5D042DB3/5D044282" Ref="#PWR0616"  Part="1" 
F 0 "#PWR0616" H 6250 5750 50  0001 C CNN
F 1 "+3.3V" H 6265 6073 50  0000 C CNN
F 2 "" H 6250 5900 50  0001 C CNN
F 3 "" H 6250 5900 50  0001 C CNN
	1    6250 5900
	1    0    0    -1  
$EndComp
Wire Wire Line
	6250 5900 6250 6000
Wire Wire Line
	4150 6750 2700 6750
Text Label 1350 6850 0    50   ~ 0
D0
Text Label 1350 6650 0    50   ~ 0
CLK
Text Label 1350 6450 0    50   ~ 0
CMD
Text Label 1350 6350 0    50   ~ 0
D3
Wire Notes Line
	1150 5450 1150 7600
Wire Notes Line
	1150 7600 6600 7600
Wire Notes Line
	6600 7600 6600 5450
Wire Notes Line
	6600 5450 1150 5450
Text Notes 1200 5550 0    50   ~ 0
SD Reader
$Comp
L SMMR-rescue:GND-power #PWR?
U 1 1 5D044298
P 6000 7300
AR Path="/5D044298" Ref="#PWR?"  Part="1" 
AR Path="/5D042DB3/5D044298" Ref="#PWR0615"  Part="1" 
F 0 "#PWR0615" H 6000 7050 50  0001 C CNN
F 1 "GND" H 6005 7127 50  0000 C CNN
F 2 "" H 6000 7300 50  0001 C CNN
F 3 "" H 6000 7300 50  0001 C CNN
	1    6000 7300
	1    0    0    -1  
$EndComp
Wire Wire Line
	6000 7150 5850 7150
Wire Wire Line
	6000 7150 6000 7300
Wire Wire Line
	6250 6400 6250 6300
Text Label 5400 2650 2    50   ~ 0
CLK
$Comp
L SMMR-rescue:R-Device R?
U 1 1 5D046CC5
P 1700 1650
AR Path="/5D046CC5" Ref="R?"  Part="1" 
AR Path="/5D042DB3/5D046CC5" Ref="R601"  Part="1" 
F 0 "R601" H 1770 1696 50  0000 L CNN
F 1 "10k" H 1770 1605 50  0000 L CNN
F 2 "Resistor_SMD:R_0805_2012Metric_Pad1.20x1.40mm_HandSolder" V 1630 1650 50  0001 C CNN
F 3 "$KIPRJMOD/components/Resistors/PYu-RC_Group_51_RoHS_L_10.pdf" H 1700 1650 50  0001 C CNN
F 4 "Yageo" H 0   0   50  0001 C CNN "Manf"
F 5 "Digikey" H 0   0   50  0001 C CNN "Provider"
F 6 "RC0805JR-0710KL" H 1700 1650 50  0001 C CNN "Manf#"
F 7 "311-10KARCT-ND" H 1700 1650 50  0001 C CNN "Provider#"
F 8 "RES SMD 10K OHM 5% 1/8W 0805" H 1700 1650 50  0001 C CNN "Desc"
F 9 "C17414" H 1700 1650 50  0001 C CNN "LCSC"
	1    1700 1650
	1    0    0    -1  
$EndComp
$Comp
L SMMR-rescue:+3.3V-power #PWR?
U 1 1 5D046CCC
P 1700 1350
AR Path="/5D046CCC" Ref="#PWR?"  Part="1" 
AR Path="/5D042DB3/5D046CCC" Ref="#PWR0603"  Part="1" 
F 0 "#PWR0603" H 1700 1200 50  0001 C CNN
F 1 "+3.3V" H 1715 1523 50  0000 C CNN
F 2 "" H 1700 1350 50  0001 C CNN
F 3 "" H 1700 1350 50  0001 C CNN
	1    1700 1350
	1    0    0    -1  
$EndComp
$Comp
L SMMR-rescue:GND-power #PWR?
U 1 1 5D046CD2
P 1700 2300
AR Path="/5D046CD2" Ref="#PWR?"  Part="1" 
AR Path="/5D042DB3/5D046CD2" Ref="#PWR0604"  Part="1" 
F 0 "#PWR0604" H 1700 2050 50  0001 C CNN
F 1 "GND" H 1705 2127 50  0000 C CNN
F 2 "" H 1700 2300 50  0001 C CNN
F 3 "" H 1700 2300 50  0001 C CNN
	1    1700 2300
	1    0    0    -1  
$EndComp
Wire Wire Line
	1700 1350 1700 1500
$Comp
L SMMR-rescue:C-Device C?
U 1 1 5D046CD9
P 1700 2050
AR Path="/5D046CD9" Ref="C?"  Part="1" 
AR Path="/5D042DB3/5D046CD9" Ref="C602"  Part="1" 
F 0 "C602" H 1815 2096 50  0000 L CNN
F 1 "100nF" H 1815 2005 50  0000 L CNN
F 2 "Capacitor_SMD:C_0805_2012Metric_Pad1.15x1.40mm_HandSolder" H 1738 1900 50  0001 C CNN
F 3 "$KIPRJMOD/components/Capacitors/KEM_C1002_X7R_SMD.pdf" H 1700 2050 50  0001 C CNN
F 4 "KEMET" H 1700 2050 50  0001 C CNN "Manf"
F 5 "C0805C104K5RACTU" H 1700 2050 50  0001 C CNN "Manf#"
F 6 "Digikey" H 1700 2050 50  0001 C CNN "Provider"
F 7 "399-1170-1-ND" H 1700 2050 50  0001 C CNN "Provider#"
F 8 "C49678" H 1700 2050 50  0001 C CNN "LCSC"
	1    1700 2050
	1    0    0    -1  
$EndComp
Wire Wire Line
	1700 1800 1700 1850
Connection ~ 1700 1850
Wire Wire Line
	1700 1850 1700 1900
$Comp
L SMMR-rescue:GND-power #PWR?
U 1 1 5D046CE5
P 3700 4600
AR Path="/5D046CE5" Ref="#PWR?"  Part="1" 
AR Path="/5D042DB3/5D046CE5" Ref="#PWR0614"  Part="1" 
F 0 "#PWR0614" H 3700 4350 50  0001 C CNN
F 1 "GND" H 3705 4427 50  0000 C CNN
F 2 "" H 3700 4600 50  0001 C CNN
F 3 "" H 3700 4600 50  0001 C CNN
	1    3700 4600
	1    0    0    -1  
$EndComp
$Comp
L SMMR-rescue:+3.3V-power #PWR?
U 1 1 5D046CEB
P 3700 1400
AR Path="/5D046CEB" Ref="#PWR?"  Part="1" 
AR Path="/5D042DB3/5D046CEB" Ref="#PWR0613"  Part="1" 
F 0 "#PWR0613" H 3700 1250 50  0001 C CNN
F 1 "+3.3V" H 3715 1573 50  0000 C CNN
F 2 "" H 3700 1400 50  0001 C CNN
F 3 "" H 3700 1400 50  0001 C CNN
	1    3700 1400
	1    0    0    -1  
$EndComp
Wire Wire Line
	3700 1400 3700 1650
Wire Notes Line
	1350 1000 2250 1000
Wire Notes Line
	2250 1000 2250 2700
Wire Notes Line
	2250 2700 1350 2700
Wire Notes Line
	1350 2700 1350 1000
Text Notes 1400 1100 0    50   ~ 0
Reset
Text Label 5275 3850 2    50   ~ 0
SCL
Text Label 5400 2850 2    50   ~ 0
UART2_RX
Text Label 5400 2950 2    50   ~ 0
UART2_TX
Text Label 5400 2750 2    50   ~ 0
CMD
Wire Wire Line
	4300 2750 5400 2750
Wire Wire Line
	4300 2650 5400 2650
Text Label 5250 3550 2    50   ~ 0
NWAKE
Wire Wire Line
	3700 4450 3700 4600
Wire Wire Line
	1700 2200 1700 2300
$Comp
L SMMR-rescue:GND-power #PWR?
U 1 1 5D04A471
P 9850 1750
AR Path="/5D04A471" Ref="#PWR?"  Part="1" 
AR Path="/5D042DB3/5D04A471" Ref="#PWR0619"  Part="1" 
F 0 "#PWR0619" H 9850 1500 50  0001 C CNN
F 1 "GND" H 9855 1577 50  0000 C CNN
F 2 "" H 9850 1750 50  0001 C CNN
F 3 "" H 9850 1750 50  0001 C CNN
	1    9850 1750
	-1   0    0    -1  
$EndComp
$Comp
L SMMR-rescue:+3.3V-power #PWR?
U 1 1 5D04A477
P 9850 1200
AR Path="/5D04A477" Ref="#PWR?"  Part="1" 
AR Path="/5D042DB3/5D04A477" Ref="#PWR0618"  Part="1" 
F 0 "#PWR0618" H 9850 1050 50  0001 C CNN
F 1 "+3.3V" H 9865 1373 50  0000 C CNN
F 2 "" H 9850 1200 50  0001 C CNN
F 3 "" H 9850 1200 50  0001 C CNN
	1    9850 1200
	-1   0    0    -1  
$EndComp
Wire Wire Line
	9850 1200 9850 1300
Wire Wire Line
	9850 1300 9950 1300
Wire Wire Line
	9850 1750 9850 1600
Wire Wire Line
	9850 1600 9950 1600
$Comp
L SMMR-rescue:Conn_01x04-Connector_Generic J?
U 1 1 5D04A485
P 10150 1500
AR Path="/5D04A485" Ref="J?"  Part="1" 
AR Path="/5D042DB3/5D04A485" Ref="J602"  Part="1" 
F 0 "J602" H 10300 1600 50  0000 C CNN
F 1 "Conn_01x04" H 10450 1450 50  0001 C CNN
F 2 "Connector_JST:JST_XH_S4B-XH-A_1x04_P2.50mm_Horizontal" H 10150 1500 50  0001 C CNN
F 3 "$KIPRJMOD/components/Connector_JST/eXH.pdf" H 10150 1500 50  0001 C CNN
F 4 "JST Sales America Inc." H 10150 1500 50  0001 C CNN "Manf"
F 5 "S4B-XH-A(LF)(SN)" H 10150 1500 50  0001 C CNN "Manf#"
F 6 "Digikey" H 10150 1500 50  0001 C CNN "Provider"
F 7 "455-2243-ND" H 10150 1500 50  0001 C CNN "Provider#"
	1    10150 1500
	1    0    0    1   
$EndComp
Text Notes 10600 900  2    50   ~ 0
GPS Connector
Wire Notes Line
	10750 2050 9200 2050
Wire Notes Line
	9200 2050 9200 700 
Wire Notes Line
	9200 700  10750 700 
Wire Notes Line
	10750 700  10750 2050
Text HLabel 2600 2150 0    50   Input ~ 0
DIN2
Text HLabel 4800 3650 2    50   Input ~ 0
AIN0
Text HLabel 4800 3750 2    50   Input ~ 0
AIN1
Wire Wire Line
	3100 2150 2600 2150
NoConn ~ 3100 3550
NoConn ~ 3100 3450
NoConn ~ 3100 3350
NoConn ~ 3100 3250
NoConn ~ 3100 3150
NoConn ~ 3100 3050
Wire Wire Line
	1700 1850 3100 1850
$Comp
L SMMR-rescue:R-Device R?
U 1 1 5D07B3D3
P 8800 2750
AR Path="/5D031A85/5D07B3D3" Ref="R?"  Part="1" 
AR Path="/5D042DB3/5D07B3D3" Ref="R609"  Part="1" 
F 0 "R609" H 8870 2796 50  0000 L CNN
F 1 "4.7k" H 8870 2705 50  0000 L CNN
F 2 "Resistor_SMD:R_0805_2012Metric_Pad1.20x1.40mm_HandSolder" V 8730 2750 50  0001 C CNN
F 3 "$KIPRJMOD/components/Resistors/PYu-RC_Group_51_RoHS_L_10.pdf" H 8800 2750 50  0001 C CNN
F 4 "Yageo" H 0   0   50  0001 C CNN "Manf"
F 5 "Digikey" H 0   0   50  0001 C CNN "Provider"
F 6 "RES SMD 4.7K OHM 5% 1/8W 0805" H 8800 2750 50  0001 C CNN "Desc"
F 7 "RC0805JR-074K7L" H 8800 2750 50  0001 C CNN "Manf#"
F 8 "311-4.7KARCT-ND" H 8800 2750 50  0001 C CNN "Provider#"
F 9 "C17673" H 8800 2750 50  0001 C CNN "LCSC"
	1    8800 2750
	-1   0    0    -1  
$EndComp
$Comp
L SMMR-rescue:R-Device R?
U 1 1 5D07B3DA
P 8450 2750
AR Path="/5D031A85/5D07B3DA" Ref="R?"  Part="1" 
AR Path="/5D042DB3/5D07B3DA" Ref="R608"  Part="1" 
F 0 "R608" H 8520 2796 50  0000 L CNN
F 1 "4.7k" H 8520 2705 50  0000 L CNN
F 2 "Resistor_SMD:R_0805_2012Metric_Pad1.20x1.40mm_HandSolder" V 8380 2750 50  0001 C CNN
F 3 "$KIPRJMOD/components/Resistors/PYu-RC_Group_51_RoHS_L_10.pdf" H 8450 2750 50  0001 C CNN
F 4 "Yageo" H 0   0   50  0001 C CNN "Manf"
F 5 "Digikey" H 0   0   50  0001 C CNN "Provider"
F 6 "RES SMD 4.7K OHM 5% 1/8W 0805" H 8450 2750 50  0001 C CNN "Desc"
F 7 "RC0805JR-074K7L" H 8450 2750 50  0001 C CNN "Manf#"
F 8 "311-4.7KARCT-ND" H 8450 2750 50  0001 C CNN "Provider#"
F 9 "C17673" H 8450 2750 50  0001 C CNN "LCSC"
	1    8450 2750
	-1   0    0    -1  
$EndComp
$Comp
L SMMR-rescue:+3.3V-power #PWR?
U 1 1 5D07B3E1
P 8450 2400
AR Path="/5D031A85/5D07B3E1" Ref="#PWR?"  Part="1" 
AR Path="/5D042DB3/5D07B3E1" Ref="#PWR0620"  Part="1" 
F 0 "#PWR0620" H 8450 2250 50  0001 C CNN
F 1 "+3.3V" H 8465 2573 50  0000 C CNN
F 2 "" H 8450 2400 50  0001 C CNN
F 3 "" H 8450 2400 50  0001 C CNN
	1    8450 2400
	-1   0    0    -1  
$EndComp
$Comp
L SMMR-rescue:+3.3V-power #PWR?
U 1 1 5D07B3E7
P 8800 2400
AR Path="/5D031A85/5D07B3E7" Ref="#PWR?"  Part="1" 
AR Path="/5D042DB3/5D07B3E7" Ref="#PWR0621"  Part="1" 
F 0 "#PWR0621" H 8800 2250 50  0001 C CNN
F 1 "+3.3V" H 8815 2573 50  0000 C CNN
F 2 "" H 8800 2400 50  0001 C CNN
F 3 "" H 8800 2400 50  0001 C CNN
	1    8800 2400
	-1   0    0    -1  
$EndComp
Wire Wire Line
	8450 2400 8450 2600
Wire Wire Line
	8800 2600 8800 2400
Wire Wire Line
	8800 2900 8800 3350
Wire Wire Line
	8450 2900 8450 3250
$Comp
L SMMR-rescue:GND-power #PWR?
U 1 1 5D0B5CA9
P 9800 2900
AR Path="/5D0B5CA9" Ref="#PWR?"  Part="1" 
AR Path="/5D042DB3/5D0B5CA9" Ref="#PWR0622"  Part="1" 
F 0 "#PWR0622" H 9800 2650 50  0001 C CNN
F 1 "GND" H 9805 2727 50  0000 C CNN
F 2 "" H 9800 2900 50  0001 C CNN
F 3 "" H 9800 2900 50  0001 C CNN
	1    9800 2900
	1    0    0    -1  
$EndComp
$Comp
L SMMR-rescue:+3.3V-power #PWR?
U 1 1 5D0B5CAF
P 10150 2950
AR Path="/5D0B5CAF" Ref="#PWR?"  Part="1" 
AR Path="/5D042DB3/5D0B5CAF" Ref="#PWR0623"  Part="1" 
F 0 "#PWR0623" H 10150 2800 50  0001 C CNN
F 1 "+3.3V" H 10165 3123 50  0000 C CNN
F 2 "" H 10150 2950 50  0001 C CNN
F 3 "" H 10150 2950 50  0001 C CNN
	1    10150 2950
	-1   0    0    -1  
$EndComp
Wire Wire Line
	10150 2950 10150 3050
Wire Wire Line
	10150 3050 10250 3050
Text Label 9900 3350 2    50   ~ 0
SCL
Text Label 9900 3250 2    50   ~ 0
SDA
$Comp
L SMMR-rescue:Conn_01x05-Connector_Generic J?
U 1 1 5D0B5CBD
P 10450 3250
AR Path="/5D0B5CBD" Ref="J?"  Part="1" 
AR Path="/5D042DB3/5D0B5CBD" Ref="J603"  Part="1" 
F 0 "J603" H 10600 3450 50  0000 C CNN
F 1 "Conn_01x05" H 10750 3200 50  0001 C CNN
F 2 "Connector_JST:JST_XH_S5B-XH-A_1x05_P2.50mm_Horizontal" H 10450 3250 50  0001 C CNN
F 3 "$KIPRJMOD/components/Connector_JST/eXH.pdf" H 10450 3250 50  0001 C CNN
F 4 "JST Sales America Inc." H 10450 3250 50  0001 C CNN "Manf"
F 5 "S5B-XH-A(LF)(SN)" H 10450 3250 50  0001 C CNN "Manf#"
F 6 "Digikey" H 10450 3250 50  0001 C CNN "Provider"
F 7 "455-2242-ND" H 10450 3250 50  0001 C CNN "Provider#"
	1    10450 3250
	1    0    0    -1  
$EndComp
Text Notes 9250 2600 0    50   ~ 0
I2C Connector
Wire Notes Line
	9200 3850 10750 3850
Wire Notes Line
	10750 3850 10750 2500
Wire Notes Line
	10750 2500 9200 2500
Wire Notes Line
	9200 2500 9200 3850
Text Label 9750 3450 0    50   ~ 0
NWAKE
Wire Wire Line
	9800 2900 9800 2850
Wire Wire Line
	9800 2850 10000 2850
Wire Wire Line
	10000 2850 10000 3150
Wire Wire Line
	10000 3150 10250 3150
Wire Wire Line
	8450 3250 10250 3250
Wire Wire Line
	8800 3350 10250 3350
Wire Wire Line
	4300 3750 4800 3750
Wire Wire Line
	4300 3650 4800 3650
$Comp
L SMMR-rescue:CP-Device C601
U 1 1 5D2851C7
P 800 1250
F 0 "C601" H 918 1296 50  0000 L CNN
F 1 "10uF" H 918 1205 50  0000 L CNN
F 2 "Capacitor_SMD:C_1206_3216Metric_Pad1.42x1.75mm_HandSolder" H 838 1100 50  0001 C CNN
F 3 "$KIPRJMOD/components/Capacitors/KEM_T2005_T491.pdf" H 800 1250 50  0001 C CNN
F 4 "Digikey" H 800 1250 50  0001 C CNN "Provider"
F 5 "CAP TANT 10UF 10% 6.3V 1206" H 0   0   50  0001 C CNN "Desc"
F 6 "KEMET" H 0   0   50  0001 C CNN "Manf"
F 7 "T491A106K010AH" H 0   0   50  0001 C CNN "Manf#"
F 8 "399-10117-1-ND" H 0   0   50  0001 C CNN "Provider#"
	1    800  1250
	1    0    0    -1  
$EndComp
$Comp
L SMMR-rescue:GND-power #PWR0602
U 1 1 5D2852DC
P 800 1500
F 0 "#PWR0602" H 800 1250 50  0001 C CNN
F 1 "GND" H 805 1327 50  0000 C CNN
F 2 "" H 800 1500 50  0001 C CNN
F 3 "" H 800 1500 50  0001 C CNN
	1    800  1500
	1    0    0    -1  
$EndComp
$Comp
L SMMR-rescue:+3.3V-power #PWR0601
U 1 1 5D28535B
P 800 1000
F 0 "#PWR0601" H 800 850 50  0001 C CNN
F 1 "+3.3V" H 815 1173 50  0000 C CNN
F 2 "" H 800 1000 50  0001 C CNN
F 3 "" H 800 1000 50  0001 C CNN
	1    800  1000
	1    0    0    -1  
$EndComp
Wire Wire Line
	800  1100 800  1000
Wire Wire Line
	800  1400 800  1500
$Comp
L SMMR-rescue:ESP32-WROOM-32-RF_Module U?
U 1 1 5D046CBB
P 3700 3050
AR Path="/5D046CBB" Ref="U?"  Part="1" 
AR Path="/5D042DB3/5D046CBB" Ref="U601"  Part="1" 
F 0 "U601" H 3250 4550 50  0000 C CNN
F 1 "ESP32-WROOM-32" H 3250 4450 50  0000 C CNN
F 2 "RF_Module:ESP32-WROOM-32" H 3700 1550 50  0001 C CNN
F 3 "$KIPRJMOD/components/ESP32/esp32-wroom-32d_esp32-wroom-32u_datasheet_en.pdf" H 3400 3100 50  0001 C CNN
F 4 "Espressif Systems" H 3700 3050 50  0001 C CNN "Manf"
F 5 "ESP32-WROOM-32D" H 3700 3050 50  0001 C CNN "Manf#"
F 6 "ESP32 Wifi Module" H 3700 3050 50  0001 C CNN "Desc"
F 7 "Digikey" H 3700 3050 50  0001 C CNN "Provider"
F 8 "1904-1023-1-ND" H 3700 3050 50  0001 C CNN "Provider#"
	1    3700 3050
	1    0    0    -1  
$EndComp
Wire Wire Line
	4300 2850 5400 2850
Wire Wire Line
	9425 1500 9950 1500
Wire Wire Line
	4300 2950 5400 2950
Wire Wire Line
	9425 1400 9950 1400
Wire Wire Line
	4300 2250 5400 2250
Text Label 1350 6250 0    50   ~ 0
D2
Text Label 1350 6950 0    50   ~ 0
D1
$Comp
L SMMR-rescue:R-Device R?
U 1 1 5D362AA4
P 3000 6000
AR Path="/5D031A85/5D362AA4" Ref="R?"  Part="1" 
AR Path="/5D042DB3/5D362AA4" Ref="R605"  Part="1" 
F 0 "R605" H 3070 6046 50  0000 L CNN
F 1 "10k" H 3070 5955 50  0000 L CNN
F 2 "Resistor_SMD:R_0805_2012Metric_Pad1.20x1.40mm_HandSolder" V 2930 6000 50  0001 C CNN
F 3 "$KIPRJMOD/components/Resistors/PYu-RC_Group_51_RoHS_L_10.pdf" H 3000 6000 50  0001 C CNN
F 4 "Yageo" H -5450 3250 50  0001 C CNN "Manf"
F 5 "Digikey" H -5450 3250 50  0001 C CNN "Provider"
F 6 "RC0805JR-0710KL" H 3000 6000 50  0001 C CNN "Manf#"
F 7 "311-10KARCT-ND" H 3000 6000 50  0001 C CNN "Provider#"
F 8 "RES SMD 10K OHM 5% 1/8W 0805" H 3000 6000 50  0001 C CNN "Desc"
F 9 "C17414" H 3000 6000 50  0001 C CNN "LCSC"
	1    3000 6000
	-1   0    0    -1  
$EndComp
$Comp
L SMMR-rescue:+3.3V-power #PWR?
U 1 1 5D362AAA
P 3000 5800
AR Path="/5D031A85/5D362AAA" Ref="#PWR?"  Part="1" 
AR Path="/5D042DB3/5D362AAA" Ref="#PWR0609"  Part="1" 
F 0 "#PWR0609" H 3000 5650 50  0001 C CNN
F 1 "+3.3V" H 3015 5973 50  0000 C CNN
F 2 "" H 3000 5800 50  0001 C CNN
F 3 "" H 3000 5800 50  0001 C CNN
	1    3000 5800
	-1   0    0    -1  
$EndComp
Wire Wire Line
	3000 5800 3000 5850
$Comp
L SMMR-rescue:R-Device R?
U 1 1 5D367F7B
P 2450 6000
AR Path="/5D031A85/5D367F7B" Ref="R?"  Part="1" 
AR Path="/5D042DB3/5D367F7B" Ref="R604"  Part="1" 
F 0 "R604" H 2520 6046 50  0000 L CNN
F 1 "10k" H 2520 5955 50  0000 L CNN
F 2 "Resistor_SMD:R_0805_2012Metric_Pad1.20x1.40mm_HandSolder" V 2380 6000 50  0001 C CNN
F 3 "$KIPRJMOD/components/Resistors/PYu-RC_Group_51_RoHS_L_10.pdf" H 2450 6000 50  0001 C CNN
F 4 "Yageo" H -6000 3250 50  0001 C CNN "Manf"
F 5 "Digikey" H -6000 3250 50  0001 C CNN "Provider"
F 6 "RC0805JR-0710KL" H 2450 6000 50  0001 C CNN "Manf#"
F 7 "311-10KARCT-ND" H 2450 6000 50  0001 C CNN "Provider#"
F 8 "RES SMD 10K OHM 5% 1/8W 0805" H 2450 6000 50  0001 C CNN "Desc"
F 9 "C17414" H 2450 6000 50  0001 C CNN "LCSC"
	1    2450 6000
	-1   0    0    -1  
$EndComp
$Comp
L SMMR-rescue:+3.3V-power #PWR?
U 1 1 5D367F81
P 2450 5800
AR Path="/5D031A85/5D367F81" Ref="#PWR?"  Part="1" 
AR Path="/5D042DB3/5D367F81" Ref="#PWR0607"  Part="1" 
F 0 "#PWR0607" H 2450 5650 50  0001 C CNN
F 1 "+3.3V" H 2465 5973 50  0000 C CNN
F 2 "" H 2450 5800 50  0001 C CNN
F 3 "" H 2450 5800 50  0001 C CNN
	1    2450 5800
	-1   0    0    -1  
$EndComp
Wire Wire Line
	2450 5800 2450 5850
$Comp
L SMMR-rescue:R-Device R?
U 1 1 5D369492
P 2150 6000
AR Path="/5D031A85/5D369492" Ref="R?"  Part="1" 
AR Path="/5D042DB3/5D369492" Ref="R603"  Part="1" 
F 0 "R603" H 2220 6046 50  0000 L CNN
F 1 "10k" H 2220 5955 50  0000 L CNN
F 2 "Resistor_SMD:R_0805_2012Metric_Pad1.20x1.40mm_HandSolder" V 2080 6000 50  0001 C CNN
F 3 "$KIPRJMOD/components/Resistors/PYu-RC_Group_51_RoHS_L_10.pdf" H 2150 6000 50  0001 C CNN
F 4 "Yageo" H -6300 3250 50  0001 C CNN "Manf"
F 5 "Digikey" H -6300 3250 50  0001 C CNN "Provider"
F 6 "RC0805JR-0710KL" H 2150 6000 50  0001 C CNN "Manf#"
F 7 "311-10KARCT-ND" H 2150 6000 50  0001 C CNN "Provider#"
F 8 "RES SMD 10K OHM 5% 1/8W 0805" H 2150 6000 50  0001 C CNN "Desc"
F 9 "C17414" H 2150 6000 50  0001 C CNN "LCSC"
	1    2150 6000
	-1   0    0    -1  
$EndComp
$Comp
L SMMR-rescue:+3.3V-power #PWR?
U 1 1 5D369498
P 2150 5800
AR Path="/5D031A85/5D369498" Ref="#PWR?"  Part="1" 
AR Path="/5D042DB3/5D369498" Ref="#PWR0606"  Part="1" 
F 0 "#PWR0606" H 2150 5650 50  0001 C CNN
F 1 "+3.3V" H 2165 5973 50  0000 C CNN
F 2 "" H 2150 5800 50  0001 C CNN
F 3 "" H 2150 5800 50  0001 C CNN
	1    2150 5800
	-1   0    0    -1  
$EndComp
Wire Wire Line
	2150 5800 2150 5850
$Comp
L SMMR-rescue:R-Device R?
U 1 1 5D36AA45
P 1850 6000
AR Path="/5D031A85/5D36AA45" Ref="R?"  Part="1" 
AR Path="/5D042DB3/5D36AA45" Ref="R602"  Part="1" 
F 0 "R602" H 1920 6046 50  0000 L CNN
F 1 "10k" H 1920 5955 50  0000 L CNN
F 2 "Resistor_SMD:R_0805_2012Metric_Pad1.20x1.40mm_HandSolder" V 1780 6000 50  0001 C CNN
F 3 "$KIPRJMOD/components/Resistors/PYu-RC_Group_51_RoHS_L_10.pdf" H 1850 6000 50  0001 C CNN
F 4 "Yageo" H -6600 3250 50  0001 C CNN "Manf"
F 5 "Digikey" H -6600 3250 50  0001 C CNN "Provider"
F 6 "RC0805JR-0710KL" H 1850 6000 50  0001 C CNN "Manf#"
F 7 "311-10KARCT-ND" H 1850 6000 50  0001 C CNN "Provider#"
F 8 "RES SMD 10K OHM 5% 1/8W 0805" H 1850 6000 50  0001 C CNN "Desc"
F 9 "C17414" H 1850 6000 50  0001 C CNN "LCSC"
	1    1850 6000
	-1   0    0    -1  
$EndComp
$Comp
L SMMR-rescue:+3.3V-power #PWR?
U 1 1 5D36AA4B
P 1850 5800
AR Path="/5D031A85/5D36AA4B" Ref="#PWR?"  Part="1" 
AR Path="/5D042DB3/5D36AA4B" Ref="#PWR0605"  Part="1" 
F 0 "#PWR0605" H 1850 5650 50  0001 C CNN
F 1 "+3.3V" H 1865 5973 50  0000 C CNN
F 2 "" H 1850 5800 50  0001 C CNN
F 3 "" H 1850 5800 50  0001 C CNN
	1    1850 5800
	-1   0    0    -1  
$EndComp
Wire Wire Line
	1850 5800 1850 5850
$Comp
L SMMR-rescue:R-Device R?
U 1 1 5D36D6E5
P 3300 6000
AR Path="/5D031A85/5D36D6E5" Ref="R?"  Part="1" 
AR Path="/5D042DB3/5D36D6E5" Ref="R606"  Part="1" 
F 0 "R606" H 3370 6046 50  0000 L CNN
F 1 "10k" H 3370 5955 50  0000 L CNN
F 2 "Resistor_SMD:R_0805_2012Metric_Pad1.20x1.40mm_HandSolder" V 3230 6000 50  0001 C CNN
F 3 "$KIPRJMOD/components/Resistors/PYu-RC_Group_51_RoHS_L_10.pdf" H 3300 6000 50  0001 C CNN
F 4 "Yageo" H -5150 3250 50  0001 C CNN "Manf"
F 5 "Digikey" H -5150 3250 50  0001 C CNN "Provider"
F 6 "RC0805JR-0710KL" H 3300 6000 50  0001 C CNN "Manf#"
F 7 "311-10KARCT-ND" H 3300 6000 50  0001 C CNN "Provider#"
F 8 "RES SMD 10K OHM 5% 1/8W 0805" H 3300 6000 50  0001 C CNN "Desc"
F 9 "C17414" H 3300 6000 50  0001 C CNN "LCSC"
	1    3300 6000
	-1   0    0    -1  
$EndComp
$Comp
L SMMR-rescue:+3.3V-power #PWR?
U 1 1 5D36D6EB
P 3300 5800
AR Path="/5D031A85/5D36D6EB" Ref="#PWR?"  Part="1" 
AR Path="/5D042DB3/5D36D6EB" Ref="#PWR0610"  Part="1" 
F 0 "#PWR0610" H 3300 5650 50  0001 C CNN
F 1 "+3.3V" H 3315 5973 50  0000 C CNN
F 2 "" H 3300 5800 50  0001 C CNN
F 3 "" H 3300 5800 50  0001 C CNN
	1    3300 5800
	-1   0    0    -1  
$EndComp
Wire Wire Line
	3300 5800 3300 5850
$Comp
L SMMR-rescue:R-Device R?
U 1 1 5D374D1C
P 3600 6000
AR Path="/5D031A85/5D374D1C" Ref="R?"  Part="1" 
AR Path="/5D042DB3/5D374D1C" Ref="R607"  Part="1" 
F 0 "R607" H 3670 6046 50  0000 L CNN
F 1 "10k" H 3670 5955 50  0000 L CNN
F 2 "Resistor_SMD:R_0805_2012Metric_Pad1.20x1.40mm_HandSolder" V 3530 6000 50  0001 C CNN
F 3 "$KIPRJMOD/components/Resistors/PYu-RC_Group_51_RoHS_L_10.pdf" H 3600 6000 50  0001 C CNN
F 4 "Yageo" H -4850 3250 50  0001 C CNN "Manf"
F 5 "Digikey" H -4850 3250 50  0001 C CNN "Provider"
F 6 "RC0805JR-0710KL" H 3600 6000 50  0001 C CNN "Manf#"
F 7 "311-10KARCT-ND" H 3600 6000 50  0001 C CNN "Provider#"
F 8 "RES SMD 10K OHM 5% 1/8W 0805" H 3600 6000 50  0001 C CNN "Desc"
F 9 "C17414" H 3600 6000 50  0001 C CNN "LCSC"
	1    3600 6000
	-1   0    0    -1  
$EndComp
$Comp
L SMMR-rescue:+3.3V-power #PWR?
U 1 1 5D374D22
P 3600 5800
AR Path="/5D031A85/5D374D22" Ref="#PWR?"  Part="1" 
AR Path="/5D042DB3/5D374D22" Ref="#PWR0612"  Part="1" 
F 0 "#PWR0612" H 3600 5650 50  0001 C CNN
F 1 "+3.3V" H 3615 5973 50  0000 C CNN
F 2 "" H 3600 5800 50  0001 C CNN
F 3 "" H 3600 5800 50  0001 C CNN
	1    3600 5800
	-1   0    0    -1  
$EndComp
Wire Wire Line
	3600 5800 3600 5850
Wire Wire Line
	3600 6250 3600 6150
Wire Wire Line
	3600 6250 4150 6250
Wire Wire Line
	2700 6550 2700 5800
Wire Wire Line
	2700 6550 4150 6550
Wire Wire Line
	3300 6350 3300 6150
Wire Wire Line
	3300 6350 4150 6350
Wire Wire Line
	3000 6450 3000 6150
Wire Wire Line
	3000 6450 4150 6450
Wire Wire Line
	2450 6650 2450 6150
Wire Wire Line
	2450 6650 4150 6650
Wire Wire Line
	2150 6150 2150 6850
Wire Wire Line
	2150 6850 4150 6850
Wire Wire Line
	1850 6150 1850 6950
Wire Wire Line
	1850 6950 4150 6950
Wire Wire Line
	1350 6950 1850 6950
Connection ~ 1850 6950
Wire Wire Line
	2150 6850 1350 6850
Connection ~ 2150 6850
Wire Wire Line
	2450 6650 1350 6650
Connection ~ 2450 6650
Wire Wire Line
	3000 6450 1350 6450
Connection ~ 3000 6450
Wire Wire Line
	3300 6350 1350 6350
Connection ~ 3300 6350
Wire Wire Line
	3600 6250 1350 6250
Connection ~ 3600 6250
$Comp
L SMMR-rescue:Conn_01x05-Connector_Generic J?
U 1 1 5D3B1F64
P 8700 1250
AR Path="/5D3B1F64" Ref="J?"  Part="1" 
AR Path="/5D042DB3/5D3B1F64" Ref="J604"  Part="1" 
F 0 "J604" H 8850 1450 50  0000 C CNN
F 1 "Conn_01x05" H 9000 1200 50  0001 C CNN
F 2 "Connector_PinHeader_2.54mm:PinHeader_1x05_P2.54mm_Vertical" H 8700 1250 50  0001 C CNN
F 3 "~" H 8700 1250 50  0001 C CNN
	1    8700 1250
	1    0    0    -1  
$EndComp
$Comp
L SMMR-rescue:Q_NPN_BEC-Device Q1
U 1 1 5D3C9414
P 9200 4450
F 0 "Q1" H 9391 4496 50  0000 L CNN
F 1 "SS8050-G" H 9391 4405 50  0000 L CNN
F 2 "Package_TO_SOT_SMD:SOT-23_Handsoldering" H 9400 4550 50  0001 C CNN
F 3 "$KIPRJMOD/components/SS8050-G/SS8050-G RevA181526.pdf" H 9200 4450 50  0001 C CNN
F 4 "NPN TRANSISTOR 1.5A 40V SOT-23 R" H 9200 4450 50  0001 C CNN "Desc"
F 5 "Comchip Technology" H 9200 4450 50  0001 C CNN "Manf"
F 6 "SS8050-G" H 9200 4450 50  0001 C CNN "Manf#"
F 7 "Digikey" H 9200 4450 50  0001 C CNN "Provider"
F 8 "641-1790-1-ND" H 9200 4450 50  0001 C CNN "Provider#"
F 9 "C164886" H 9200 4450 50  0001 C CNN "LCSC"
	1    9200 4450
	1    0    0    -1  
$EndComp
$Comp
L SMMR-rescue:Q_NPN_BEC-Device Q2
U 1 1 5D3C9564
P 9200 5150
F 0 "Q2" H 9391 5104 50  0000 L CNN
F 1 "SS8050-G" H 9391 5195 50  0000 L CNN
F 2 "Package_TO_SOT_SMD:SOT-23_Handsoldering" H 9400 5250 50  0001 C CNN
F 3 "$KIPRJMOD/components/SS8050-G/SS8050-G RevA181526.pdf" H 9200 5150 50  0001 C CNN
F 4 "NPN TRANSISTOR 1.5A 40V SOT-23 R" H 9200 5150 50  0001 C CNN "Desc"
F 5 "Comchip Technology" H 9200 5150 50  0001 C CNN "Manf"
F 6 "SS8050-G" H 9200 5150 50  0001 C CNN "Manf#"
F 7 "Digikey" H 9200 5150 50  0001 C CNN "Provider"
F 8 "641-1790-1-ND" H 9200 5150 50  0001 C CNN "Provider#"
F 9 "C164886" H 9200 5150 50  0001 C CNN "LCSC"
	1    9200 5150
	1    0    0    1   
$EndComp
$Comp
L SMMR-rescue:R-Device R?
U 1 1 5D3D8342
P 8750 4450
AR Path="/5D031A85/5D3D8342" Ref="R?"  Part="1" 
AR Path="/5D042DB3/5D3D8342" Ref="R610"  Part="1" 
F 0 "R610" H 8820 4496 50  0000 L CNN
F 1 "10k" H 8820 4405 50  0000 L CNN
F 2 "Resistor_SMD:R_0805_2012Metric_Pad1.20x1.40mm_HandSolder" V 8680 4450 50  0001 C CNN
F 3 "$KIPRJMOD/components/Resistors/PYu-RC_Group_51_RoHS_L_10.pdf" H 8750 4450 50  0001 C CNN
F 4 "Yageo" H 300 1700 50  0001 C CNN "Manf"
F 5 "Digikey" H 300 1700 50  0001 C CNN "Provider"
F 6 "RC0805JR-0710KL" H 8750 4450 50  0001 C CNN "Manf#"
F 7 "311-10KARCT-ND" H 8750 4450 50  0001 C CNN "Provider#"
F 8 "RES SMD 10K OHM 5% 1/8W 0805" H 8750 4450 50  0001 C CNN "Desc"
F 9 "C17414" H 8750 4450 50  0001 C CNN "LCSC"
	1    8750 4450
	0    1    -1   0   
$EndComp
$Comp
L SMMR-rescue:R-Device R?
U 1 1 5D3D84D8
P 8750 5150
AR Path="/5D031A85/5D3D84D8" Ref="R?"  Part="1" 
AR Path="/5D042DB3/5D3D84D8" Ref="R611"  Part="1" 
F 0 "R611" H 8820 5196 50  0000 L CNN
F 1 "10k" H 8820 5105 50  0000 L CNN
F 2 "Resistor_SMD:R_0805_2012Metric_Pad1.20x1.40mm_HandSolder" V 8680 5150 50  0001 C CNN
F 3 "$KIPRJMOD/components/Resistors/PYu-RC_Group_51_RoHS_L_10.pdf" H 8750 5150 50  0001 C CNN
F 4 "Yageo" H 300 2400 50  0001 C CNN "Manf"
F 5 "Digikey" H 300 2400 50  0001 C CNN "Provider"
F 6 "RC0805JR-0710KL" H 8750 5150 50  0001 C CNN "Manf#"
F 7 "311-10KARCT-ND" H 8750 5150 50  0001 C CNN "Provider#"
F 8 "RES SMD 10K OHM 5% 1/8W 0805" H 8750 5150 50  0001 C CNN "Desc"
F 9 "C17414" H 8750 5150 50  0001 C CNN "LCSC"
	1    8750 5150
	0    1    -1   0   
$EndComp
Wire Wire Line
	9000 5150 8900 5150
Wire Wire Line
	9000 4450 8900 4450
Wire Wire Line
	9300 4650 9300 4750
Wire Wire Line
	9300 4750 8500 4750
Wire Wire Line
	8500 4750 8500 5150
Wire Wire Line
	8500 5150 8600 5150
Wire Wire Line
	8600 4450 8550 4450
Wire Wire Line
	8550 4450 8550 4850
Wire Wire Line
	8550 4850 8950 4850
Wire Wire Line
	9300 4850 9300 4950
Wire Wire Line
	9300 4250 9300 4150
Wire Wire Line
	9300 4150 9800 4150
Wire Wire Line
	8100 1050 8500 1050
Text Label 8100 1150 0    50   ~ 0
UART0_TX
Text Label 8100 1050 0    50   ~ 0
UART0_RX
Text Label 2750 1850 0    50   ~ 0
EN
Text Label 9700 4150 0    50   ~ 0
EN
Wire Wire Line
	8500 5150 8200 5150
Connection ~ 8500 5150
Wire Wire Line
	8550 4450 8200 4450
Connection ~ 8550 4450
Text Label 8200 5150 0    50   ~ 0
RTS
Text Label 8200 4450 0    50   ~ 0
DTR
Text Notes 10050 5050 0    50   ~ 0
Auto program\nDTR RTS  -  EN  IO0/D0\n  1   1       1     1\n  0   0       1     1\n  0   1       1     0\n  1   0       0     1
Wire Wire Line
	8500 1250 8100 1250
Wire Wire Line
	8500 1350 8100 1350
Wire Wire Line
	8500 1450 8250 1450
Wire Wire Line
	8250 1450 8250 1650
$Comp
L SMMR-rescue:GND-power #PWR?
U 1 1 5D41C20D
P 8250 1650
AR Path="/5D41C20D" Ref="#PWR?"  Part="1" 
AR Path="/5D042DB3/5D41C20D" Ref="#PWR0103"  Part="1" 
F 0 "#PWR0103" H 8250 1400 50  0001 C CNN
F 1 "GND" H 8255 1477 50  0000 C CNN
F 2 "" H 8250 1650 50  0001 C CNN
F 3 "" H 8250 1650 50  0001 C CNN
	1    8250 1650
	1    0    0    -1  
$EndComp
Text Label 8150 1250 0    50   ~ 0
DTR
Text Label 8150 1350 0    50   ~ 0
RTS
Text Label 9450 1400 0    50   ~ 0
UART2_RX
Text Label 9450 1500 0    50   ~ 0
UART2_TX
Wire Wire Line
	4800 4050 4300 4050
Text HLabel 4800 4050 2    50   Input ~ 0
DIN1
Wire Wire Line
	4300 4150 4800 4150
Text HLabel 4800 4150 2    50   Input ~ 0
DIN0
Text Label 5400 2250 2    50   ~ 0
D1
Text Label 5400 2550 2    50   ~ 0
D3
Wire Wire Line
	4300 2550 5400 2550
Text Label 5400 2450 2    50   ~ 0
D2
Wire Wire Line
	4300 2450 5400 2450
Wire Wire Line
	3100 2050 2600 2050
Text HLabel 2600 2050 0    50   Input ~ 0
DIN3
Wire Wire Line
	4300 3950 5275 3950
Text Label 5275 3950 2    50   ~ 0
SDA
Wire Wire Line
	4300 3850 5275 3850
NoConn ~ 4300 3150
NoConn ~ 4300 3250
Wire Wire Line
	4300 3550 5250 3550
NoConn ~ 4300 3450
Wire Wire Line
	10250 3450 9750 3450
Wire Wire Line
	8500 1150 8100 1150
Wire Wire Line
	4300 2150 5400 2150
Wire Wire Line
	4300 1950 5400 1950
Text Label 5400 1950 2    50   ~ 0
UART0_TX
Text Label 5400 2150 2    50   ~ 0
UART0_RX
Wire Notes Line
	7950 700  9050 700 
Wire Notes Line
	9050 700  9050 2050
Wire Notes Line
	9050 2050 7950 2050
Wire Notes Line
	7950 2050 7950 700 
Text Notes 8000 800  0    50   ~ 0
PGM Connector
NoConn ~ 4300 3350
$Comp
L SMMR-rescue:R-Device R?
U 1 1 617F8FA2
P 8750 6000
AR Path="/5D031A85/617F8FA2" Ref="R?"  Part="1" 
AR Path="/5D042DB3/617F8FA2" Ref="R12"  Part="1" 
F 0 "R12" H 8820 6046 50  0000 L CNN
F 1 "10k" H 8820 5955 50  0000 L CNN
F 2 "Resistor_SMD:R_0805_2012Metric_Pad1.20x1.40mm_HandSolder" V 8680 6000 50  0001 C CNN
F 3 "$KIPRJMOD/components/Resistors/PYu-RC_Group_51_RoHS_L_10.pdf" H 8750 6000 50  0001 C CNN
F 4 "Yageo" H 300 3250 50  0001 C CNN "Manf"
F 5 "Digikey" H 300 3250 50  0001 C CNN "Provider"
F 6 "RC0805JR-0710KL" H 8750 6000 50  0001 C CNN "Manf#"
F 7 "311-10KARCT-ND" H 8750 6000 50  0001 C CNN "Provider#"
F 8 "RES SMD 10K OHM 5% 1/8W 0805" H 8750 6000 50  0001 C CNN "Desc"
F 9 "C17414" H 8750 6000 50  0001 C CNN "LCSC"
	1    8750 6000
	0    1    -1   0   
$EndComp
Wire Wire Line
	8950 5700 8950 4850
Connection ~ 8950 4850
Wire Wire Line
	8950 4850 9300 4850
$Comp
L SMMR-rescue:Q_NPN_BEC-Device Q3
U 1 1 617E64E9
P 9200 6000
F 0 "Q3" H 9391 5954 50  0000 L CNN
F 1 "SS8050-G" H 9391 6045 50  0000 L CNN
F 2 "Package_TO_SOT_SMD:SOT-23_Handsoldering" H 9400 6100 50  0001 C CNN
F 3 "$KIPRJMOD/components/SS8050-G/SS8050-G RevA181526.pdf" H 9200 6000 50  0001 C CNN
F 4 "NPN TRANSISTOR 1.5A 40V SOT-23 R" H 9200 6000 50  0001 C CNN "Desc"
F 5 "Comchip Technology" H 9200 6000 50  0001 C CNN "Manf"
F 6 "SS8050-G" H 9200 6000 50  0001 C CNN "Manf#"
F 7 "Digikey" H 9200 6000 50  0001 C CNN "Provider"
F 8 "641-1790-1-ND" H 9200 6000 50  0001 C CNN "Provider#"
F 9 "C164886" H 9200 6000 50  0001 C CNN "LCSC"
	1    9200 6000
	1    0    0    1   
$EndComp
Wire Wire Line
	9000 6000 8900 6000
Wire Wire Line
	8600 6000 8500 6000
Wire Wire Line
	8500 6000 8500 5150
Wire Wire Line
	8950 5700 9300 5700
Wire Wire Line
	9300 5700 9300 5800
Wire Wire Line
	9300 5350 9300 5500
Wire Wire Line
	9300 5500 9800 5500
Wire Wire Line
	9300 6200 9300 6300
Wire Wire Line
	9300 6300 9800 6300
Wire Wire Line
	4300 1850 5400 1850
Wire Wire Line
	4300 2050 5400 2050
Text Label 5400 1850 2    50   ~ 0
IO0
Text Label 5400 2050 2    50   ~ 0
D0
Text Label 9800 5500 2    50   ~ 0
IO0
Text Label 9800 6300 2    50   ~ 0
D0
$Comp
L SMMR-rescue:LED-Device D?
U 1 1 6195415D
P 6350 3000
AR Path="/6195415D" Ref="D?"  Part="1" 
AR Path="/5D03A6CB/6195415D" Ref="D?"  Part="1" 
AR Path="/5D042DB3/6195415D" Ref="D601"  Part="1" 
F 0 "D601" V 6388 2883 50  0000 R CNN
F 1 "LED Green" V 6297 2883 50  0000 R CNN
F 2 "LED_SMD:LED_0805_2012Metric_Pad1.15x1.40mm_HandSolder" H 6350 3000 50  0001 C CNN
F 3 "" H 6350 3000 50  0001 C CNN
F 4 "C2297" V 6350 3000 50  0001 C CNN "LCSC"
	1    6350 3000
	0    -1   -1   0   
$EndComp
$Comp
L SMMR-rescue:R-Device R?
U 1 1 6195A312
P 6350 2600
AR Path="/6195A312" Ref="R?"  Part="1" 
AR Path="/5D042DB3/6195A312" Ref="R13"  Part="1" 
F 0 "R13" H 6420 2646 50  0000 L CNN
F 1 "220" H 6420 2555 50  0000 L CNN
F 2 "Resistor_SMD:R_0805_2012Metric_Pad1.20x1.40mm_HandSolder" V 6280 2600 50  0001 C CNN
F 3 "$KIPRJMOD/components/Resistors/PYu-RC_Group_51_RoHS_L_10.pdf" H 6350 2600 50  0001 C CNN
F 4 "Yageo" H 4650 950 50  0001 C CNN "Manf"
F 5 "Digikey" H 4650 950 50  0001 C CNN "Provider"
F 6 "RC0805JR-07220RL" H 6350 2600 50  0001 C CNN "Manf#"
F 7 "311-220ARCT-ND" H 6350 2600 50  0001 C CNN "Provider#"
F 8 "RES SMD 220 OHM 5% 1/8W 0805" H 6350 2600 50  0001 C CNN "Desc"
F 9 "C17557" H 6350 2600 50  0001 C CNN "LCSC"
	1    6350 2600
	1    0    0    -1  
$EndComp
Wire Wire Line
	6350 2850 6350 2750
Wire Wire Line
	6350 2450 6350 2350
Wire Wire Line
	6350 2350 4300 2350
$Comp
L SMMR-rescue:GND-power #PWR?
U 1 1 6198D21D
P 6350 3250
AR Path="/6198D21D" Ref="#PWR?"  Part="1" 
AR Path="/5D042DB3/6198D21D" Ref="#PWR0104"  Part="1" 
F 0 "#PWR0104" H 6350 3000 50  0001 C CNN
F 1 "GND" H 6355 3077 50  0000 C CNN
F 2 "" H 6350 3250 50  0001 C CNN
F 3 "" H 6350 3250 50  0001 C CNN
	1    6350 3250
	1    0    0    -1  
$EndComp
Wire Wire Line
	6350 3150 6350 3250
$Comp
L Switch:SW_Push SW601
U 1 1 6199F890
P 5600 3400
F 0 "SW601" V 5600 3700 50  0000 C CNN
F 1 "SW_Push" H 5600 3594 50  0001 C CNN
F 2 "Button_Switch_SMD:SW_SPST_B3U-1000P" H 5600 3600 50  0001 C CNN
F 3 "$KIPRJMOD/components/Switch/en-b3u.pdf" H 5600 3600 50  0001 C CNN
F 4 "Omron" V 5600 3400 50  0001 C CNN "Manf"
F 5 "B3U-1000P" V 5600 3400 50  0001 C CNN "Manf#"
F 6 "Digikey" V 5600 3400 50  0001 C CNN "Provider"
F 7 "SW1020CT-ND" V 5600 3400 50  0001 C CNN "Provider#"
F 8 "" V 5600 3400 50  0001 C CNN "LCSC"
	1    5600 3400
	0    1    1    0   
$EndComp
$Comp
L SMMR-rescue:R-Device R?
U 1 1 619D9572
P 5600 3850
AR Path="/619D9572" Ref="R?"  Part="1" 
AR Path="/5D042DB3/619D9572" Ref="R14"  Part="1" 
F 0 "R14" H 5670 3896 50  0000 L CNN
F 1 "10k" H 5670 3805 50  0000 L CNN
F 2 "Resistor_SMD:R_0805_2012Metric_Pad1.20x1.40mm_HandSolder" V 5530 3850 50  0001 C CNN
F 3 "$KIPRJMOD/components/Resistors/PYu-RC_Group_51_RoHS_L_10.pdf" H 5600 3850 50  0001 C CNN
F 4 "Yageo" H 3900 2200 50  0001 C CNN "Manf"
F 5 "Digikey" H 3900 2200 50  0001 C CNN "Provider"
F 6 "RC0805JR-0710KL" H 5600 3850 50  0001 C CNN "Manf#"
F 7 "" H 5600 3850 50  0001 C CNN "Provider#"
F 8 "RES SMD 10K OHM 5% 1/8W 0805" H 5600 3850 50  0001 C CNN "Desc"
F 9 "C17414" H 5600 3850 50  0001 C CNN "LCSC"
	1    5600 3850
	1    0    0    -1  
$EndComp
$Comp
L SMMR-rescue:GND-power #PWR?
U 1 1 619E330B
P 5600 4100
AR Path="/619E330B" Ref="#PWR?"  Part="1" 
AR Path="/5D042DB3/619E330B" Ref="#PWR0105"  Part="1" 
F 0 "#PWR0105" H 5600 3850 50  0001 C CNN
F 1 "GND" H 5605 3927 50  0000 C CNN
F 2 "" H 5600 4100 50  0001 C CNN
F 3 "" H 5600 4100 50  0001 C CNN
	1    5600 4100
	1    0    0    -1  
$EndComp
Wire Wire Line
	5600 3200 5600 3050
Wire Wire Line
	5600 3050 4300 3050
Wire Wire Line
	5600 3600 5600 3700
Wire Wire Line
	5600 4000 5600 4100
$EndSCHEMATC
