EESchema Schematic File Version 4
EELAYER 30 0
EELAYER END
$Descr A4 11693 8268
encoding utf-8
Sheet 2 5
Title "Sistema de Monitoreo de Material Rodante"
Date "2019-06-13"
Rev "1.3"
Comp "Sebastián Guarino"
Comment1 "Licencia MIT, ver archivo LICENSE"
Comment2 ""
Comment3 ""
Comment4 ""
$EndDescr
$Comp
L SMMR-rescue:AMS1117-3.3-Regulator_Linear U?
U 1 1 5D040F09
P 7000 3550
AR Path="/5D040F09" Ref="U?"  Part="1" 
AR Path="/5D03A6CB/5D040F09" Ref="U201"  Part="1" 
F 0 "U201" H 7000 3792 50  0000 C CNN
F 1 "AMS1117-3.3" H 7000 3701 50  0000 C CNN
F 2 "Package_TO_SOT_SMD:SOT-223-3_TabPin2" H 7000 3750 50  0001 C CNN
F 3 "http://www.advanced-monolithic.com/pdf/ds1117.pdf" H 7100 3300 50  0001 C CNN
F 4 "ON Semiconductor" H 7000 3550 50  0001 C CNN "Manf"
F 5 "NCP1117ST33T3G" H 7000 3550 50  0001 C CNN "Manf#"
F 6 "Low dropout regulator 3.3V 1A SOT223" H 7000 3550 50  0001 C CNN "Desc"
F 7 "Digikey" H 7000 3550 50  0001 C CNN "Provider"
F 8 "NCP1117ST33T3GOSCT-ND" H 7000 3550 50  0001 C CNN "Provider#"
F 9 "C6186" H 7000 3550 50  0001 C CNN "LCSC"
	1    7000 3550
	1    0    0    -1  
$EndComp
$Comp
L SMMR-rescue:C-Device C?
U 1 1 5D040F10
P 7600 3850
AR Path="/5D040F10" Ref="C?"  Part="1" 
AR Path="/5D03A6CB/5D040F10" Ref="C202"  Part="1" 
F 0 "C202" H 7715 3896 50  0000 L CNN
F 1 "22uF" H 7715 3805 50  0000 L CNN
F 2 "Capacitor_SMD:C_Elec_5x5.4" H 7638 3700 50  0001 C CNN
F 3 "" H 7600 3850 50  0001 C CNN
	1    7600 3850
	1    0    0    -1  
$EndComp
$Comp
L SMMR-rescue:C-Device C?
U 1 1 5D040F17
P 6150 3850
AR Path="/5D040F17" Ref="C?"  Part="1" 
AR Path="/5D03A6CB/5D040F17" Ref="C201"  Part="1" 
F 0 "C201" H 6265 3896 50  0000 L CNN
F 1 "22uF" H 6265 3805 50  0000 L CNN
F 2 "Capacitor_SMD:C_Elec_5x5.4" H 6188 3700 50  0001 C CNN
F 3 "" H 6150 3850 50  0001 C CNN
	1    6150 3850
	1    0    0    -1  
$EndComp
$Comp
L SMMR-rescue:R-Device R?
U 1 1 5D040F1E
P 5500 3750
AR Path="/5D040F1E" Ref="R?"  Part="1" 
AR Path="/5D03A6CB/5D040F1E" Ref="R201"  Part="1" 
F 0 "R201" H 5570 3796 50  0000 L CNN
F 1 "2k" H 5570 3705 50  0000 L CNN
F 2 "Resistor_SMD:R_0805_2012Metric_Pad1.20x1.40mm_HandSolder" V 5430 3750 50  0001 C CNN
F 3 "$KIPRJMOD/components/Resistors/PYu-RC_Group_51_RoHS_L_10.pdf" H 5500 3750 50  0001 C CNN
F 4 "Yageo" H 0   0   50  0001 C CNN "Manf"
F 5 "Digikey" H 0   0   50  0001 C CNN "Provider"
F 6 "RES SMD 2K OHM 5% 1/8W 0805" H 5500 3750 50  0001 C CNN "Desc"
F 7 "RC0805JR-072KL" H 5500 3750 50  0001 C CNN "Manf#"
F 8 "311-2.0KARCT-ND" H 5500 3750 50  0001 C CNN "Provider#"
F 9 "C17604" H 5500 3750 50  0001 C CNN "LCSC"
	1    5500 3750
	1    0    0    -1  
$EndComp
$Comp
L SMMR-rescue:GND-power #PWR?
U 1 1 5D040F25
P 7600 4300
AR Path="/5D040F25" Ref="#PWR?"  Part="1" 
AR Path="/5D03A6CB/5D040F25" Ref="#PWR0207"  Part="1" 
F 0 "#PWR0207" H 7600 4050 50  0001 C CNN
F 1 "GND" H 7605 4127 50  0000 C CNN
F 2 "" H 7600 4300 50  0001 C CNN
F 3 "" H 7600 4300 50  0001 C CNN
	1    7600 4300
	1    0    0    -1  
$EndComp
$Comp
L SMMR-rescue:GND-power #PWR?
U 1 1 5D040F2B
P 7000 4300
AR Path="/5D040F2B" Ref="#PWR?"  Part="1" 
AR Path="/5D03A6CB/5D040F2B" Ref="#PWR0205"  Part="1" 
F 0 "#PWR0205" H 7000 4050 50  0001 C CNN
F 1 "GND" H 7005 4127 50  0000 C CNN
F 2 "" H 7000 4300 50  0001 C CNN
F 3 "" H 7000 4300 50  0001 C CNN
	1    7000 4300
	1    0    0    -1  
$EndComp
$Comp
L SMMR-rescue:GND-power #PWR?
U 1 1 5D040F31
P 6150 4300
AR Path="/5D040F31" Ref="#PWR?"  Part="1" 
AR Path="/5D03A6CB/5D040F31" Ref="#PWR0204"  Part="1" 
F 0 "#PWR0204" H 6150 4050 50  0001 C CNN
F 1 "GND" H 6155 4127 50  0000 C CNN
F 2 "" H 6150 4300 50  0001 C CNN
F 3 "" H 6150 4300 50  0001 C CNN
	1    6150 4300
	1    0    0    -1  
$EndComp
$Comp
L SMMR-rescue:GND-power #PWR?
U 1 1 5D040F37
P 5500 4300
AR Path="/5D040F37" Ref="#PWR?"  Part="1" 
AR Path="/5D03A6CB/5D040F37" Ref="#PWR0202"  Part="1" 
F 0 "#PWR0202" H 5500 4050 50  0001 C CNN
F 1 "GND" H 5505 4127 50  0000 C CNN
F 2 "" H 5500 4300 50  0001 C CNN
F 3 "" H 5500 4300 50  0001 C CNN
	1    5500 4300
	1    0    0    -1  
$EndComp
$Comp
L SMMR-rescue:LED-Device D?
U 1 1 5D040F3D
P 5500 4100
AR Path="/5D040F3D" Ref="D?"  Part="1" 
AR Path="/5D03A6CB/5D040F3D" Ref="D201"  Part="1" 
F 0 "D201" V 5538 3983 50  0000 R CNN
F 1 "LED Red" V 5447 3983 50  0000 R CNN
F 2 "LED_SMD:LED_0805_2012Metric_Pad1.15x1.40mm_HandSolder" H 5500 4100 50  0001 C CNN
F 3 "" H 5500 4100 50  0001 C CNN
F 4 "Everlight Electronics Co Ltd" V 5500 4100 50  0001 C CNN "Manf"
F 5 "17-21SURC/S530-A3/TR8" V 5500 4100 50  0001 C CNN "Manf#"
F 6 "Digikey" V 5500 4100 50  0001 C CNN "Provider"
F 7 "17-21SURC/S530-A3/TR8-ND" V 5500 4100 50  0001 C CNN "Provider#"
F 8 "C84256" V 5500 4100 50  0001 C CNN "LCSC"
	1    5500 4100
	0    -1   -1   0   
$EndComp
Wire Wire Line
	5500 3950 5500 3900
Wire Wire Line
	6150 4300 6150 4000
Wire Wire Line
	7000 4300 7000 3850
Wire Wire Line
	5500 3600 5500 3550
Wire Wire Line
	6150 3700 6150 3550
Connection ~ 6150 3550
$Comp
L SMMR-rescue:+3.3V-power #PWR?
U 1 1 5D040F4C
P 7600 3400
AR Path="/5D040F4C" Ref="#PWR?"  Part="1" 
AR Path="/5D03A6CB/5D040F4C" Ref="#PWR0206"  Part="1" 
F 0 "#PWR0206" H 7600 3250 50  0001 C CNN
F 1 "+3.3V" H 7615 3573 50  0000 C CNN
F 2 "" H 7600 3400 50  0001 C CNN
F 3 "" H 7600 3400 50  0001 C CNN
	1    7600 3400
	1    0    0    -1  
$EndComp
$Comp
L SMMR-rescue:+5V-power #PWR?
U 1 1 5D040F54
P 6150 3400
AR Path="/5D040F54" Ref="#PWR?"  Part="1" 
AR Path="/5D03A6CB/5D040F54" Ref="#PWR0203"  Part="1" 
F 0 "#PWR0203" H 6150 3250 50  0001 C CNN
F 1 "+5V" H 6165 3573 50  0000 C CNN
F 2 "" H 6150 3400 50  0001 C CNN
F 3 "" H 6150 3400 50  0001 C CNN
	1    6150 3400
	1    0    0    -1  
$EndComp
Wire Notes Line
	4250 4800 4250 2850
Wire Notes Line
	8000 2850 8000 4800
Text Notes 4800 2950 2    50   ~ 0
Power Supply
Wire Wire Line
	4850 3550 5050 3550
$Comp
L SMMR-rescue:GND-power #PWR?
U 1 1 5D040F68
P 5000 4300
AR Path="/5D040F68" Ref="#PWR?"  Part="1" 
AR Path="/5D03A6CB/5D040F68" Ref="#PWR0201"  Part="1" 
F 0 "#PWR0201" H 5000 4050 50  0001 C CNN
F 1 "GND" H 5005 4127 50  0000 C CNN
F 2 "" H 5000 4300 50  0001 C CNN
F 3 "" H 5000 4300 50  0001 C CNN
	1    5000 4300
	1    0    0    -1  
$EndComp
Wire Wire Line
	5000 4300 5000 4200
Wire Wire Line
	5000 3650 4850 3650
Wire Wire Line
	7600 4000 7600 4300
Wire Wire Line
	5500 4250 5500 4300
Wire Wire Line
	6150 3400 6150 3550
$Comp
L SMMR-rescue:PWR_FLAG-power #FLG?
U 1 1 5D040F74
P 5050 3450
AR Path="/5D040F74" Ref="#FLG?"  Part="1" 
AR Path="/5D03A6CB/5D040F74" Ref="#FLG0202"  Part="1" 
F 0 "#FLG0202" H 5050 3525 50  0001 C CNN
F 1 "PWR_FLAG" H 5050 3624 50  0001 C CNN
F 2 "" H 5050 3450 50  0001 C CNN
F 3 "~" H 5050 3450 50  0001 C CNN
	1    5050 3450
	1    0    0    -1  
$EndComp
$Comp
L SMMR-rescue:PWR_FLAG-power #FLG?
U 1 1 5D040F7A
P 4750 4150
AR Path="/5D040F7A" Ref="#FLG?"  Part="1" 
AR Path="/5D03A6CB/5D040F7A" Ref="#FLG0201"  Part="1" 
F 0 "#FLG0201" H 4750 4225 50  0001 C CNN
F 1 "PWR_FLAG" H 4750 4324 50  0001 C CNN
F 2 "" H 4750 4150 50  0001 C CNN
F 3 "~" H 4750 4150 50  0001 C CNN
	1    4750 4150
	1    0    0    -1  
$EndComp
Wire Wire Line
	5050 3450 5050 3550
Wire Wire Line
	4750 4150 4750 4200
Wire Wire Line
	4750 4200 5000 4200
Connection ~ 5000 4200
Wire Wire Line
	5000 4200 5000 3650
Wire Wire Line
	5050 3550 5500 3550
Connection ~ 5050 3550
Wire Wire Line
	5500 3550 6150 3550
Connection ~ 5500 3550
Wire Wire Line
	7600 3400 7600 3550
Wire Wire Line
	6150 3550 6700 3550
Wire Wire Line
	7300 3550 7600 3550
Connection ~ 7600 3550
Wire Wire Line
	7600 3550 7600 3700
Wire Notes Line
	4250 4800 8000 4800
Wire Notes Line
	4250 2850 8000 2850
$Comp
L SMMR-rescue:Conn_01x02-Connector_Generic J201
U 1 1 5D0CFEAE
P 4650 3650
F 0 "J201" H 4800 3600 50  0000 C CNN
F 1 "Conn_01x02" H 4570 3416 50  0001 C CNN
F 2 "Connector_JST:JST_XH_S2B-XH-A_1x02_P2.50mm_Horizontal" H 4650 3650 50  0001 C CNN
F 3 "$KIPRJMOD/components/Connector_JST/eXH.pdf" H 4650 3650 50  0001 C CNN
F 4 "JST Sales America Inc." H 4650 3650 50  0001 C CNN "Manf"
F 5 "S2B-XH-A(LF)(SN)" H 4650 3650 50  0001 C CNN "Manf#"
F 6 "Digikey" H 4650 3650 50  0001 C CNN "Provider"
F 7 "455-2257-ND" H 4650 3650 50  0001 C CNN "Provider#"
	1    4650 3650
	-1   0    0    1   
$EndComp
$EndSCHEMATC
