EESchema Schematic File Version 4
LIBS:SMMR-cache
EELAYER 26 0
EELAYER END
$Descr A4 11693 8268
encoding utf-8
Sheet 2 6
Title "Sistema de Monitoreo de Material Rodante"
Date "2019-06-13"
Rev "1.2"
Comp "Sebastián Guarino"
Comment1 ""
Comment2 ""
Comment3 ""
Comment4 ""
$EndDescr
$EndSCHEMATC
