%!PS-Adobe-3.0
%%Creator: PCBNEW
%%CreationDate: Thu Sep  9 23:34:04 2021
%%Title: /home/sguarino/Gdrive/CESE/TP/SMMR-hardware/SMMR-NPTH-drl_map.ps
%%Pages: 1
%%PageOrder: Ascend
%%BoundingBox: 0 0 596 842
%%DocumentMedia: A4 595 842 0 () ()
%%Orientation: Landscape
%%EndComments
%%BeginProlog
/line { newpath moveto lineto stroke } bind def
/cir0 { newpath 0 360 arc stroke } bind def
/cir1 { newpath 0 360 arc gsave fill grestore stroke } bind def
/cir2 { newpath 0 360 arc gsave fill grestore stroke } bind def
/arc0 { newpath arc stroke } bind def
/arc1 { newpath 4 index 4 index moveto arc closepath gsave fill
    grestore stroke } bind def
/arc2 { newpath 4 index 4 index moveto arc closepath gsave fill
    grestore stroke } bind def
/poly0 { stroke } bind def
/poly1 { closepath gsave fill grestore stroke } bind def
/poly2 { closepath gsave fill grestore stroke } bind def
/rect0 { rectstroke } bind def
/rect1 { rectfill } bind def
/rect2 { rectfill } bind def
/linemode0 { 0 setlinecap 0 setlinejoin 0 setlinewidth } bind def
/linemode1 { 1 setlinecap 1 setlinejoin } bind def
/dashedline { [200] 100 setdash } bind def
/solidline { [] 0 setdash } bind def
/phantomshow { moveto
    /KicadFont findfont 0.000001 scalefont setfont
    show } bind def
/textshow { gsave
    findfont exch scalefont setfont concat 1 scale 0 0 moveto show
    } bind def
/reencodefont {
  findfont dup length dict begin
  { 1 index /FID ne
    { def }
    { pop pop } ifelse
  } forall
  /Encoding ISOLatin1Encoding def
  currentdict
  end } bind def
/KicadFont /Helvetica reencodefont definefont pop
/KicadFont-Bold /Helvetica-Bold reencodefont definefont pop
/KicadFont-Oblique /Helvetica-Oblique reencodefont definefont pop
/KicadFont-BoldOblique /Helvetica-BoldOblique reencodefont definefont pop
%%EndProlog
%%Page: 1 1
%%BeginPageSetup
gsave
0.0072 0.0072 scale
linemode1
82680 0 translate 90 rotate
88.1166 setlinewidth
%%EndPageSetup
0 0 0 setrgbcolor
104.075 setlinewidth
newpath
37650 37061 moveto
79280 37061 lineto
stroke
0 0 0 setrgbcolor
newpath
79280 78691 moveto
79280 37061 lineto
stroke
0 0 0 setrgbcolor
newpath
37650 78691 moveto
79280 78691 lineto
stroke
0 0 0 setrgbcolor
newpath
37650 78691 moveto
37650 37061 lineto
stroke
78.7395 setlinewidth
newpath
38621.4 77719.6 moveto
40147.8 76193.2 lineto
stroke
newpath
40147.8 77719.6 moveto
38621.4 76193.2 lineto
stroke
newpath
38621.4 39558.8 moveto
40147.8 38032.4 lineto
stroke
newpath
40147.8 39558.8 moveto
38621.4 38032.4 lineto
stroke
newpath
76782.2 77719.6 moveto
78308.6 76193.2 lineto
stroke
newpath
78308.6 77719.6 moveto
76782.2 76193.2 lineto
stroke
newpath
76782.2 39558.8 moveto
78308.6 38032.4 lineto
stroke
newpath
78308.6 39558.8 moveto
76782.2 38032.4 lineto
stroke
118.11 setlinewidth
0 0 0 setrgbcolor
0 0 0 setrgbcolor
newpath
38725.7 35175.5 moveto
38725.7 36356.6 lineto
39006.9 36356.6 lineto
39175.6 36300.3 lineto
39288.1 36187.9 lineto
39344.4 36075.4 lineto
39400.6 35850.4 lineto
39400.6 35681.7 lineto
39344.4 35456.7 lineto
39288.1 35344.2 lineto
39175.6 35231.7 lineto
39006.9 35175.5 lineto
38725.7 35175.5 lineto
stroke
newpath
39906.8 35175.5 moveto
39906.8 35962.9 lineto
stroke
newpath
39906.8 35737.9 moveto
39963 35850.4 lineto
40019.3 35906.6 lineto
40131.8 35962.9 lineto
40244.2 35962.9 lineto
stroke
newpath
40637.9 35175.5 moveto
40637.9 35962.9 lineto
stroke
newpath
40637.9 36356.6 moveto
40581.7 36300.3 lineto
40637.9 36244.1 lineto
40694.2 36300.3 lineto
40637.9 36356.6 lineto
40637.9 36244.1 lineto
stroke
newpath
41369.1 35175.5 moveto
41256.6 35231.7 lineto
41200.4 35344.2 lineto
41200.4 36356.6 lineto
stroke
newpath
41987.8 35175.5 moveto
41875.3 35231.7 lineto
41819 35344.2 lineto
41819 36356.6 lineto
stroke
newpath
43337.6 35175.5 moveto
43337.6 36356.6 lineto
43731.3 35512.9 lineto
44125 36356.6 lineto
44125 35175.5 lineto
stroke
newpath
45193.6 35175.5 moveto
45193.6 35794.2 lineto
45137.4 35906.6 lineto
45024.9 35962.9 lineto
44799.9 35962.9 lineto
44687.4 35906.6 lineto
stroke
newpath
45193.6 35231.7 moveto
45081.1 35175.5 lineto
44799.9 35175.5 lineto
44687.4 35231.7 lineto
44631.2 35344.2 lineto
44631.2 35456.7 lineto
44687.4 35569.2 lineto
44799.9 35625.4 lineto
45081.1 35625.4 lineto
45193.6 35681.7 lineto
stroke
newpath
45756 35962.9 moveto
45756 34781.8 lineto
stroke
newpath
45756 35906.6 moveto
45868.5 35962.9 lineto
46093.5 35962.9 lineto
46206 35906.6 lineto
46262.2 35850.4 lineto
46318.5 35737.9 lineto
46318.5 35400.5 lineto
46262.2 35288 lineto
46206 35231.7 lineto
46093.5 35175.5 lineto
45868.5 35175.5 lineto
45756 35231.7 lineto
stroke
newpath
46824.7 35288 moveto
46880.9 35231.7 lineto
46824.7 35175.5 lineto
46768.4 35231.7 lineto
46824.7 35288 lineto
46824.7 35175.5 lineto
stroke
newpath
46824.7 35906.6 moveto
46880.9 35850.4 lineto
46824.7 35794.2 lineto
46768.4 35850.4 lineto
46824.7 35906.6 lineto
46824.7 35794.2 lineto
stroke
newpath
36071.6 33992.7 moveto
37598 32466.3 lineto
stroke
newpath
37598 33992.7 moveto
36071.6 32466.3 lineto
stroke
0 0 0 setrgbcolor
0 0 0 setrgbcolor
newpath
38669.4 33763.8 moveto
38725.7 33820 lineto
38838.2 33876.3 lineto
39119.4 33876.3 lineto
39231.9 33820 lineto
39288.1 33763.8 lineto
39344.4 33651.3 lineto
39344.4 33538.8 lineto
39288.1 33370.1 lineto
38613.2 32695.2 lineto
39344.4 32695.2 lineto
stroke
newpath
39850.5 32807.7 moveto
39906.8 32751.4 lineto
39850.5 32695.2 lineto
39794.3 32751.4 lineto
39850.5 32807.7 lineto
39850.5 32695.2 lineto
stroke
newpath
40356.7 33763.8 moveto
40413 33820 lineto
40525.5 33876.3 lineto
40806.7 33876.3 lineto
40919.2 33820 lineto
40975.4 33763.8 lineto
41031.6 33651.3 lineto
41031.6 33538.8 lineto
40975.4 33370.1 lineto
40300.5 32695.2 lineto
41031.6 32695.2 lineto
stroke
newpath
41762.8 33876.3 moveto
41875.3 33876.3 lineto
41987.8 33820 lineto
42044 33763.8 lineto
42100.3 33651.3 lineto
42156.5 33426.3 lineto
42156.5 33145.1 lineto
42100.3 32920.1 lineto
42044 32807.7 lineto
41987.8 32751.4 lineto
41875.3 32695.2 lineto
41762.8 32695.2 lineto
41650.3 32751.4 lineto
41594.1 32807.7 lineto
41537.8 32920.1 lineto
41481.6 33145.1 lineto
41481.6 33426.3 lineto
41537.8 33651.3 lineto
41594.1 33763.8 lineto
41650.3 33820 lineto
41762.8 33876.3 lineto
stroke
newpath
42887.7 33876.3 moveto
43000.1 33876.3 lineto
43112.6 33820 lineto
43168.9 33763.8 lineto
43225.1 33651.3 lineto
43281.4 33426.3 lineto
43281.4 33145.1 lineto
43225.1 32920.1 lineto
43168.9 32807.7 lineto
43112.6 32751.4 lineto
43000.1 32695.2 lineto
42887.7 32695.2 lineto
42775.2 32751.4 lineto
42718.9 32807.7 lineto
42662.7 32920.1 lineto
42606.4 33145.1 lineto
42606.4 33426.3 lineto
42662.7 33651.3 lineto
42718.9 33763.8 lineto
42775.2 33820 lineto
42887.7 33876.3 lineto
stroke
newpath
43787.5 32695.2 moveto
43787.5 33482.6 lineto
stroke
newpath
43787.5 33370.1 moveto
43843.8 33426.3 lineto
43956.3 33482.6 lineto
44125 33482.6 lineto
44237.5 33426.3 lineto
44293.7 33313.8 lineto
44293.7 32695.2 lineto
stroke
newpath
44293.7 33313.8 moveto
44350 33426.3 lineto
44462.5 33482.6 lineto
44631.2 33482.6 lineto
44743.7 33426.3 lineto
44799.9 33313.8 lineto
44799.9 32695.2 lineto
stroke
newpath
45362.3 32695.2 moveto
45362.3 33482.6 lineto
stroke
newpath
45362.3 33370.1 moveto
45418.6 33426.3 lineto
45531.1 33482.6 lineto
45699.8 33482.6 lineto
45812.3 33426.3 lineto
45868.5 33313.8 lineto
45868.5 32695.2 lineto
stroke
newpath
45868.5 33313.8 moveto
45924.8 33426.3 lineto
46037.3 33482.6 lineto
46206 33482.6 lineto
46318.5 33426.3 lineto
46374.7 33313.8 lineto
46374.7 32695.2 lineto
stroke
newpath
48680.7 33932.5 moveto
47668.3 32414 lineto
stroke
newpath
50199.2 33876.3 moveto
50311.7 33876.3 lineto
50424.2 33820 lineto
50480.5 33763.8 lineto
50536.7 33651.3 lineto
50592.9 33426.3 lineto
50592.9 33145.1 lineto
50536.7 32920.1 lineto
50480.5 32807.7 lineto
50424.2 32751.4 lineto
50311.7 32695.2 lineto
50199.2 32695.2 lineto
50086.8 32751.4 lineto
50030.5 32807.7 lineto
49974.3 32920.1 lineto
49918 33145.1 lineto
49918 33426.3 lineto
49974.3 33651.3 lineto
50030.5 33763.8 lineto
50086.8 33820 lineto
50199.2 33876.3 lineto
stroke
newpath
51099.1 32807.7 moveto
51155.4 32751.4 lineto
51099.1 32695.2 lineto
51042.9 32751.4 lineto
51099.1 32807.7 lineto
51099.1 32695.2 lineto
stroke
newpath
51886.5 33876.3 moveto
51999 33876.3 lineto
52111.5 33820 lineto
52167.7 33763.8 lineto
52224 33651.3 lineto
52280.2 33426.3 lineto
52280.2 33145.1 lineto
52224 32920.1 lineto
52167.7 32807.7 lineto
52111.5 32751.4 lineto
51999 32695.2 lineto
51886.5 32695.2 lineto
51774 32751.4 lineto
51717.8 32807.7 lineto
51661.6 32920.1 lineto
51605.3 33145.1 lineto
51605.3 33426.3 lineto
51661.6 33651.3 lineto
51717.8 33763.8 lineto
51774 33820 lineto
51886.5 33876.3 lineto
stroke
newpath
52955.1 33370.1 moveto
52842.7 33426.3 lineto
52786.4 33482.6 lineto
52730.2 33595.1 lineto
52730.2 33651.3 lineto
52786.4 33763.8 lineto
52842.7 33820 lineto
52955.1 33876.3 lineto
53180.1 33876.3 lineto
53292.6 33820 lineto
53348.8 33763.8 lineto
53405.1 33651.3 lineto
53405.1 33595.1 lineto
53348.8 33482.6 lineto
53292.6 33426.3 lineto
53180.1 33370.1 lineto
52955.1 33370.1 lineto
52842.7 33313.8 lineto
52786.4 33257.6 lineto
52730.2 33145.1 lineto
52730.2 32920.1 lineto
52786.4 32807.7 lineto
52842.7 32751.4 lineto
52955.1 32695.2 lineto
53180.1 32695.2 lineto
53292.6 32751.4 lineto
53348.8 32807.7 lineto
53405.1 32920.1 lineto
53405.1 33145.1 lineto
53348.8 33257.6 lineto
53292.6 33313.8 lineto
53180.1 33370.1 lineto
stroke
newpath
54417.5 33876.3 moveto
54192.5 33876.3 lineto
54080 33820 lineto
54023.8 33763.8 lineto
53911.3 33595.1 lineto
53855 33370.1 lineto
53855 32920.1 lineto
53911.3 32807.7 lineto
53967.5 32751.4 lineto
54080 32695.2 lineto
54305 32695.2 lineto
54417.5 32751.4 lineto
54473.7 32807.7 lineto
54530 32920.1 lineto
54530 33201.4 lineto
54473.7 33313.8 lineto
54417.5 33370.1 lineto
54305 33426.3 lineto
54080 33426.3 lineto
53967.5 33370.1 lineto
53911.3 33313.8 lineto
53855 33201.4 lineto
stroke
newpath
55542.3 33876.3 moveto
55317.4 33876.3 lineto
55204.9 33820 lineto
55148.6 33763.8 lineto
55036.1 33595.1 lineto
54979.9 33370.1 lineto
54979.9 32920.1 lineto
55036.1 32807.7 lineto
55092.4 32751.4 lineto
55204.9 32695.2 lineto
55429.8 32695.2 lineto
55542.3 32751.4 lineto
55598.6 32807.7 lineto
55654.8 32920.1 lineto
55654.8 33201.4 lineto
55598.6 33313.8 lineto
55542.3 33370.1 lineto
55429.8 33426.3 lineto
55204.9 33426.3 lineto
55092.4 33370.1 lineto
55036.1 33313.8 lineto
54979.9 33201.4 lineto
stroke
newpath
56104.8 33876.3 moveto
56104.8 33651.3 lineto
stroke
newpath
56554.7 33876.3 moveto
56554.7 33651.3 lineto
stroke
newpath
58298.2 32245.2 moveto
58242 32301.5 lineto
58129.5 32470.2 lineto
58073.3 32582.7 lineto
58017 32751.4 lineto
57960.8 33032.6 lineto
57960.8 33257.6 lineto
58017 33538.8 lineto
58073.3 33707.5 lineto
58129.5 33820 lineto
58242 33988.8 lineto
58298.2 34045 lineto
stroke
newpath
59254.4 33482.6 moveto
59254.4 32695.2 lineto
stroke
newpath
58973.1 33932.5 moveto
58691.9 33088.9 lineto
59423.1 33088.9 lineto
stroke
newpath
60772.9 32695.2 moveto
60772.9 33876.3 lineto
stroke
newpath
61279.1 32695.2 moveto
61279.1 33313.8 lineto
61222.9 33426.3 lineto
61110.4 33482.6 lineto
60941.6 33482.6 lineto
60829.2 33426.3 lineto
60772.9 33370.1 lineto
stroke
newpath
62010.3 32695.2 moveto
61897.8 32751.4 lineto
61841.5 32807.7 lineto
61785.3 32920.1 lineto
61785.3 33257.6 lineto
61841.5 33370.1 lineto
61897.8 33426.3 lineto
62010.3 33482.6 lineto
62179 33482.6 lineto
62291.5 33426.3 lineto
62347.7 33370.1 lineto
62404 33257.6 lineto
62404 32920.1 lineto
62347.7 32807.7 lineto
62291.5 32751.4 lineto
62179 32695.2 lineto
62010.3 32695.2 lineto
stroke
newpath
63078.9 32695.2 moveto
62966.4 32751.4 lineto
62910.2 32863.9 lineto
62910.2 33876.3 lineto
stroke
newpath
63978.8 32751.4 moveto
63866.3 32695.2 lineto
63641.3 32695.2 lineto
63528.8 32751.4 lineto
63472.6 32863.9 lineto
63472.6 33313.8 lineto
63528.8 33426.3 lineto
63641.3 33482.6 lineto
63866.3 33482.6 lineto
63978.8 33426.3 lineto
64035 33313.8 lineto
64035 33201.4 lineto
63472.6 33088.9 lineto
stroke
newpath
64485 32751.4 moveto
64597.4 32695.2 lineto
64822.4 32695.2 lineto
64934.9 32751.4 lineto
64991.1 32863.9 lineto
64991.1 32920.1 lineto
64934.9 33032.6 lineto
64822.4 33088.9 lineto
64653.7 33088.9 lineto
64541.2 33145.1 lineto
64485 33257.6 lineto
64485 33313.8 lineto
64541.2 33426.3 lineto
64653.7 33482.6 lineto
64822.4 33482.6 lineto
64934.9 33426.3 lineto
stroke
newpath
65384.8 32245.2 moveto
65441.1 32301.5 lineto
65553.6 32470.2 lineto
65609.8 32582.7 lineto
65666.1 32751.4 lineto
65722.3 33032.6 lineto
65722.3 33257.6 lineto
65666.1 33538.8 lineto
65609.8 33707.5 lineto
65553.6 33820 lineto
65441.1 33988.8 lineto
65384.8 34045 lineto
stroke
newpath
67522.1 32245.2 moveto
67465.8 32301.5 lineto
67353.3 32470.2 lineto
67297.1 32582.7 lineto
67240.9 32751.4 lineto
67184.6 33032.6 lineto
67184.6 33257.6 lineto
67240.9 33538.8 lineto
67297.1 33707.5 lineto
67353.3 33820 lineto
67465.8 33988.8 lineto
67522.1 34045 lineto
stroke
newpath
67972 33482.6 moveto
67972 32695.2 lineto
stroke
newpath
67972 33370.1 moveto
68028.3 33426.3 lineto
68140.7 33482.6 lineto
68309.5 33482.6 lineto
68422 33426.3 lineto
68478.2 33313.8 lineto
68478.2 32695.2 lineto
stroke
newpath
69209.4 32695.2 moveto
69096.9 32751.4 lineto
69040.6 32807.7 lineto
68984.4 32920.1 lineto
68984.4 33257.6 lineto
69040.6 33370.1 lineto
69096.9 33426.3 lineto
69209.4 33482.6 lineto
69378.1 33482.6 lineto
69490.6 33426.3 lineto
69546.8 33370.1 lineto
69603.1 33257.6 lineto
69603.1 32920.1 lineto
69546.8 32807.7 lineto
69490.6 32751.4 lineto
69378.1 32695.2 lineto
69209.4 32695.2 lineto
stroke
newpath
69940.5 33482.6 moveto
70390.5 33482.6 lineto
stroke
newpath
70109.3 33876.3 moveto
70109.3 32863.9 lineto
70165.5 32751.4 lineto
70278 32695.2 lineto
70390.5 32695.2 lineto
stroke
newpath
71684.1 33482.6 moveto
71684.1 32301.5 lineto
stroke
newpath
71684.1 33426.3 moveto
71796.5 33482.6 lineto
72021.5 33482.6 lineto
72134 33426.3 lineto
72190.2 33370.1 lineto
72246.5 33257.6 lineto
72246.5 32920.1 lineto
72190.2 32807.7 lineto
72134 32751.4 lineto
72021.5 32695.2 lineto
71796.5 32695.2 lineto
71684.1 32751.4 lineto
stroke
newpath
72921.4 32695.2 moveto
72808.9 32751.4 lineto
72752.7 32863.9 lineto
72752.7 33876.3 lineto
stroke
newpath
73877.5 32695.2 moveto
73877.5 33313.8 lineto
73821.3 33426.3 lineto
73708.8 33482.6 lineto
73483.8 33482.6 lineto
73371.3 33426.3 lineto
stroke
newpath
73877.5 32751.4 moveto
73765 32695.2 lineto
73483.8 32695.2 lineto
73371.3 32751.4 lineto
73315.1 32863.9 lineto
73315.1 32976.4 lineto
73371.3 33088.9 lineto
73483.8 33145.1 lineto
73765 33145.1 lineto
73877.5 33201.4 lineto
stroke
newpath
74271.2 33482.6 moveto
74721.2 33482.6 lineto
stroke
newpath
74440 33876.3 moveto
74440 32863.9 lineto
74496.2 32751.4 lineto
74608.7 32695.2 lineto
74721.2 32695.2 lineto
stroke
newpath
75564.8 32751.4 moveto
75452.3 32695.2 lineto
75227.4 32695.2 lineto
75114.9 32751.4 lineto
75058.6 32863.9 lineto
75058.6 33313.8 lineto
75114.9 33426.3 lineto
75227.4 33482.6 lineto
75452.3 33482.6 lineto
75564.8 33426.3 lineto
75621.1 33313.8 lineto
75621.1 33201.4 lineto
75058.6 33088.9 lineto
stroke
newpath
76633.4 32695.2 moveto
76633.4 33876.3 lineto
stroke
newpath
76633.4 32751.4 moveto
76521 32695.2 lineto
76296 32695.2 lineto
76183.5 32751.4 lineto
76127.2 32807.7 lineto
76071 32920.1 lineto
76071 33257.6 lineto
76127.2 33370.1 lineto
76183.5 33426.3 lineto
76296 33482.6 lineto
76521 33482.6 lineto
76633.4 33426.3 lineto
stroke
newpath
77083.4 32245.2 moveto
77139.6 32301.5 lineto
77252.1 32470.2 lineto
77308.4 32582.7 lineto
77364.6 32751.4 lineto
77420.8 33032.6 lineto
77420.8 33257.6 lineto
77364.6 33538.8 lineto
77308.4 33707.5 lineto
77252.1 33820 lineto
77139.6 33988.8 lineto
77083.4 34045 lineto
stroke
showpage
grestore
%%EOF
