%!PS-Adobe-3.0
%%Creator: PCBNEW
%%CreationDate: Thu Sep  9 23:34:04 2021
%%Title: /home/sguarino/Gdrive/CESE/TP/SMMR-hardware/SMMR-PTH-drl_map.ps
%%Pages: 1
%%PageOrder: Ascend
%%BoundingBox: 0 0 596 842
%%DocumentMedia: A4 595 842 0 () ()
%%Orientation: Landscape
%%EndComments
%%BeginProlog
/line { newpath moveto lineto stroke } bind def
/cir0 { newpath 0 360 arc stroke } bind def
/cir1 { newpath 0 360 arc gsave fill grestore stroke } bind def
/cir2 { newpath 0 360 arc gsave fill grestore stroke } bind def
/arc0 { newpath arc stroke } bind def
/arc1 { newpath 4 index 4 index moveto arc closepath gsave fill
    grestore stroke } bind def
/arc2 { newpath 4 index 4 index moveto arc closepath gsave fill
    grestore stroke } bind def
/poly0 { stroke } bind def
/poly1 { closepath gsave fill grestore stroke } bind def
/poly2 { closepath gsave fill grestore stroke } bind def
/rect0 { rectstroke } bind def
/rect1 { rectfill } bind def
/rect2 { rectfill } bind def
/linemode0 { 0 setlinecap 0 setlinejoin 0 setlinewidth } bind def
/linemode1 { 1 setlinecap 1 setlinejoin } bind def
/dashedline { [200] 100 setdash } bind def
/solidline { [] 0 setdash } bind def
/phantomshow { moveto
    /KicadFont findfont 0.000001 scalefont setfont
    show } bind def
/textshow { gsave
    findfont exch scalefont setfont concat 1 scale 0 0 moveto show
    } bind def
/reencodefont {
  findfont dup length dict begin
  { 1 index /FID ne
    { def }
    { pop pop } ifelse
  } forall
  /Encoding ISOLatin1Encoding def
  currentdict
  end } bind def
/KicadFont /Helvetica reencodefont definefont pop
/KicadFont-Bold /Helvetica-Bold reencodefont definefont pop
/KicadFont-Oblique /Helvetica-Oblique reencodefont definefont pop
/KicadFont-BoldOblique /Helvetica-BoldOblique reencodefont definefont pop
%%EndProlog
%%Page: 1 1
%%BeginPageSetup
gsave
0.0072 0.0072 scale
linemode1
82680 0 translate 90 rotate
88.1166 setlinewidth
%%EndPageSetup
0 0 0 setrgbcolor
104.075 setlinewidth
newpath
37650 37061 moveto
79280 37061 lineto
stroke
0 0 0 setrgbcolor
newpath
79280 78691 moveto
79280 37061 lineto
stroke
0 0 0 setrgbcolor
newpath
37650 78691 moveto
79280 78691 lineto
stroke
0 0 0 setrgbcolor
newpath
37650 78691 moveto
37650 37061 lineto
stroke
78.7395 setlinewidth
newpath
43304.8 54129.3 moveto
43790.5 53643.6 lineto
stroke
newpath
43790.5 54129.3 moveto
43304.8 53643.6 lineto
stroke
newpath
44345.5 58465.8 moveto
44831.2 57980.1 lineto
stroke
newpath
44831.2 58465.8 moveto
44345.5 57980.1 lineto
stroke
newpath
44501.6 54146.7 moveto
44987.3 53661 lineto
stroke
newpath
44987.3 54146.7 moveto
44501.6 53661 lineto
stroke
newpath
49636 58899.4 moveto
50121.7 58413.7 lineto
stroke
newpath
50121.7 58899.4 moveto
49636 58413.7 lineto
stroke
newpath
50069.6 55343.5 moveto
50555.3 54857.8 lineto
stroke
newpath
50555.3 55343.5 moveto
50069.6 54857.8 lineto
stroke
newpath
53365.3 47017.5 moveto
53851 46531.9 lineto
stroke
newpath
53851 47017.5 moveto
53365.3 46531.9 lineto
stroke
newpath
54753 47017.5 moveto
55238.7 46531.9 lineto
stroke
newpath
55238.7 47017.5 moveto
54753 46531.9 lineto
stroke
newpath
55967.2 63322.6 moveto
56452.9 62836.9 lineto
stroke
newpath
56452.9 63322.6 moveto
55967.2 62836.9 lineto
stroke
newpath
56140.7 47017.5 moveto
56626.3 46531.9 lineto
stroke
newpath
56626.3 47017.5 moveto
56140.7 46531.9 lineto
stroke
newpath
57528.3 47017.5 moveto
58014 46531.9 lineto
stroke
newpath
58014 47017.5 moveto
57528.3 46531.9 lineto
stroke
newpath
58759.9 59836.1 moveto
59245.6 59350.4 lineto
stroke
newpath
59245.6 59836.1 moveto
58759.9 59350.4 lineto
stroke
newpath
59609.8 47017.5 moveto
60095.5 46531.8 lineto
stroke
newpath
60095.5 47017.5 moveto
59609.8 46531.8 lineto
stroke
newpath
60650.6 62628.7 moveto
61136.3 62143.1 lineto
stroke
newpath
61136.3 62628.7 moveto
60650.6 62143.1 lineto
stroke
newpath
61864.8 39038.5 moveto
62350.5 38552.8 lineto
stroke
newpath
62350.5 39038.5 moveto
61864.8 38552.8 lineto
stroke
newpath
61864.8 37970 moveto
62350.5 37484.3 lineto
stroke
newpath
62350.5 37970 moveto
61864.8 37484.3 lineto
stroke
newpath
64466.6 50833.6 moveto
64952.3 50347.9 lineto
stroke
newpath
64952.3 50833.6 moveto
64466.6 50347.9 lineto
stroke
newpath
64466.6 44589.1 moveto
64952.3 44103.4 lineto
stroke
newpath
64952.3 44589.1 moveto
64466.6 44103.4 lineto
stroke
newpath
65680.9 54996.6 moveto
66166.5 54510.9 lineto
stroke
newpath
66166.5 54996.6 moveto
65680.9 54510.9 lineto
stroke
newpath
67047.6 56059 moveto
67533.2 55573.3 lineto
stroke
newpath
67533.2 56059 moveto
67047.6 55573.3 lineto
stroke
newpath
67068.5 54996.6 moveto
67554.2 54510.9 lineto
stroke
newpath
67554.2 54996.6 moveto
67068.5 54510.9 lineto
stroke
newpath
67415.4 40426.1 moveto
67901.1 39940.4 lineto
stroke
newpath
67901.1 40426.1 moveto
67415.4 39940.4 lineto
stroke
newpath
68216.8 60373.8 moveto
68702.5 59888.1 lineto
stroke
newpath
68702.5 60373.8 moveto
68216.8 59888.1 lineto
stroke
newpath
68282.7 67312.1 moveto
68768.4 66826.4 lineto
stroke
newpath
68768.4 67312.1 moveto
68282.7 66826.4 lineto
stroke
newpath
68952.3 63149.1 moveto
69437.9 62663.4 lineto
stroke
newpath
69437.9 63149.1 moveto
68952.3 62663.4 lineto
stroke
newpath
69150 54996.6 moveto
69635.7 54510.9 lineto
stroke
newpath
69635.7 54996.6 moveto
69150 54510.9 lineto
stroke
newpath
70884.6 63669.5 moveto
71370.3 63183.8 lineto
stroke
newpath
71370.3 63669.5 moveto
70884.6 63183.8 lineto
stroke
newpath
71058 69782.2 moveto
71543.7 69296.5 lineto
stroke
newpath
71543.7 69782.2 moveto
71058 69296.5 lineto
stroke
newpath
71925.3 58118.8 moveto
72411 57633.2 lineto
stroke
newpath
72411 58118.8 moveto
71925.3 57633.2 lineto
stroke
newpath
72098.8 39385.4 moveto
72584.5 38899.7 lineto
stroke
newpath
72584.5 39385.4 moveto
72098.8 38899.7 lineto
stroke
newpath
72445.7 56210.8 moveto
72931.4 55725.1 lineto
stroke
newpath
72931.4 56210.8 moveto
72445.7 55725.1 lineto
stroke
newpath
73139.5 38344.6 moveto
73625.2 37859 lineto
stroke
newpath
73625.2 38344.6 moveto
73139.5 37859 lineto
stroke
newpath
73486.5 55170.1 moveto
73972.1 54684.4 lineto
stroke
newpath
73972.1 55170.1 moveto
73486.5 54684.4 lineto
stroke
newpath
74527.2 59333 moveto
75012.9 58847.4 lineto
stroke
newpath
75012.9 59333 moveto
74527.2 58847.4 lineto
stroke
newpath
74527.2 54996.6 moveto
75012.9 54510.9 lineto
stroke
newpath
75012.9 54996.6 moveto
74527.2 54510.9 lineto
stroke
newpath
74794.3 62715.5 moveto
75280 62229.8 lineto
stroke
newpath
75280 62715.5 moveto
74794.3 62229.8 lineto
stroke
newpath
75568 64363.3 moveto
76053.6 63877.6 lineto
stroke
newpath
76053.6 64363.3 moveto
75568 63877.6 lineto
stroke
newpath
76261.8 43548.4 moveto
76747.5 43062.7 lineto
stroke
newpath
76747.5 43548.4 moveto
76261.8 43062.7 lineto
stroke
newpath
76955.6 64363.3 moveto
77441.3 63877.6 lineto
stroke
newpath
77441.3 64363.3 moveto
76955.6 63877.6 lineto
stroke
43200.7 43825.9 329.57 cir0
44935.3 43825.9 329.57 cir0
46669.9 43825.9 329.57 cir0
48404.4 43825.9 329.57 cir0
72515.1 67763.1 329.57 cir0
72515.1 66028.5 329.57 cir0
72515.1 64293.9 329.57 cir0
72515.1 62559.4 329.57 cir0
72515.1 60824.8 329.57 cir0
newpath
38982.2 61345.2 moveto
38982.2 60651.3 lineto
stroke
newpath
38635.3 60998.2 moveto
39329.1 60998.2 lineto
stroke
newpath
40571.1 65161.2 moveto
40571.1 64467.4 lineto
stroke
newpath
40224.2 64814.3 moveto
40918 64814.3 lineto
stroke
newpath
40744.5 61345.2 moveto
40744.5 60651.3 lineto
stroke
newpath
40397.6 60998.2 moveto
41091.5 60998.2 lineto
stroke
newpath
42333.4 65161.2 moveto
42333.4 64467.4 lineto
stroke
newpath
41986.5 64814.3 moveto
42680.3 64814.3 lineto
stroke
newpath
42506.9 61345.2 moveto
42506.9 60651.3 lineto
stroke
newpath
42160 60998.2 moveto
42853.8 60998.2 lineto
stroke
newpath
44414.9 51805 moveto
44414.9 51111.1 lineto
stroke
newpath
44068 51458.1 moveto
44761.8 51458.1 lineto
stroke
newpath
44414.9 50070.4 moveto
44414.9 49376.6 lineto
stroke
newpath
44068 49723.5 moveto
44761.8 49723.5 lineto
stroke
newpath
45573.6 61345.2 moveto
45573.6 60651.3 lineto
stroke
newpath
45226.7 60998.2 moveto
45920.5 60998.2 lineto
stroke
newpath
47162.5 65161.2 moveto
47162.5 64467.4 lineto
stroke
newpath
46815.6 64814.3 moveto
47509.4 64814.3 lineto
stroke
newpath
47335.9 61345.2 moveto
47335.9 60651.3 lineto
stroke
newpath
46989 60998.2 moveto
47682.9 60998.2 lineto
stroke
newpath
48924.8 65161.2 moveto
48924.8 64467.4 lineto
stroke
newpath
48577.9 64814.3 moveto
49271.7 64814.3 lineto
stroke
newpath
49098.3 61345.2 moveto
49098.3 60651.3 lineto
stroke
newpath
48751.4 60998.2 moveto
49445.2 60998.2 lineto
stroke
newpath
63842.2 43479 moveto
63842.2 42785.2 lineto
stroke
newpath
63495.3 43132.1 moveto
64189.1 43132.1 lineto
stroke
newpath
63842.2 41716.7 moveto
63842.2 41022.8 lineto
stroke
newpath
63495.3 41369.7 moveto
64189.1 41369.7 lineto
stroke
newpath
65403.3 67298.2 moveto
65403.3 66604.4 lineto
stroke
newpath
65056.4 66951.3 moveto
65750.2 66951.3 lineto
stroke
newpath
65403.3 65535.9 moveto
65403.3 64842.1 lineto
stroke
newpath
65056.4 65189 moveto
65750.2 65189 lineto
stroke
newpath
65403.3 63773.6 moveto
65403.3 63079.7 lineto
stroke
newpath
65056.4 63426.7 moveto
65750.2 63426.7 lineto
stroke
newpath
65403.3 62011.2 moveto
65403.3 61317.4 lineto
stroke
newpath
65056.4 61664.3 moveto
65750.2 61664.3 lineto
stroke
newpath
65403.3 60248.9 moveto
65403.3 59555.1 lineto
stroke
newpath
65056.4 59902 moveto
65750.2 59902 lineto
stroke
newpath
43197.2 75225.3 moveto
43197.2 75912.1 lineto
42510.4 75912.1 lineto
42510.4 75225.3 lineto
43197.2 75225.3 lineto
poly0
newpath
46666.4 75225.3 moveto
46666.4 75912.1 lineto
45979.5 75912.1 lineto
45979.5 75225.3 lineto
46666.4 75225.3 lineto
poly0
newpath
50135.5 75225.3 moveto
50135.5 75912.1 lineto
49448.7 75912.1 lineto
49448.7 75225.3 lineto
50135.5 75225.3 lineto
poly0
newpath
53604.7 75225.3 moveto
53604.7 75912.1 lineto
52917.8 75912.1 lineto
52917.8 75225.3 lineto
53604.7 75225.3 lineto
poly0
newpath
57073.9 75225.3 moveto
57073.9 75912.1 lineto
56387 75912.1 lineto
56387 75225.3 lineto
57073.9 75225.3 lineto
poly0
newpath
60543 75225.3 moveto
60543 75912.1 lineto
59856.1 75912.1 lineto
59856.1 75225.3 lineto
60543 75225.3 lineto
poly0
newpath
64012.2 75225.3 moveto
64012.2 75912.1 lineto
63325.3 75912.1 lineto
63325.3 75225.3 lineto
64012.2 75225.3 lineto
poly0
newpath
67481.3 75225.3 moveto
67481.3 75912.1 lineto
66794.5 75912.1 lineto
66794.5 75225.3 lineto
67481.3 75225.3 lineto
poly0
newpath
70950.5 75225.3 moveto
70950.5 75912.1 lineto
70263.6 75912.1 lineto
70263.6 75225.3 lineto
70950.5 75225.3 lineto
poly0
newpath
74419.6 75225.3 moveto
74419.6 75912.1 lineto
73732.8 75912.1 lineto
73732.8 75225.3 lineto
74419.6 75225.3 lineto
poly0
118.11 setlinewidth
0 0 0 setrgbcolor
0 0 0 setrgbcolor
newpath
38725.7 35175.5 moveto
38725.7 36356.6 lineto
39006.9 36356.6 lineto
39175.6 36300.3 lineto
39288.1 36187.9 lineto
39344.4 36075.4 lineto
39400.6 35850.4 lineto
39400.6 35681.7 lineto
39344.4 35456.7 lineto
39288.1 35344.2 lineto
39175.6 35231.7 lineto
39006.9 35175.5 lineto
38725.7 35175.5 lineto
stroke
newpath
39906.8 35175.5 moveto
39906.8 35962.9 lineto
stroke
newpath
39906.8 35737.9 moveto
39963 35850.4 lineto
40019.3 35906.6 lineto
40131.8 35962.9 lineto
40244.2 35962.9 lineto
stroke
newpath
40637.9 35175.5 moveto
40637.9 35962.9 lineto
stroke
newpath
40637.9 36356.6 moveto
40581.7 36300.3 lineto
40637.9 36244.1 lineto
40694.2 36300.3 lineto
40637.9 36356.6 lineto
40637.9 36244.1 lineto
stroke
newpath
41369.1 35175.5 moveto
41256.6 35231.7 lineto
41200.4 35344.2 lineto
41200.4 36356.6 lineto
stroke
newpath
41987.8 35175.5 moveto
41875.3 35231.7 lineto
41819 35344.2 lineto
41819 36356.6 lineto
stroke
newpath
43337.6 35175.5 moveto
43337.6 36356.6 lineto
43731.3 35512.9 lineto
44125 36356.6 lineto
44125 35175.5 lineto
stroke
newpath
45193.6 35175.5 moveto
45193.6 35794.2 lineto
45137.4 35906.6 lineto
45024.9 35962.9 lineto
44799.9 35962.9 lineto
44687.4 35906.6 lineto
stroke
newpath
45193.6 35231.7 moveto
45081.1 35175.5 lineto
44799.9 35175.5 lineto
44687.4 35231.7 lineto
44631.2 35344.2 lineto
44631.2 35456.7 lineto
44687.4 35569.2 lineto
44799.9 35625.4 lineto
45081.1 35625.4 lineto
45193.6 35681.7 lineto
stroke
newpath
45756 35962.9 moveto
45756 34781.8 lineto
stroke
newpath
45756 35906.6 moveto
45868.5 35962.9 lineto
46093.5 35962.9 lineto
46206 35906.6 lineto
46262.2 35850.4 lineto
46318.5 35737.9 lineto
46318.5 35400.5 lineto
46262.2 35288 lineto
46206 35231.7 lineto
46093.5 35175.5 lineto
45868.5 35175.5 lineto
45756 35231.7 lineto
stroke
newpath
46824.7 35288 moveto
46880.9 35231.7 lineto
46824.7 35175.5 lineto
46768.4 35231.7 lineto
46824.7 35288 lineto
46824.7 35175.5 lineto
stroke
newpath
46824.7 35906.6 moveto
46880.9 35850.4 lineto
46824.7 35794.2 lineto
46768.4 35850.4 lineto
46824.7 35906.6 lineto
46824.7 35794.2 lineto
stroke
newpath
37112.3 33472.3 moveto
37598 32986.6 lineto
stroke
newpath
37598 33472.3 moveto
37112.3 32986.6 lineto
stroke
0 0 0 setrgbcolor
0 0 0 setrgbcolor
newpath
38950.7 33876.3 moveto
39063.1 33876.3 lineto
39175.6 33820 lineto
39231.9 33763.8 lineto
39288.1 33651.3 lineto
39344.4 33426.3 lineto
39344.4 33145.1 lineto
39288.1 32920.1 lineto
39231.9 32807.7 lineto
39175.6 32751.4 lineto
39063.1 32695.2 lineto
38950.7 32695.2 lineto
38838.2 32751.4 lineto
38781.9 32807.7 lineto
38725.7 32920.1 lineto
38669.4 33145.1 lineto
38669.4 33426.3 lineto
38725.7 33651.3 lineto
38781.9 33763.8 lineto
38838.2 33820 lineto
38950.7 33876.3 lineto
stroke
newpath
39850.5 32807.7 moveto
39906.8 32751.4 lineto
39850.5 32695.2 lineto
39794.3 32751.4 lineto
39850.5 32807.7 lineto
39850.5 32695.2 lineto
stroke
newpath
40300.5 33876.3 moveto
41087.9 33876.3 lineto
40581.7 32695.2 lineto
stroke
newpath
41762.8 33876.3 moveto
41875.3 33876.3 lineto
41987.8 33820 lineto
42044 33763.8 lineto
42100.3 33651.3 lineto
42156.5 33426.3 lineto
42156.5 33145.1 lineto
42100.3 32920.1 lineto
42044 32807.7 lineto
41987.8 32751.4 lineto
41875.3 32695.2 lineto
41762.8 32695.2 lineto
41650.3 32751.4 lineto
41594.1 32807.7 lineto
41537.8 32920.1 lineto
41481.6 33145.1 lineto
41481.6 33426.3 lineto
41537.8 33651.3 lineto
41594.1 33763.8 lineto
41650.3 33820 lineto
41762.8 33876.3 lineto
stroke
newpath
42887.7 33876.3 moveto
43000.1 33876.3 lineto
43112.6 33820 lineto
43168.9 33763.8 lineto
43225.1 33651.3 lineto
43281.4 33426.3 lineto
43281.4 33145.1 lineto
43225.1 32920.1 lineto
43168.9 32807.7 lineto
43112.6 32751.4 lineto
43000.1 32695.2 lineto
42887.7 32695.2 lineto
42775.2 32751.4 lineto
42718.9 32807.7 lineto
42662.7 32920.1 lineto
42606.4 33145.1 lineto
42606.4 33426.3 lineto
42662.7 33651.3 lineto
42718.9 33763.8 lineto
42775.2 33820 lineto
42887.7 33876.3 lineto
stroke
newpath
43787.5 32695.2 moveto
43787.5 33482.6 lineto
stroke
newpath
43787.5 33370.1 moveto
43843.8 33426.3 lineto
43956.3 33482.6 lineto
44125 33482.6 lineto
44237.5 33426.3 lineto
44293.7 33313.8 lineto
44293.7 32695.2 lineto
stroke
newpath
44293.7 33313.8 moveto
44350 33426.3 lineto
44462.5 33482.6 lineto
44631.2 33482.6 lineto
44743.7 33426.3 lineto
44799.9 33313.8 lineto
44799.9 32695.2 lineto
stroke
newpath
45362.3 32695.2 moveto
45362.3 33482.6 lineto
stroke
newpath
45362.3 33370.1 moveto
45418.6 33426.3 lineto
45531.1 33482.6 lineto
45699.8 33482.6 lineto
45812.3 33426.3 lineto
45868.5 33313.8 lineto
45868.5 32695.2 lineto
stroke
newpath
45868.5 33313.8 moveto
45924.8 33426.3 lineto
46037.3 33482.6 lineto
46206 33482.6 lineto
46318.5 33426.3 lineto
46374.7 33313.8 lineto
46374.7 32695.2 lineto
stroke
newpath
48680.7 33932.5 moveto
47668.3 32414 lineto
stroke
newpath
50199.2 33876.3 moveto
50311.7 33876.3 lineto
50424.2 33820 lineto
50480.5 33763.8 lineto
50536.7 33651.3 lineto
50592.9 33426.3 lineto
50592.9 33145.1 lineto
50536.7 32920.1 lineto
50480.5 32807.7 lineto
50424.2 32751.4 lineto
50311.7 32695.2 lineto
50199.2 32695.2 lineto
50086.8 32751.4 lineto
50030.5 32807.7 lineto
49974.3 32920.1 lineto
49918 33145.1 lineto
49918 33426.3 lineto
49974.3 33651.3 lineto
50030.5 33763.8 lineto
50086.8 33820 lineto
50199.2 33876.3 lineto
stroke
newpath
51099.1 32807.7 moveto
51155.4 32751.4 lineto
51099.1 32695.2 lineto
51042.9 32751.4 lineto
51099.1 32807.7 lineto
51099.1 32695.2 lineto
stroke
newpath
51886.5 33876.3 moveto
51999 33876.3 lineto
52111.5 33820 lineto
52167.7 33763.8 lineto
52224 33651.3 lineto
52280.2 33426.3 lineto
52280.2 33145.1 lineto
52224 32920.1 lineto
52167.7 32807.7 lineto
52111.5 32751.4 lineto
51999 32695.2 lineto
51886.5 32695.2 lineto
51774 32751.4 lineto
51717.8 32807.7 lineto
51661.6 32920.1 lineto
51605.3 33145.1 lineto
51605.3 33426.3 lineto
51661.6 33651.3 lineto
51717.8 33763.8 lineto
51774 33820 lineto
51886.5 33876.3 lineto
stroke
newpath
52730.2 33763.8 moveto
52786.4 33820 lineto
52898.9 33876.3 lineto
53180.1 33876.3 lineto
53292.6 33820 lineto
53348.8 33763.8 lineto
53405.1 33651.3 lineto
53405.1 33538.8 lineto
53348.8 33370.1 lineto
52673.9 32695.2 lineto
53405.1 32695.2 lineto
stroke
newpath
53798.8 33876.3 moveto
54586.2 33876.3 lineto
54080 32695.2 lineto
stroke
newpath
55542.3 33876.3 moveto
55317.4 33876.3 lineto
55204.9 33820 lineto
55148.6 33763.8 lineto
55036.1 33595.1 lineto
54979.9 33370.1 lineto
54979.9 32920.1 lineto
55036.1 32807.7 lineto
55092.4 32751.4 lineto
55204.9 32695.2 lineto
55429.8 32695.2 lineto
55542.3 32751.4 lineto
55598.6 32807.7 lineto
55654.8 32920.1 lineto
55654.8 33201.4 lineto
55598.6 33313.8 lineto
55542.3 33370.1 lineto
55429.8 33426.3 lineto
55204.9 33426.3 lineto
55092.4 33370.1 lineto
55036.1 33313.8 lineto
54979.9 33201.4 lineto
stroke
newpath
56104.8 33876.3 moveto
56104.8 33651.3 lineto
stroke
newpath
56554.7 33876.3 moveto
56554.7 33651.3 lineto
stroke
newpath
58298.2 32245.2 moveto
58242 32301.5 lineto
58129.5 32470.2 lineto
58073.3 32582.7 lineto
58017 32751.4 lineto
57960.8 33032.6 lineto
57960.8 33257.6 lineto
58017 33538.8 lineto
58073.3 33707.5 lineto
58129.5 33820 lineto
58242 33988.8 lineto
58298.2 34045 lineto
stroke
newpath
58635.7 33876.3 moveto
59366.8 33876.3 lineto
58973.1 33426.3 lineto
59141.9 33426.3 lineto
59254.4 33370.1 lineto
59310.6 33313.8 lineto
59366.8 33201.4 lineto
59366.8 32920.1 lineto
59310.6 32807.7 lineto
59254.4 32751.4 lineto
59141.9 32695.2 lineto
58804.4 32695.2 lineto
58691.9 32751.4 lineto
58635.7 32807.7 lineto
stroke
newpath
60041.8 33370.1 moveto
59929.3 33426.3 lineto
59873 33482.6 lineto
59816.8 33595.1 lineto
59816.8 33651.3 lineto
59873 33763.8 lineto
59929.3 33820 lineto
60041.8 33876.3 lineto
60266.7 33876.3 lineto
60379.2 33820 lineto
60435.5 33763.8 lineto
60491.7 33651.3 lineto
60491.7 33595.1 lineto
60435.5 33482.6 lineto
60379.2 33426.3 lineto
60266.7 33370.1 lineto
60041.8 33370.1 lineto
59929.3 33313.8 lineto
59873 33257.6 lineto
59816.8 33145.1 lineto
59816.8 32920.1 lineto
59873 32807.7 lineto
59929.3 32751.4 lineto
60041.8 32695.2 lineto
60266.7 32695.2 lineto
60379.2 32751.4 lineto
60435.5 32807.7 lineto
60491.7 32920.1 lineto
60491.7 33145.1 lineto
60435.5 33257.6 lineto
60379.2 33313.8 lineto
60266.7 33370.1 lineto
stroke
newpath
61897.8 32695.2 moveto
61897.8 33876.3 lineto
stroke
newpath
62404 32695.2 moveto
62404 33313.8 lineto
62347.7 33426.3 lineto
62235.2 33482.6 lineto
62066.5 33482.6 lineto
61954 33426.3 lineto
61897.8 33370.1 lineto
stroke
newpath
63135.1 32695.2 moveto
63022.6 32751.4 lineto
62966.4 32807.7 lineto
62910.2 32920.1 lineto
62910.2 33257.6 lineto
62966.4 33370.1 lineto
63022.6 33426.3 lineto
63135.1 33482.6 lineto
63303.9 33482.6 lineto
63416.3 33426.3 lineto
63472.6 33370.1 lineto
63528.8 33257.6 lineto
63528.8 32920.1 lineto
63472.6 32807.7 lineto
63416.3 32751.4 lineto
63303.9 32695.2 lineto
63135.1 32695.2 lineto
stroke
newpath
64203.7 32695.2 moveto
64091.3 32751.4 lineto
64035 32863.9 lineto
64035 33876.3 lineto
stroke
newpath
65103.6 32751.4 moveto
64991.1 32695.2 lineto
64766.2 32695.2 lineto
64653.7 32751.4 lineto
64597.4 32863.9 lineto
64597.4 33313.8 lineto
64653.7 33426.3 lineto
64766.2 33482.6 lineto
64991.1 33482.6 lineto
65103.6 33426.3 lineto
65159.9 33313.8 lineto
65159.9 33201.4 lineto
64597.4 33088.9 lineto
stroke
newpath
65609.8 32751.4 moveto
65722.3 32695.2 lineto
65947.3 32695.2 lineto
66059.8 32751.4 lineto
66116 32863.9 lineto
66116 32920.1 lineto
66059.8 33032.6 lineto
65947.3 33088.9 lineto
65778.5 33088.9 lineto
65666.1 33145.1 lineto
65609.8 33257.6 lineto
65609.8 33313.8 lineto
65666.1 33426.3 lineto
65778.5 33482.6 lineto
65947.3 33482.6 lineto
66059.8 33426.3 lineto
stroke
newpath
66509.7 32245.2 moveto
66565.9 32301.5 lineto
66678.4 32470.2 lineto
66734.7 32582.7 lineto
66790.9 32751.4 lineto
66847.2 33032.6 lineto
66847.2 33257.6 lineto
66790.9 33538.8 lineto
66734.7 33707.5 lineto
66678.4 33820 lineto
66565.9 33988.8 lineto
66509.7 34045 lineto
stroke
37268.4 31670.4 329.57 cir0
0 0 0 setrgbcolor
0 0 0 setrgbcolor
newpath
38950.7 32317.2 moveto
39063.1 32317.2 lineto
39175.6 32261 lineto
39231.9 32204.7 lineto
39288.1 32092.2 lineto
39344.4 31867.3 lineto
39344.4 31586.1 lineto
39288.1 31361.1 lineto
39231.9 31248.6 lineto
39175.6 31192.4 lineto
39063.1 31136.1 lineto
38950.7 31136.1 lineto
38838.2 31192.4 lineto
38781.9 31248.6 lineto
38725.7 31361.1 lineto
38669.4 31586.1 lineto
38669.4 31867.3 lineto
38725.7 32092.2 lineto
38781.9 32204.7 lineto
38838.2 32261 lineto
38950.7 32317.2 lineto
stroke
newpath
39850.5 31248.6 moveto
39906.8 31192.4 lineto
39850.5 31136.1 lineto
39794.3 31192.4 lineto
39850.5 31248.6 lineto
39850.5 31136.1 lineto
stroke
newpath
40469.2 31136.1 moveto
40694.2 31136.1 lineto
40806.7 31192.4 lineto
40862.9 31248.6 lineto
40975.4 31417.3 lineto
41031.6 31642.3 lineto
41031.6 32092.2 lineto
40975.4 32204.7 lineto
40919.2 32261 lineto
40806.7 32317.2 lineto
40581.7 32317.2 lineto
40469.2 32261 lineto
40413 32204.7 lineto
40356.7 32092.2 lineto
40356.7 31811 lineto
40413 31698.5 lineto
40469.2 31642.3 lineto
40581.7 31586.1 lineto
40806.7 31586.1 lineto
40919.2 31642.3 lineto
40975.4 31698.5 lineto
41031.6 31811 lineto
stroke
newpath
42100.3 32317.2 moveto
41537.8 32317.2 lineto
41481.6 31754.8 lineto
41537.8 31811 lineto
41650.3 31867.3 lineto
41931.5 31867.3 lineto
42044 31811 lineto
42100.3 31754.8 lineto
42156.5 31642.3 lineto
42156.5 31361.1 lineto
42100.3 31248.6 lineto
42044 31192.4 lineto
41931.5 31136.1 lineto
41650.3 31136.1 lineto
41537.8 31192.4 lineto
41481.6 31248.6 lineto
stroke
newpath
42887.7 32317.2 moveto
43000.1 32317.2 lineto
43112.6 32261 lineto
43168.9 32204.7 lineto
43225.1 32092.2 lineto
43281.4 31867.3 lineto
43281.4 31586.1 lineto
43225.1 31361.1 lineto
43168.9 31248.6 lineto
43112.6 31192.4 lineto
43000.1 31136.1 lineto
42887.7 31136.1 lineto
42775.2 31192.4 lineto
42718.9 31248.6 lineto
42662.7 31361.1 lineto
42606.4 31586.1 lineto
42606.4 31867.3 lineto
42662.7 32092.2 lineto
42718.9 32204.7 lineto
42775.2 32261 lineto
42887.7 32317.2 lineto
stroke
newpath
43787.5 31136.1 moveto
43787.5 31923.5 lineto
stroke
newpath
43787.5 31811 moveto
43843.8 31867.3 lineto
43956.3 31923.5 lineto
44125 31923.5 lineto
44237.5 31867.3 lineto
44293.7 31754.8 lineto
44293.7 31136.1 lineto
stroke
newpath
44293.7 31754.8 moveto
44350 31867.3 lineto
44462.5 31923.5 lineto
44631.2 31923.5 lineto
44743.7 31867.3 lineto
44799.9 31754.8 lineto
44799.9 31136.1 lineto
stroke
newpath
45362.3 31136.1 moveto
45362.3 31923.5 lineto
stroke
newpath
45362.3 31811 moveto
45418.6 31867.3 lineto
45531.1 31923.5 lineto
45699.8 31923.5 lineto
45812.3 31867.3 lineto
45868.5 31754.8 lineto
45868.5 31136.1 lineto
stroke
newpath
45868.5 31754.8 moveto
45924.8 31867.3 lineto
46037.3 31923.5 lineto
46206 31923.5 lineto
46318.5 31867.3 lineto
46374.7 31754.8 lineto
46374.7 31136.1 lineto
stroke
newpath
48680.7 32373.5 moveto
47668.3 30854.9 lineto
stroke
newpath
50199.2 32317.2 moveto
50311.7 32317.2 lineto
50424.2 32261 lineto
50480.5 32204.7 lineto
50536.7 32092.2 lineto
50592.9 31867.3 lineto
50592.9 31586.1 lineto
50536.7 31361.1 lineto
50480.5 31248.6 lineto
50424.2 31192.4 lineto
50311.7 31136.1 lineto
50199.2 31136.1 lineto
50086.8 31192.4 lineto
50030.5 31248.6 lineto
49974.3 31361.1 lineto
49918 31586.1 lineto
49918 31867.3 lineto
49974.3 32092.2 lineto
50030.5 32204.7 lineto
50086.8 32261 lineto
50199.2 32317.2 lineto
stroke
newpath
51099.1 31248.6 moveto
51155.4 31192.4 lineto
51099.1 31136.1 lineto
51042.9 31192.4 lineto
51099.1 31248.6 lineto
51099.1 31136.1 lineto
stroke
newpath
51886.5 32317.2 moveto
51999 32317.2 lineto
52111.5 32261 lineto
52167.7 32204.7 lineto
52224 32092.2 lineto
52280.2 31867.3 lineto
52280.2 31586.1 lineto
52224 31361.1 lineto
52167.7 31248.6 lineto
52111.5 31192.4 lineto
51999 31136.1 lineto
51886.5 31136.1 lineto
51774 31192.4 lineto
51717.8 31248.6 lineto
51661.6 31361.1 lineto
51605.3 31586.1 lineto
51605.3 31867.3 lineto
51661.6 32092.2 lineto
51717.8 32204.7 lineto
51774 32261 lineto
51886.5 32317.2 lineto
stroke
newpath
52673.9 32317.2 moveto
53405.1 32317.2 lineto
53011.4 31867.3 lineto
53180.1 31867.3 lineto
53292.6 31811 lineto
53348.8 31754.8 lineto
53405.1 31642.3 lineto
53405.1 31361.1 lineto
53348.8 31248.6 lineto
53292.6 31192.4 lineto
53180.1 31136.1 lineto
52842.7 31136.1 lineto
52730.2 31192.4 lineto
52673.9 31248.6 lineto
stroke
newpath
53798.8 32317.2 moveto
54586.2 32317.2 lineto
54080 31136.1 lineto
stroke
newpath
55542.3 31923.5 moveto
55542.3 31136.1 lineto
stroke
newpath
55261.1 32373.5 moveto
54979.9 31529.8 lineto
55711.1 31529.8 lineto
stroke
newpath
56104.8 32317.2 moveto
56104.8 32092.2 lineto
stroke
newpath
56554.7 32317.2 moveto
56554.7 32092.2 lineto
stroke
newpath
58298.2 30686.2 moveto
58242 30742.4 lineto
58129.5 30911.1 lineto
58073.3 31023.6 lineto
58017 31192.4 lineto
57960.8 31473.6 lineto
57960.8 31698.5 lineto
58017 31979.8 lineto
58073.3 32148.5 lineto
58129.5 32261 lineto
58242 32429.7 lineto
58298.2 32485.9 lineto
stroke
newpath
58804.4 31136.1 moveto
59029.4 31136.1 lineto
59141.9 31192.4 lineto
59198.1 31248.6 lineto
59310.6 31417.3 lineto
59366.8 31642.3 lineto
59366.8 32092.2 lineto
59310.6 32204.7 lineto
59254.4 32261 lineto
59141.9 32317.2 lineto
58916.9 32317.2 lineto
58804.4 32261 lineto
58748.2 32204.7 lineto
58691.9 32092.2 lineto
58691.9 31811 lineto
58748.2 31698.5 lineto
58804.4 31642.3 lineto
58916.9 31586.1 lineto
59141.9 31586.1 lineto
59254.4 31642.3 lineto
59310.6 31698.5 lineto
59366.8 31811 lineto
stroke
newpath
60772.9 31136.1 moveto
60772.9 32317.2 lineto
stroke
newpath
61279.1 31136.1 moveto
61279.1 31754.8 lineto
61222.9 31867.3 lineto
61110.4 31923.5 lineto
60941.6 31923.5 lineto
60829.2 31867.3 lineto
60772.9 31811 lineto
stroke
newpath
62010.3 31136.1 moveto
61897.8 31192.4 lineto
61841.5 31248.6 lineto
61785.3 31361.1 lineto
61785.3 31698.5 lineto
61841.5 31811 lineto
61897.8 31867.3 lineto
62010.3 31923.5 lineto
62179 31923.5 lineto
62291.5 31867.3 lineto
62347.7 31811 lineto
62404 31698.5 lineto
62404 31361.1 lineto
62347.7 31248.6 lineto
62291.5 31192.4 lineto
62179 31136.1 lineto
62010.3 31136.1 lineto
stroke
newpath
63078.9 31136.1 moveto
62966.4 31192.4 lineto
62910.2 31304.8 lineto
62910.2 32317.2 lineto
stroke
newpath
63978.8 31192.4 moveto
63866.3 31136.1 lineto
63641.3 31136.1 lineto
63528.8 31192.4 lineto
63472.6 31304.8 lineto
63472.6 31754.8 lineto
63528.8 31867.3 lineto
63641.3 31923.5 lineto
63866.3 31923.5 lineto
63978.8 31867.3 lineto
64035 31754.8 lineto
64035 31642.3 lineto
63472.6 31529.8 lineto
stroke
newpath
64485 31192.4 moveto
64597.4 31136.1 lineto
64822.4 31136.1 lineto
64934.9 31192.4 lineto
64991.1 31304.8 lineto
64991.1 31361.1 lineto
64934.9 31473.6 lineto
64822.4 31529.8 lineto
64653.7 31529.8 lineto
64541.2 31586.1 lineto
64485 31698.5 lineto
64485 31754.8 lineto
64541.2 31867.3 lineto
64653.7 31923.5 lineto
64822.4 31923.5 lineto
64934.9 31867.3 lineto
stroke
newpath
65384.8 30686.2 moveto
65441.1 30742.4 lineto
65553.6 30911.1 lineto
65609.8 31023.6 lineto
65666.1 31192.4 lineto
65722.3 31473.6 lineto
65722.3 31698.5 lineto
65666.1 31979.8 lineto
65609.8 32148.5 lineto
65553.6 32261 lineto
65441.1 32429.7 lineto
65384.8 32485.9 lineto
stroke
newpath
37251.1 30458.3 moveto
37251.1 29764.5 lineto
stroke
newpath
36904.2 30111.4 moveto
37598 30111.4 lineto
stroke
0 0 0 setrgbcolor
0 0 0 setrgbcolor
newpath
39344.4 29577.1 moveto
38669.4 29577.1 lineto
stroke
newpath
39006.9 29577.1 moveto
39006.9 30758.2 lineto
38894.4 30589.4 lineto
38781.9 30476.9 lineto
38669.4 30420.7 lineto
stroke
newpath
39850.5 29689.5 moveto
39906.8 29633.3 lineto
39850.5 29577.1 lineto
39794.3 29633.3 lineto
39850.5 29689.5 lineto
39850.5 29577.1 lineto
stroke
newpath
40637.9 30758.2 moveto
40750.4 30758.2 lineto
40862.9 30701.9 lineto
40919.2 30645.7 lineto
40975.4 30533.2 lineto
41031.6 30308.2 lineto
41031.6 30027 lineto
40975.4 29802 lineto
40919.2 29689.5 lineto
40862.9 29633.3 lineto
40750.4 29577.1 lineto
40637.9 29577.1 lineto
40525.5 29633.3 lineto
40469.2 29689.5 lineto
40413 29802 lineto
40356.7 30027 lineto
40356.7 30308.2 lineto
40413 30533.2 lineto
40469.2 30645.7 lineto
40525.5 30701.9 lineto
40637.9 30758.2 lineto
stroke
newpath
41762.8 30758.2 moveto
41875.3 30758.2 lineto
41987.8 30701.9 lineto
42044 30645.7 lineto
42100.3 30533.2 lineto
42156.5 30308.2 lineto
42156.5 30027 lineto
42100.3 29802 lineto
42044 29689.5 lineto
41987.8 29633.3 lineto
41875.3 29577.1 lineto
41762.8 29577.1 lineto
41650.3 29633.3 lineto
41594.1 29689.5 lineto
41537.8 29802 lineto
41481.6 30027 lineto
41481.6 30308.2 lineto
41537.8 30533.2 lineto
41594.1 30645.7 lineto
41650.3 30701.9 lineto
41762.8 30758.2 lineto
stroke
newpath
42887.7 30758.2 moveto
43000.1 30758.2 lineto
43112.6 30701.9 lineto
43168.9 30645.7 lineto
43225.1 30533.2 lineto
43281.4 30308.2 lineto
43281.4 30027 lineto
43225.1 29802 lineto
43168.9 29689.5 lineto
43112.6 29633.3 lineto
43000.1 29577.1 lineto
42887.7 29577.1 lineto
42775.2 29633.3 lineto
42718.9 29689.5 lineto
42662.7 29802 lineto
42606.4 30027 lineto
42606.4 30308.2 lineto
42662.7 30533.2 lineto
42718.9 30645.7 lineto
42775.2 30701.9 lineto
42887.7 30758.2 lineto
stroke
newpath
43787.5 29577.1 moveto
43787.5 30364.5 lineto
stroke
newpath
43787.5 30252 moveto
43843.8 30308.2 lineto
43956.3 30364.5 lineto
44125 30364.5 lineto
44237.5 30308.2 lineto
44293.7 30195.7 lineto
44293.7 29577.1 lineto
stroke
newpath
44293.7 30195.7 moveto
44350 30308.2 lineto
44462.5 30364.5 lineto
44631.2 30364.5 lineto
44743.7 30308.2 lineto
44799.9 30195.7 lineto
44799.9 29577.1 lineto
stroke
newpath
45362.3 29577.1 moveto
45362.3 30364.5 lineto
stroke
newpath
45362.3 30252 moveto
45418.6 30308.2 lineto
45531.1 30364.5 lineto
45699.8 30364.5 lineto
45812.3 30308.2 lineto
45868.5 30195.7 lineto
45868.5 29577.1 lineto
stroke
newpath
45868.5 30195.7 moveto
45924.8 30308.2 lineto
46037.3 30364.5 lineto
46206 30364.5 lineto
46318.5 30308.2 lineto
46374.7 30195.7 lineto
46374.7 29577.1 lineto
stroke
newpath
48680.7 30814.4 moveto
47668.3 29295.8 lineto
stroke
newpath
50199.2 30758.2 moveto
50311.7 30758.2 lineto
50424.2 30701.9 lineto
50480.5 30645.7 lineto
50536.7 30533.2 lineto
50592.9 30308.2 lineto
50592.9 30027 lineto
50536.7 29802 lineto
50480.5 29689.5 lineto
50424.2 29633.3 lineto
50311.7 29577.1 lineto
50199.2 29577.1 lineto
50086.8 29633.3 lineto
50030.5 29689.5 lineto
49974.3 29802 lineto
49918 30027 lineto
49918 30308.2 lineto
49974.3 30533.2 lineto
50030.5 30645.7 lineto
50086.8 30701.9 lineto
50199.2 30758.2 lineto
stroke
newpath
51099.1 29689.5 moveto
51155.4 29633.3 lineto
51099.1 29577.1 lineto
51042.9 29633.3 lineto
51099.1 29689.5 lineto
51099.1 29577.1 lineto
stroke
newpath
51886.5 30758.2 moveto
51999 30758.2 lineto
52111.5 30701.9 lineto
52167.7 30645.7 lineto
52224 30533.2 lineto
52280.2 30308.2 lineto
52280.2 30027 lineto
52224 29802 lineto
52167.7 29689.5 lineto
52111.5 29633.3 lineto
51999 29577.1 lineto
51886.5 29577.1 lineto
51774 29633.3 lineto
51717.8 29689.5 lineto
51661.6 29802 lineto
51605.3 30027 lineto
51605.3 30308.2 lineto
51661.6 30533.2 lineto
51717.8 30645.7 lineto
51774 30701.9 lineto
51886.5 30758.2 lineto
stroke
newpath
52673.9 30758.2 moveto
53405.1 30758.2 lineto
53011.4 30308.2 lineto
53180.1 30308.2 lineto
53292.6 30252 lineto
53348.8 30195.7 lineto
53405.1 30083.2 lineto
53405.1 29802 lineto
53348.8 29689.5 lineto
53292.6 29633.3 lineto
53180.1 29577.1 lineto
52842.7 29577.1 lineto
52730.2 29633.3 lineto
52673.9 29689.5 lineto
stroke
newpath
53967.5 29577.1 moveto
54192.5 29577.1 lineto
54305 29633.3 lineto
54361.2 29689.5 lineto
54473.7 29858.3 lineto
54530 30083.2 lineto
54530 30533.2 lineto
54473.7 30645.7 lineto
54417.5 30701.9 lineto
54305 30758.2 lineto
54080 30758.2 lineto
53967.5 30701.9 lineto
53911.3 30645.7 lineto
53855 30533.2 lineto
53855 30252 lineto
53911.3 30139.5 lineto
53967.5 30083.2 lineto
54080 30027 lineto
54305 30027 lineto
54417.5 30083.2 lineto
54473.7 30139.5 lineto
54530 30252 lineto
stroke
newpath
55542.3 30364.5 moveto
55542.3 29577.1 lineto
stroke
newpath
55261.1 30814.4 moveto
54979.9 29970.8 lineto
55711.1 29970.8 lineto
stroke
newpath
56104.8 30758.2 moveto
56104.8 30533.2 lineto
stroke
newpath
56554.7 30758.2 moveto
56554.7 30533.2 lineto
stroke
newpath
58298.2 29127.1 moveto
58242 29183.4 lineto
58129.5 29352.1 lineto
58073.3 29464.6 lineto
58017 29633.3 lineto
57960.8 29914.5 lineto
57960.8 30139.5 lineto
58017 30420.7 lineto
58073.3 30589.4 lineto
58129.5 30701.9 lineto
58242 30870.7 lineto
58298.2 30926.9 lineto
stroke
newpath
59366.8 29577.1 moveto
58691.9 29577.1 lineto
stroke
newpath
59029.4 29577.1 moveto
59029.4 30758.2 lineto
58916.9 30589.4 lineto
58804.4 30476.9 lineto
58691.9 30420.7 lineto
stroke
newpath
59929.3 29577.1 moveto
60154.2 29577.1 lineto
60266.7 29633.3 lineto
60323 29689.5 lineto
60435.5 29858.3 lineto
60491.7 30083.2 lineto
60491.7 30533.2 lineto
60435.5 30645.7 lineto
60379.2 30701.9 lineto
60266.7 30758.2 lineto
60041.8 30758.2 lineto
59929.3 30701.9 lineto
59873 30645.7 lineto
59816.8 30533.2 lineto
59816.8 30252 lineto
59873 30139.5 lineto
59929.3 30083.2 lineto
60041.8 30027 lineto
60266.7 30027 lineto
60379.2 30083.2 lineto
60435.5 30139.5 lineto
60491.7 30252 lineto
stroke
newpath
61897.8 29577.1 moveto
61897.8 30758.2 lineto
stroke
newpath
62404 29577.1 moveto
62404 30195.7 lineto
62347.7 30308.2 lineto
62235.2 30364.5 lineto
62066.5 30364.5 lineto
61954 30308.2 lineto
61897.8 30252 lineto
stroke
newpath
63135.1 29577.1 moveto
63022.6 29633.3 lineto
62966.4 29689.5 lineto
62910.2 29802 lineto
62910.2 30139.5 lineto
62966.4 30252 lineto
63022.6 30308.2 lineto
63135.1 30364.5 lineto
63303.9 30364.5 lineto
63416.3 30308.2 lineto
63472.6 30252 lineto
63528.8 30139.5 lineto
63528.8 29802 lineto
63472.6 29689.5 lineto
63416.3 29633.3 lineto
63303.9 29577.1 lineto
63135.1 29577.1 lineto
stroke
newpath
64203.7 29577.1 moveto
64091.3 29633.3 lineto
64035 29745.8 lineto
64035 30758.2 lineto
stroke
newpath
65103.6 29633.3 moveto
64991.1 29577.1 lineto
64766.2 29577.1 lineto
64653.7 29633.3 lineto
64597.4 29745.8 lineto
64597.4 30195.7 lineto
64653.7 30308.2 lineto
64766.2 30364.5 lineto
64991.1 30364.5 lineto
65103.6 30308.2 lineto
65159.9 30195.7 lineto
65159.9 30083.2 lineto
64597.4 29970.8 lineto
stroke
newpath
65609.8 29633.3 moveto
65722.3 29577.1 lineto
65947.3 29577.1 lineto
66059.8 29633.3 lineto
66116 29745.8 lineto
66116 29802 lineto
66059.8 29914.5 lineto
65947.3 29970.8 lineto
65778.5 29970.8 lineto
65666.1 30027 lineto
65609.8 30139.5 lineto
65609.8 30195.7 lineto
65666.1 30308.2 lineto
65778.5 30364.5 lineto
65947.3 30364.5 lineto
66059.8 30308.2 lineto
stroke
newpath
66509.7 29127.1 moveto
66565.9 29183.4 lineto
66678.4 29352.1 lineto
66734.7 29464.6 lineto
66790.9 29633.3 lineto
66847.2 29914.5 lineto
66847.2 30139.5 lineto
66790.9 30420.7 lineto
66734.7 30589.4 lineto
66678.4 30701.9 lineto
66565.9 30870.7 lineto
66509.7 30926.9 lineto
stroke
newpath
37455.8 28208.9 moveto
37455.8 28895.7 lineto
36768.9 28895.7 lineto
36768.9 28208.9 lineto
37455.8 28208.9 lineto
poly0
0 0 0 setrgbcolor
0 0 0 setrgbcolor
newpath
39344.4 28018 moveto
38669.4 28018 lineto
stroke
newpath
39006.9 28018 moveto
39006.9 29199.1 lineto
38894.4 29030.4 lineto
38781.9 28917.9 lineto
38669.4 28861.7 lineto
stroke
newpath
39850.5 28130.5 moveto
39906.8 28074.3 lineto
39850.5 28018 lineto
39794.3 28074.3 lineto
39850.5 28130.5 lineto
39850.5 28018 lineto
stroke
newpath
40919.2 28805.4 moveto
40919.2 28018 lineto
stroke
newpath
40637.9 29255.4 moveto
40356.7 28411.7 lineto
41087.9 28411.7 lineto
stroke
newpath
41762.8 29199.1 moveto
41875.3 29199.1 lineto
41987.8 29142.9 lineto
42044 29086.6 lineto
42100.3 28974.1 lineto
42156.5 28749.2 lineto
42156.5 28468 lineto
42100.3 28243 lineto
42044 28130.5 lineto
41987.8 28074.3 lineto
41875.3 28018 lineto
41762.8 28018 lineto
41650.3 28074.3 lineto
41594.1 28130.5 lineto
41537.8 28243 lineto
41481.6 28468 lineto
41481.6 28749.2 lineto
41537.8 28974.1 lineto
41594.1 29086.6 lineto
41650.3 29142.9 lineto
41762.8 29199.1 lineto
stroke
newpath
42887.7 29199.1 moveto
43000.1 29199.1 lineto
43112.6 29142.9 lineto
43168.9 29086.6 lineto
43225.1 28974.1 lineto
43281.4 28749.2 lineto
43281.4 28468 lineto
43225.1 28243 lineto
43168.9 28130.5 lineto
43112.6 28074.3 lineto
43000.1 28018 lineto
42887.7 28018 lineto
42775.2 28074.3 lineto
42718.9 28130.5 lineto
42662.7 28243 lineto
42606.4 28468 lineto
42606.4 28749.2 lineto
42662.7 28974.1 lineto
42718.9 29086.6 lineto
42775.2 29142.9 lineto
42887.7 29199.1 lineto
stroke
newpath
43787.5 28018 moveto
43787.5 28805.4 lineto
stroke
newpath
43787.5 28692.9 moveto
43843.8 28749.2 lineto
43956.3 28805.4 lineto
44125 28805.4 lineto
44237.5 28749.2 lineto
44293.7 28636.7 lineto
44293.7 28018 lineto
stroke
newpath
44293.7 28636.7 moveto
44350 28749.2 lineto
44462.5 28805.4 lineto
44631.2 28805.4 lineto
44743.7 28749.2 lineto
44799.9 28636.7 lineto
44799.9 28018 lineto
stroke
newpath
45362.3 28018 moveto
45362.3 28805.4 lineto
stroke
newpath
45362.3 28692.9 moveto
45418.6 28749.2 lineto
45531.1 28805.4 lineto
45699.8 28805.4 lineto
45812.3 28749.2 lineto
45868.5 28636.7 lineto
45868.5 28018 lineto
stroke
newpath
45868.5 28636.7 moveto
45924.8 28749.2 lineto
46037.3 28805.4 lineto
46206 28805.4 lineto
46318.5 28749.2 lineto
46374.7 28636.7 lineto
46374.7 28018 lineto
stroke
newpath
48680.7 29255.4 moveto
47668.3 27736.8 lineto
stroke
newpath
50199.2 29199.1 moveto
50311.7 29199.1 lineto
50424.2 29142.9 lineto
50480.5 29086.6 lineto
50536.7 28974.1 lineto
50592.9 28749.2 lineto
50592.9 28468 lineto
50536.7 28243 lineto
50480.5 28130.5 lineto
50424.2 28074.3 lineto
50311.7 28018 lineto
50199.2 28018 lineto
50086.8 28074.3 lineto
50030.5 28130.5 lineto
49974.3 28243 lineto
49918 28468 lineto
49918 28749.2 lineto
49974.3 28974.1 lineto
50030.5 29086.6 lineto
50086.8 29142.9 lineto
50199.2 29199.1 lineto
stroke
newpath
51099.1 28130.5 moveto
51155.4 28074.3 lineto
51099.1 28018 lineto
51042.9 28074.3 lineto
51099.1 28130.5 lineto
51099.1 28018 lineto
stroke
newpath
51886.5 29199.1 moveto
51999 29199.1 lineto
52111.5 29142.9 lineto
52167.7 29086.6 lineto
52224 28974.1 lineto
52280.2 28749.2 lineto
52280.2 28468 lineto
52224 28243 lineto
52167.7 28130.5 lineto
52111.5 28074.3 lineto
51999 28018 lineto
51886.5 28018 lineto
51774 28074.3 lineto
51717.8 28130.5 lineto
51661.6 28243 lineto
51605.3 28468 lineto
51605.3 28749.2 lineto
51661.6 28974.1 lineto
51717.8 29086.6 lineto
51774 29142.9 lineto
51886.5 29199.1 lineto
stroke
newpath
53348.8 29199.1 moveto
52786.4 29199.1 lineto
52730.2 28636.7 lineto
52786.4 28692.9 lineto
52898.9 28749.2 lineto
53180.1 28749.2 lineto
53292.6 28692.9 lineto
53348.8 28636.7 lineto
53405.1 28524.2 lineto
53405.1 28243 lineto
53348.8 28130.5 lineto
53292.6 28074.3 lineto
53180.1 28018 lineto
52898.9 28018 lineto
52786.4 28074.3 lineto
52730.2 28130.5 lineto
stroke
newpath
54473.7 29199.1 moveto
53911.3 29199.1 lineto
53855 28636.7 lineto
53911.3 28692.9 lineto
54023.8 28749.2 lineto
54305 28749.2 lineto
54417.5 28692.9 lineto
54473.7 28636.7 lineto
54530 28524.2 lineto
54530 28243 lineto
54473.7 28130.5 lineto
54417.5 28074.3 lineto
54305 28018 lineto
54023.8 28018 lineto
53911.3 28074.3 lineto
53855 28130.5 lineto
stroke
newpath
55654.8 28018 moveto
54979.9 28018 lineto
stroke
newpath
55317.4 28018 moveto
55317.4 29199.1 lineto
55204.9 29030.4 lineto
55092.4 28917.9 lineto
54979.9 28861.7 lineto
stroke
newpath
56104.8 29199.1 moveto
56104.8 28974.1 lineto
stroke
newpath
56554.7 29199.1 moveto
56554.7 28974.1 lineto
stroke
newpath
58298.2 27568.1 moveto
58242 27624.3 lineto
58129.5 27793 lineto
58073.3 27905.5 lineto
58017 28074.3 lineto
57960.8 28355.5 lineto
57960.8 28580.4 lineto
58017 28861.7 lineto
58073.3 29030.4 lineto
58129.5 29142.9 lineto
58242 29311.6 lineto
58298.2 29367.8 lineto
stroke
newpath
59366.8 28018 moveto
58691.9 28018 lineto
stroke
newpath
59029.4 28018 moveto
59029.4 29199.1 lineto
58916.9 29030.4 lineto
58804.4 28917.9 lineto
58691.9 28861.7 lineto
stroke
newpath
60098 29199.1 moveto
60210.5 29199.1 lineto
60323 29142.9 lineto
60379.2 29086.6 lineto
60435.5 28974.1 lineto
60491.7 28749.2 lineto
60491.7 28468 lineto
60435.5 28243 lineto
60379.2 28130.5 lineto
60323 28074.3 lineto
60210.5 28018 lineto
60098 28018 lineto
59985.5 28074.3 lineto
59929.3 28130.5 lineto
59873 28243 lineto
59816.8 28468 lineto
59816.8 28749.2 lineto
59873 28974.1 lineto
59929.3 29086.6 lineto
59985.5 29142.9 lineto
60098 29199.1 lineto
stroke
newpath
61897.8 28018 moveto
61897.8 29199.1 lineto
stroke
newpath
62404 28018 moveto
62404 28636.7 lineto
62347.7 28749.2 lineto
62235.2 28805.4 lineto
62066.5 28805.4 lineto
61954 28749.2 lineto
61897.8 28692.9 lineto
stroke
newpath
63135.1 28018 moveto
63022.6 28074.3 lineto
62966.4 28130.5 lineto
62910.2 28243 lineto
62910.2 28580.4 lineto
62966.4 28692.9 lineto
63022.6 28749.2 lineto
63135.1 28805.4 lineto
63303.9 28805.4 lineto
63416.3 28749.2 lineto
63472.6 28692.9 lineto
63528.8 28580.4 lineto
63528.8 28243 lineto
63472.6 28130.5 lineto
63416.3 28074.3 lineto
63303.9 28018 lineto
63135.1 28018 lineto
stroke
newpath
64203.7 28018 moveto
64091.3 28074.3 lineto
64035 28186.7 lineto
64035 29199.1 lineto
stroke
newpath
65103.6 28074.3 moveto
64991.1 28018 lineto
64766.2 28018 lineto
64653.7 28074.3 lineto
64597.4 28186.7 lineto
64597.4 28636.7 lineto
64653.7 28749.2 lineto
64766.2 28805.4 lineto
64991.1 28805.4 lineto
65103.6 28749.2 lineto
65159.9 28636.7 lineto
65159.9 28524.2 lineto
64597.4 28411.7 lineto
stroke
newpath
65609.8 28074.3 moveto
65722.3 28018 lineto
65947.3 28018 lineto
66059.8 28074.3 lineto
66116 28186.7 lineto
66116 28243 lineto
66059.8 28355.5 lineto
65947.3 28411.7 lineto
65778.5 28411.7 lineto
65666.1 28468 lineto
65609.8 28580.4 lineto
65609.8 28636.7 lineto
65666.1 28749.2 lineto
65778.5 28805.4 lineto
65947.3 28805.4 lineto
66059.8 28749.2 lineto
stroke
newpath
66509.7 27568.1 moveto
66565.9 27624.3 lineto
66678.4 27793 lineto
66734.7 27905.5 lineto
66790.9 28074.3 lineto
66847.2 28355.5 lineto
66847.2 28580.4 lineto
66790.9 28861.7 lineto
66734.7 29030.4 lineto
66678.4 29142.9 lineto
66565.9 29311.6 lineto
66509.7 29367.8 lineto
stroke
showpage
grestore
%%EOF
