Comment,Designator,Footprint,LCSC
"22uF","C201,C202","Capacitor_SMD:C_Elec_5x5.4",""
"1.5nF","C301,C302,C303,C304","Capacitor_SMD:C_0805_2012Metric_Pad1.15x1.40mm_HandSolder","C1717"
"1nF","C501,C502","Capacitor_SMD:C_0805_2012Metric_Pad1.15x1.40mm_HandSolder","C46653"
"470pF","C505,C506","Capacitor_SMD:C_0805_2012Metric_Pad1.15x1.40mm_HandSolder","C1743"
"10uF","C509,C601","Capacitor_SMD:C_1206_3216Metric_Pad1.42x1.75mm_HandSolder",""
"100nF","C510,C511,C512,C602,C603","Capacitor_SMD:C_0805_2012Metric_Pad1.15x1.40mm_HandSolder","C49678"
"LED Red","D201","LED_SMD:LED_0805_2012Metric_Pad1.15x1.40mm_HandSolder","C84256"
"BAV199","D501,D502","Package_TO_SOT_SMD:SOT-23",""
"LED Green","D601","LED_SMD:LED_0805_2012Metric_Pad1.15x1.40mm_HandSolder","C2297"
"Fiducial","F1","Fiducial:Fiducial_1mm_Dia_2mm_Outer",""
"MMZ1608B601C","FB501,FB502","Fuse:Fuse_0603_1608Metric_Pad1.05x0.95mm_HandSolder",""
"MountingHole","H1,H2,H3,H4","MountingHole:MountingHole_2.2mm_M2",""
"Conn_01x02","J201","Connector_JST:JST_XH_S2B-XH-A_1x02_P2.50mm_Horizontal",""
"Screw_Terminal_01x04","J301","Bornier-blue:DG306-5.0-04P",""
"Screw_Terminal_01x02","J302","Bornier-blue:DG306-5.0-03P",""
"Screw_Terminal_01x03","J501","Bornier-blue:DG306-5.0-03P",""
"Micro_SD_Card","J601","Connector_Card:microSD_HC_Hirose_DM3D-SF",""
"Conn_01x04","J602","Connector_JST:JST_XH_S4B-XH-A_1x04_P2.50mm_Horizontal",""
"Conn_01x05","J603","Connector_JST:JST_XH_S5B-XH-A_1x05_P2.50mm_Horizontal",""
"Conn_01x05","J604","Connector_PinHeader_2.54mm:PinHeader_1x05_P2.54mm_Vertical",""
"JUMPER","JP501,JP502","Connector_PinHeader_2.54mm:PinHeader_1x02_P2.54mm_Vertical",""
"Jumper_NC_Dual","JP505,JP506","Connector_PinHeader_2.54mm:PinHeader_1x03_P2.54mm_Vertical",""
"SS8050-G","Q1,Q2,Q3","Package_TO_SOT_SMD:SOT-23_Handsoldering","C164886"
"220","R13","Resistor_SMD:R_0805_2012Metric_Pad1.20x1.40mm_HandSolder","C17557"
"2k","R201","Resistor_SMD:R_0805_2012Metric_Pad1.20x1.40mm_HandSolder","C17604"
"3.3k","R301,R302","Resistor_SMD:R_0805_2012Metric_Pad1.20x1.40mm_HandSolder","C26010"
"4.7k","R303,R304,R608,R609","Resistor_SMD:R_0805_2012Metric_Pad1.20x1.40mm_HandSolder","C17673"
"100k","R305,R306,R309,R310","Resistor_SMD:R_0805_2012Metric_Pad1.20x1.40mm_HandSolder","C25271"
"100","R307,R308,R521,R522","Resistor_SMD:R_0805_2012Metric_Pad1.20x1.40mm_HandSolder","C17408"
"4.7","R501,R502","Resistor_SMD:R_0805_2012Metric_Pad1.20x1.40mm_HandSolder","C17675"
"237","R505,R506","Resistor_SMD:R_0805_2012Metric_Pad1.20x1.40mm_HandSolder",""
"15k","R509,R510,R513,R514,R515,R516","Resistor_SMD:R_0805_2012Metric_Pad1.20x1.40mm_HandSolder",""
"10k","R12,R14,R601,R602,R603,R604,R605,R606,R607,R610,R611","Resistor_SMD:R_0805_2012Metric_Pad1.20x1.40mm_HandSolder","C17414"
"SW_Push","SW601","Button_Switch_SMD:SW_SPST_B3U-1000P",""
"AMS1117-3.3","U201","Package_TO_SOT_SMD:SOT-223-3_TabPin2","C6186"
"TLP290","U301,U302","Package_SO:SOIC-4_4.55x2.6mm_P1.27mm",""
"MCP6022","U501","Package_SO:SOIC-8_3.9x4.9mm_P1.27mm","C57639"
"ESP32-WROOM-32","U601","RF_Module:ESP32-WROOM-32",""
"P6SMB20CAT3G","ZA501,ZA502","Diode_SMD:D_SMA_Handsoldering",""